fst/samples/t0004.vcd
$date
	Mon Jul 21 08:55:20 2025

$end
$version
	Test Converter
$end
$timescale
	1ps
$end
$scope module scp0001 $end
$scope module scp0002 $end
$var wire 8 ! wire0001[7:0] $end
$var wire 1 " wire0002 $end
$var wire 8 # wire0003[7:0] $end
$var wire 1 $ wire0004 $end
$var wire 1 % wire0005 $end
$var wire 1 & wire0006 $end
$var wire 1 ' clk0001 $end
$upscope $end
$scope module scp0003 $end
$var wire 8 ( wire0001[7:0] $end
$var wire 1 ) wire0002 $end
$var wire 8 * wire0003[7:0] $end
$var wire 1 + wire0004 $end
$var wire 1 , wire0005 $end
$var wire 1 - wire0006 $end
$var wire 1 . clk0001 $end
$upscope $end
$upscope $end
$enddefinitions $end
b00000001 !
1"
b00000001 #
1$
0%
1&
0'
b00000001 (
1)
b00000001 *
1+
0,
1-
0.
#40000
$dumpvars
1.
1'
$end
#80000
0'
0.
#120000
1.
1'
#160000
0'
0.
#200000
1.
1'
#240000
0'
0.
#280000
1.
1'
#320000
0'
0.
0+
0$
#360000
1.
1'
1,
1%
#400000
0'
0.
1$
1+
#440000
1.
1'
#480000
0'
0.
0%
0,
#520000
1.
1'
#560000
0'
0.
#600000
1.
1'
#640000
0'
0.
#680000
1.
1'
#720000
0'
0.
#760000
1.
1'
#800000
0'
0.
#840000
1.
1'
#880000
0'
0.
#920000
1.
1'
#960000
0'
0.
#1000000
1.
1'
#1040000
0'
0.
0)
0"
#1080000
1.
1'
#1120000
0'
0.
1"
1)
0+
0$
#1160000
1.
1'
1,
1%
#1200000
0'
0.
1$
1+
#1240000
1.
1'
#1280000
0'
0.
0%
0,
b00000000 *
b00000000 #
#1320000
1.
1'
#1360000
0'
0.
#1400000
1.
1'
#1440000
0'
0.
#1480000
1.
1'
#1520000
0'
0.
#1560000
1.
1'
#1600000
0'
0.
0+
0$
#1640000
1.
1'
1,
1%
#1680000
0'
0.
1$
1+
#1720000
1.
1'
#1760000
0'
0.
0)
0"
#1800000
1.
1'
#1840000
0'
0.
1"
1)
#1880000
1.
1'
#1920000
0'
0.
0%
0,
#1960000
1.
1'
#2000000
0'
0.
#2040000
1.
1'
#2080000
0'
0.
#2120000
1.
1'
#2160000
0'
0.
#2200000
1.
1'
#2240000
0'
0.
#2280000
1.
1'
#2320000
0'
0.
0)
0"
b00000000 (
b00000000 !
#2360000
1.
1'
#2400000
0'
0.
1"
1)
#2440000
1.
1'
#2480000
0'
0.
0+
0$
#2520000
1.
1'
1,
1%
#2560000
0'
0.
1$
1+
#2600000
1.
1'
#2640000
0'
0.
0%
0,
b00000001 #
b00000001 *
#2680000
1.
1'
#2720000
0'
0.
#2760000
1.
1'
#2800000
0'
0.
#2840000
1.
1'
#2880000
0'
0.
0)
0"
#2920000
1.
1'
#2960000
0'
0.
1"
1)
#3000000
1.
1'
#3040000
0'
0.
#3080000
1.
1'
#3120000
0'
0.
#3160000
1.
1'
#3200000
0'
0.
#3240000
1.
1'
#3280000
0'
0.
#3320000
1.
1'
#3360000
0'
0.
#3400000
1.
1'
#3440000
0'
0.
0+
0$
#3480000
1.
1'
1,
1%
#3520000
0'
0.
1$
1+
#3560000
1.
1'
#3600000
0'
0.
0%
0,
#3640000
1.
1'
#3680000
0'
0.
#3720000
1.
1'
#3760000
0'
0.
0)
0"
b00000001 !
b00000001 (
#3800000
1.
1'
#3840000
0'
0.
1"
1)
0+
0$
#3880000
1.
1'
1,
1%
#3920000
0'
0.
1$
1+
#3960000
1.
1'
#4000000
0'
0.
0%
0,
b00000111 *
b00000111 #
#4040000
1.
1'
#4080000
0'
0.
0+
0$
#4120000
1.
1'
1,
1%
#4160000
0'
0.
1$
1+
#4200000
1.
1'
#4240000
0'
0.
#4280000
1.
1'
#4320000
0'
0.
#4360000
1.
1'
#4400000
0'
0.
#4440000
1.
1'
#4480000
0'
0.
#4520000
1.
1'
#4560000
0'
0.
#4600000
1.
1'
#4640000
0'
0.
0)
0"
#4680000
1.
1'
#4720000
0'
0.
1"
1)
#4760000
1.
1'
#4800000
0'
0.
0%
0,
b00110000 #
b00110000 *
#4840000
1.
1'
#4880000
0'
0.
#4920000
1.
1'
#4960000
0'
0.
#5000000
1.
1'
#5040000
0'
0.
#5080000
1.
1'
#5120000
0'
0.
0+
0$
#5160000
1.
1'
1,
1%
#5200000
0'
0.
1$
1+
#5240000
1.
1'
#5280000
0'
0.
#5320000
1.
1'
#5360000
0'
0.
#5400000
1.
1'
#5440000
0'
0.
#5480000
1.
1'
#5520000
0'
0.
0)
0"
b00000111 (
b00000111 !
#5560000
1.
1'
#5600000
0'
0.
1"
1)
#5640000
1.
1'
#5680000
0'
0.
0%
0,
b00010111 *
b00010111 #
#5720000
1.
1'
#5760000
0'
0.
0+
0$
#5800000
1.
1'
1,
1%
#5840000
0'
0.
1$
1+
#5880000
1.
1'
#5920000
0'
0.
#5960000
1.
1'
#6000000
0'
0.
#6040000
1.
1'
#6080000
0'
0.
#6120000
1.
1'
#6160000
0'
0.
0)
0"
b00110000 !
b00110000 (
#6200000
1.
1'
#6240000
0'
0.
1"
1)
#6280000
1.
1'
#6320000
0'
0.
0%
0,
b01111111 #
b01111111 *
#6360000
1.
1'
#6400000
0'
0.
#6440000
1.
1'
#6480000
0'
0.
#6520000
1.
1'
#6560000
0'
0.
0+
0$
#6600000
1.
1'
1,
1%
#6640000
0'
0.
1$
1+
#6680000
1.
1'
#6720000
0'
0.
#6760000
1.
1'
#6800000
0'
0.
0)
0"
b00010111 (
b00010111 !
#6840000
1.
1'
#6880000
0'
0.
1"
1)
#6920000
1.
1'
#6960000
0'
0.
0%
0,
b00110111 *
b00110111 #
#7000000
1.
1'
#7040000
0'
0.
#7080000
1.
1'
#7120000
0'
0.
0+
0$
#7160000
1.
1'
1,
1%
#7200000
0'
0.
1$
1+
#7240000
1.
1'
#7280000
0'
0.
#7320000
1.
1'
#7360000
0'
0.
#7400000
1.
1'
#7440000
0'
0.
0)
0"
b01111111 !
b01111111 (
#7480000
1.
1'
#7520000
0'
0.
1"
1)
#7560000
1.
1'
#7600000
0'
0.
0%
0,
b01000110 #
b01000110 *
#7640000
1.
1'
#7680000
0'
0.
#7720000
1.
1'
#7760000
0'
0.
#7800000
1.
1'
#7840000
0'
0.
#7880000
1.
1'
#7920000
0'
0.
#7960000
1.
1'
#8000000
0'
0.
#8040000
1.
1'
#8080000
0'
0.
#8120000
1.
1'
#8160000
0'
0.
#8200000
1.
1'
#8240000
0'
0.
0)
0"
b00110111 (
b00110111 !
0+
0$
#8280000
1.
1'
1,
1%
#8320000
0'
0.
1$
1+
1"
1)
#8360000
1.
1'
#8400000
0'
0.
0%
0,
b01000000 *
b01000000 #
0-
0&
#8440000
1.
1'
#8480000
0'
0.
#8520000
1.
1'
#8560000
0'
0.
#8600000
1.
1'
#8640000
0'
0.
0+
0$
#8680000
1.
1'
1,
1%
#8720000
0'
0.
1$
1+
#8760000
1.
1'
#8800000
0'
0.
#8840000
1.
1'
#8880000
0'
0.
#8920000
1.
1'
#8960000
0'
0.
#9000000
1.
1'
#9040000
0'
0.
#9080000
1.
1'
#9120000
0'
0.
#9160000
1.
1'
#9200000
0'
0.
0)
0"
b01000110 !
b01000110 (
#9240000
1.
1'
#9280000
0'
0.
b00000000 (
b00000000 !
1"
1)
#9320000
1.
1'
#9360000
0'
0.
0)
0"
0%
0,
b00000111 #
b00000111 *
#9400000
1.
1'
#9440000
0'
0.
1"
1)
#9480000
1.
1'
#9520000
0'
0.
#9560000
1.
1'
#9600000
0'
0.
0+
0$
#9640000
1.
1'
1,
1%
#9680000
0'
0.
1$
1+
b00111100 !
b00111100 (
#9720000
1.
1'
#9760000
0'
0.
0%
0,
b00001000 *
b00001000 #
#9800000
1.
1'
#9840000
0'
0.
#9880000
1.
1'
#9920000
0'
0.
#9960000
1.
1'
#10000000
0'
0.
#10040000
1.
1'
#10080000
0'
0.
0)
0"
#10120000
1.
1'
#10160000
0'
0.
1"
1)
#10200000
1.
1'
#10240000
0'
0.
#10280000
1.
1'
#10320000
0'
0.
#10360000
1.
1'
#10400000
0'
0.
0+
0$
#10440000
1.
1'
1,
1%
#10480000
0'
0.
1$
1+
b00001011 (
b00001011 !
#10520000
1.
1'
#10560000
0'
0.
0%
0,
b00000111 #
b00000111 *
#10600000
1.
1'
#10640000
0'
0.
#10680000
1.
1'
#10720000
0'
0.
#10760000
1.
1'
#10800000
0'
0.
#10840000
1.
1'
#10880000
0'
0.
#10920000
1.
1'
#10960000
0'
0.
#11000000
1.
1'
#11040000
0'
0.
0)
0"
#11080000
1.
1'
#11120000
0'
0.
1"
1)
#11160000
1.
1'
#11200000
0'
0.
#11240000
1.
1'
#11280000
0'
0.
#11320000
1.
1'
#11360000
0'
0.
0+
0$
#11400000
1.
1'
1,
1%
#11440000
0'
0.
1$
1+
b01001100 !
b01001100 (
#11480000
1.
1'
#11520000
0'
0.
0%
0,
b00000101 *
b00000101 #
#11560000
1.
1'
#11600000
0'
0.
#11640000
1.
1'
#11680000
0'
0.
#11720000
1.
1'
#11760000
0'
0.
0+
0$
0)
0"
#11800000
1.
1'
1,
1%
#11840000
0'
0.
1"
1)
1$
1+
b00110100 (
b00110100 !
#11880000
1.
1'
#11920000
0'
0.
0%
0,
b00000110 #
b00000110 *
#11960000
1.
1'
#12000000
0'
0.
#12040000
1.
1'
#12080000
0'
0.
#12120000
1.
1'
#12160000
0'
0.
#12200000
1.
1'
#12240000
0'
0.
#12280000
1.
1'
#12320000
0'
0.
#12360000
1.
1'
#12400000
0'
0.
#12440000
1.
1'
#12480000
0'
0.
#12520000
1.
1'
#12560000
0'
0.
#12600000
1.
1'
#12640000
0'
0.
0)
0"
#12680000
1.
1'
#12720000
0'
0.
1"
1)
0+
0$
#12760000
1.
1'
1,
1%
#12800000
0'
0.
1$
1+
b01010111 !
b01010111 (
#12840000
1.
1'
#12880000
0'
0.
#12920000
1.
1'
#12960000
0'
0.
#13000000
1.
1'
#13040000
0'
0.
#13080000
1.
1'
#13120000
0'
0.
#13160000
1.
1'
#13200000
0'
0.
#13240000
1.
1'
#13280000
0'
0.
#13320000
1.
1'
#13360000
0'
0.
#13400000
1.
1'
#13440000
0'
0.
#13480000
1.
1'
#13520000
0'
0.
0)
0"
#13560000
1.
1'
#13600000
0'
0.
1"
1)
