fst/samples/t0007.vcd
$date
	Mon Jul 21 08:55:20 2025

$end
$version
	Test Converter
$end
$timescale
	1fs
$end
$var reg 1 ! reg0001 $end
$var reg 1 " reg0002 $end
$var reg 1 # reg0003 $end
$var reg 1 $ reg0004 $end
$var reg 1 % reg0005 $end
$scope module scp0001 $end
$var reg 1 & reg0001 $end
$upscope $end
$scope module scp0002 $end
$var reg 1 ' reg0001 $end
$var reg 1 ( reg0006 $end
$upscope $end
$scope module scp0003 $end
$var reg 1 ) reg0007 $end
$var reg 1 * reg0001 $end
$var reg 1 + rst0001 $end
$var reg 1 , reg0008 $end
$var reg 1 - reg0009 $end
$upscope $end
$enddefinitions $end
#0
$dumpvars
1-
1,
0+
1*
1'
1&
1%
1$
0#
1!
$end
#200000000
0!
0&
0'
0*
1)
1(
1"
#400000000
1*
1'
1&
1!
#600000000
0!
0&
0'
0*
1#
1+
#800000000
1*
1'
1&
1!
#1000000000
0!
0&
0'
0*
#1200000000
1*
1'
1&
1!
#1400000000
0!
0&
0'
0*
#1600000000
1*
1'
1&
1!
#1800000000
0!
0&
0'
0*
0"
0(
0)
#2000000000
1*
1'
1&
1!
#2200000000
0!
0&
0'
0*
0$
0-
#2400000000
1*
1'
1&
1!
#2600000000
0!
0&
0'
0*
1-
1$
0%
0,
#2800000000
1*
1'
1&
1!
#3000000000
0!
0&
0'
0*
1,
1%
0$
0-
#3200000000
1*
1'
1&
1!
#3400000000
0!
0&
0'
0*
1-
1$
0%
0,
#3600000000
1*
1'
1&
1!
#3800000000
0!
0&
0'
0*
1,
1%
0$
0-
1)
1(
1"
#4000000000
1*
1'
1&
1!
#4200000000
0!
0&
0'
0*
0"
0(
0)
1-
1$
#4400000000
1*
1'
1&
1!
#4600000000
0!
0&
0'
0*
1)
1(
1"
0%
0,
#4800000000
1*
1'
1&
1!
#5000000000
0!
0&
0'
0*
1,
1%
0"
0(
0)
#5200000000
1*
1'
1&
1!
#5400000000
0!
0&
0'
0*
1)
1(
1"
0$
0-
#5600000000
1*
1'
1&
1!
#5800000000
0!
0&
0'
0*
1-
1$
0"
0(
0)
#6000000000
1*
1'
1&
1!
#6200000000
0!
0&
0'
0*
1)
1(
1"
0%
0,
#6400000000
1*
1'
1&
1!
#6600000000
0!
0&
0'
0*
1,
1%
#6800000000
1*
1'
1&
1!
#7000000000
0!
0&
0'
0*
#7200000000
1*
1'
1&
1!
#7400000000
0!
0&
0'
0*
0"
0(
0)
#7600000000
1*
1'
1&
1!
#7800000000
0!
0&
0'
0*
0$
0-
#8000000000
1*
1'
1&
1!
#8200000000
0!
0&
0'
0*
1-
1$
1)
1(
1"
0%
0,
#8400000000
1*
1'
1&
1!
#8600000000
0!
0&
0'
0*
1,
1%
#8800000000
1*
1'
1&
1!
#9000000000
0!
0&
0'
0*
0"
0(
0)
#9200000000
1*
1'
1&
1!
#9400000000
0!
0&
0'
0*
0$
0-
#9600000000
1*
1'
1&
1!
#9800000000
0!
0&
0'
0*
1-
1$
1)
1(
1"
0%
0,
#10000000000
1*
1'
1&
1!
#10200000000
0!
0&
0'
0*
1,
1%
0"
0(
0)
#10400000000
1*
1'
1&
1!
#10600000000
0!
0&
0'
0*
1)
1(
1"
0$
0-
#10800000000
1*
1'
1&
1!
#11000000000
0!
0&
0'
0*
1-
1$
0"
0(
0)
#11200000000
1*
1'
1&
1!
#11400000000
0!
0&
0'
0*
1)
1(
1"
0%
0,
#11600000000
1*
1'
1&
1!
#11800000000
0!
0&
0'
0*
1,
1%
#12000000000
1*
1'
1&
1!
#12200000000
0!
0&
0'
0*
#12400000000
1*
1'
1&
1!
#12600000000
0!
0&
0'
0*
#12800000000
1*
1'
1&
1!
#13000000000
0!
0&
0'
0*
#13200000000
1*
1'
1&
1!
#13400000000
0!
0&
0'
0*
#13600000000
1*
1'
1&
1!
#13800000000
0!
0&
0'
0*
#14000000000
1*
1'
1&
1!
#14200000000
0!
0&
0'
0*
#14400000000
1*
1'
1&
1!
#14600000000
0!
0&
0'
0*
#14800000000
1*
1'
1&
1!
#15000000000
0!
0&
0'
0*
0"
0(
0)
#15200000000
1*
1'
1&
1!
#15400000000
0!
0&
0'
0*
0$
0-
#15600000000
1*
1'
1&
1!
#15800000000
0!
0&
0'
0*
1-
1$
0%
0,
#16000000000
1*
1'
1&
1!
#16200000000
0!
0&
0'
0*
1,
1%
0$
0-
1)
1(
1"
#16400000000
1*
1'
1&
1!
#16600000000
0!
0&
0'
0*
1-
1$
#16800000000
1*
1'
1&
1!
#17000000000
0!
0&
0'
0*
#17200000000
1*
1'
1&
1!
#17400000000
0!
0&
0'
0*
#17600000000
1*
1'
1&
1!
#17800000000
0!
0&
0'
0*
0"
0(
0)
#18000000000
1*
1'
1&
1!
#18200000000
0!
0&
0'
0*
0%
0,
#18400000000
1*
1'
1&
1!
#18600000000
0!
0&
0'
0*
1,
1%
0$
0-
#18800000000
1*
1'
1&
1!
#19000000000
0!
0&
0'
0*
1-
1$
0%
0,
#19200000000
1*
1'
1&
1!
#19400000000
0!
0&
0'
0*
1,
1%
0$
0-
#19600000000
1*
1'
1&
1!
#19800000000
0!
0&
0'
0*
1-
1$
0%
0,
1)
1(
1"
#20000000000
1*
1'
1&
1!
#20200000000
0!
0&
0'
0*
0"
0(
0)
1,
1%
#20400000000
1*
1'
1&
1!
