fst/samples/t0003.vcd
$date
	Mon Jul 21 08:55:20 2025

$end
$version
	Test Converter
$end
$timezero
	-300
$end
$timescale
	100us
$end
$scope module scp0001 $end
$var real 64 ! real0001 $end
$upscope $end
$enddefinitions $end
#0
$dumpvars
r-0.3769911184307752 !
$end
#4
r-0.4775220833456486 !
#8
r-0.4775220833456486 !
#12
r-0.5277875658030853 !
#16
r-0.5026548245743669 !
#20
r-0.5277875658030853 !
#24
r-0.5529203070318035 !
#28
r-0.5277875658030853 !
#32
r-0.5277875658030853 !
#36
r-0.5529203070318035 !
#40
r-0.5277875658030853 !
#44
r-0.5529203070318035 !
#48
r-0.5277875658030853 !
#52
r-0.5529203070318035 !
#56
r-0.6031857894892403 !
#60
r-0.5277875658030853 !
#64
r-0.578053048260522 !
#68
r-0.5277875658030853 !
#72
r-0.5529203070318035 !
#76
r-0.5277875658030853 !
#80
r-0.5277875658030853 !
#84
r-0.5026548245743669 !
#88
r-0.5277875658030853 !
#92
r-0.4775220833456486 !
#96
r-0.5026548245743669 !
#100
r-0.578053048260522 !
#104
r-0.6031857894892403 !
#108
r-0.7791149780902686 !
#112
r-0.7539822368615503 !
#116
r-0.9047786842338603 !
#120
r-0.9299114254625788 !
#124
r-0.8545132017764238 !
#128
r-0.8796459430051422 !
#132
r-0.8293804605477054 !
#136
r-0.8796459430051422 !
#140
r-1.055575131606171 !
#144
r-0.9801769079200154 !
#148
r-1.080707872834889 !
#152
r-1.055575131606171 !
#156
r-1.030442390377452 !
#160
r-1.055575131606171 !
#164
r-1.105840614063607 !
#168
r-1.105840614063607 !
#172
r-1.130973355292326 !
#176
r-1.130973355292326 !
#180
r-1.105840614063607 !
#184
r-1.105840614063607 !
#188
r-1.130973355292326 !
#192
r-1.105840614063607 !
#196
r-1.080707872834889 !
#200
r-1.080707872834889 !
#204
r-1.030442390377452 !
#208
r-1.030442390377452 !
#212
r-0.9801769079200154 !
#216
r-1.005309649148734 !
#220
r-0.9801769079200154 !
#224
r-0.9550441666912971 !
#228
r-0.8545132017764238 !
#232
r-0.8293804605477054 !
#236
r-0.6785840131753953 !
#240
r-0.7288494956328321 !
#244
r-0.5529203070318035 !
#248
r-0.5277875658030853 !
#252
r-0.4523893421169302 !
#256
r-0.5277875658030853 !
#260
r-0.4021238596594935 !
#264
r-0.4021238596594935 !
#268
r-0.5277875658030853 !
#272
r-0.5277875658030853 !
#276
r-0.4775220833456486 !
#280
r-0.4775220833456486 !
#284
r-0.4021238596594935 !
#288
r-0.4021238596594935 !
#292
r-0.4021238596594935 !
#296
r-0.4021238596594935 !
#300
r-0.3015928947446201 !
#304
r-0.2761459942505428 !
#308
r-0.2510132530218245 !
#312
r-0.2261946710584651 !
#316
r-0.2510132530218245 !
#320
r-0.2510132530218245 !
#324
r-0.1759291886010284 !
#328
r-0.1759291886010284 !
#332
r-0.2510132530218245 !
#336
r-0.2261946710584651 !
#340
r0 !
#344
r-0.1256637061435917 !
#348
r-0.2261946710584651 !
#352
r-0.2010619298297468 !
#356
r-0.2510132530218245 !
#360
r-0.2261946710584651 !
#364
r-0.1256637061435917 !
#368
r-0.1256637061435917 !
#372
r-0.2261946710584651 !
#376
r-0.2261946710584651 !
#380
r-0.1256637061435917 !
#384
r-0.1256637061435917 !
#388
r-0.02513274122871835 !
#392
r0.02513274122871835 !
#396
r0.2761459942505428 !
#400
r0.2510132530218245 !
#404
r0.4523893421169302 !
#408
r0.4775220833456486 !
#412
r0.5026548245743669 !
#416
r0.4775220833456486 !
#420
r0.5529203070318035 !
#424
r0.5277875658030853 !
#428
r0.5026548245743669 !
#432
r0.5277875658030853 !
#436
r0.5529203070318035 !
#440
r0.5026548245743669 !
#444
r0.5529203070318035 !
#448
r0.5277875658030853 !
#452
r0.5529203070318035 !
#456
r0.5529203070318035 !
#460
r0.5026548245743669 !
#464
r0.5277875658030853 !
#468
r0.5529203070318035 !
#472
r0.5277875658030853 !
#476
r0.5529203070318035 !
#480
r0.4775220833456486 !
#484
r0.5277875658030853 !
#488
r0.5026548245743669 !
#492
r0.4775220833456486 !
#496
r0.4775220833456486 !
#500
r0.578053048260522 !
#504
r0.578053048260522 !
#508
r0.7288494956328321 !
#512
r0.7539822368615503 !
#516
r0.8796459430051422 !
#520
r0.8796459430051422 !
#524
r0.8545132017764238 !
#528
r0.8796459430051422 !
#532
r0.8293804605477054 !
#536
r0.8545132017764238 !
#540
r1.030442390377452 !
#544
r0.9801769079200154 !
#548
r1.030442390377452 !
#552
r1.030442390377452 !
#556
r1.030442390377452 !
#560
r1.030442390377452 !
#564
r1.055575131606171 !
#568
r1.080707872834889 !
#572
r1.055575131606171 !
#576
r1.080707872834889 !
#580
r1.105840614063607 !
#584
r1.105840614063607 !
#588
r1.030442390377452 !
#592
r1.030442390377452 !
#596
r1.055575131606171 !
#600
r1.030442390377452 !
#604
r1.005309649148734 !
#608
r1.005309649148734 !
#612
r0.9801769079200154 !
#616
r0.9801769079200154 !
#620
r0.9550441666912971 !
#624
r0.9801769079200154 !
#628
r0.8545132017764238 !
#632
r0.8545132017764238 !
#636
r0.6785840131753953 !
#640
r0.6785840131753953 !
#644
r0.578053048260522 !
#648
r0.4523893421169302 !
#652
r0.5529203070318035 !
#656
r0.4021238596594935 !
#660
r0.5277875658030853 !
#664
r0.4021238596594935 !
#668
r0.5529203070318035 !
#672
r0.5277875658030853 !
#676
r0.4775220833456486 !
#680
r0.4523893421169302 !
#684
r0.3769911184307752 !
#688
r0.4021238596594935 !
#692
r0.3267256359733385 !
#696
r0.3769911184307752 !
#700
r0.3267256359733385 !
#704
r0.3015928947446201 !
#708
r0.2261946710584651 !
#712
r0.2010619298297468 !
#716
r0.2510132530218245 !
#720
r0.2010619298297468 !
#724
r0.2261946710584651 !
#728
r0.2010619298297468 !
#732
r0.2510132530218245 !
#736
r0.2261946710584651 !
#740
r-0.02513274122871835 !
#744
r0.1005309649148734 !
#748
r0.2010619298297468 !
#752
r0.2261946710584651 !
#756
r0.2010619298297468 !
#760
r0.2010619298297468 !
#764
r0.1256637061435917 !
#768
r0.2010619298297468 !
#772
r0.1507964473723101 !
#776
r0.2010619298297468 !
#780
r0.1507964473723101 !
#784
r0.1256637061435917 !
#788
r0 !
#792
r0 !
#796
r-0.2261946710584651 !
#800
r-0.2510132530218245 !
#804
r-0.4523893421169302 !
#808
r-0.4523893421169302 !
#812
r-0.5277875658030853 !
#816
r-0.5277875658030853 !
#820
r-0.5026548245743669 !
#824
r-0.5277875658030853 !
#828
r-0.5529203070318035 !
#832
r-0.5529203070318035 !
#836
r-0.5277875658030853 !
#840
r-0.5277875658030853 !
#844
r-0.578053048260522 !
#848
r-0.5277875658030853 !
#852
r-0.5529203070318035 !
#856
r-0.5529203070318035 !
#860
r-0.5026548245743669 !
#864
r-0.5277875658030853 !
#868
r-0.5529203070318035 !
#872
r-0.5529203070318035 !
#876
r-0.5277875658030853 !
#880
r-0.5529203070318035 !
#884
r-0.5026548245743669 !
#888
r-0.5026548245743669 !
#892
r-0.4775220833456486 !
#896
r-0.4775220833456486 !
#900
r-0.5529203070318035 !
#904
r-0.5529203070318035 !
#908
r-0.7539822368615503 !
#912
r-0.7539822368615503 !
#916
r-0.9047786842338603 !
#920
r-0.9299114254625788 !
#924
r-0.8545132017764238 !
#928
r-0.8545132017764238 !
#932
r-0.8293804605477054 !
#936
r-0.8293804605477054 !
#940
r-0.9047786842338603 !
#944
r-0.9047786842338603 !
#948
r-1.105840614063607 !
#952
r-1.030442390377452 !
#956
r-1.080707872834889 !
#960
r-1.055575131606171 !
#964
r-1.080707872834889 !
#968
r-1.105840614063607 !
#972
r-1.080707872834889 !
#976
r-1.105840614063607 !
#980
r-1.156106096521044 !
#984
r-1.156106096521044 !
#988
r-1.105840614063607 !
#992
r-1.130973355292326 !
#996
r-1.080707872834889 !
#1000
r-1.080707872834889 !
#1004
r-1.030442390377452 !
#1008
r-1.055575131606171 !
#1012
r-1.005309649148734 !
#1016
r-0.9801769079200154 !
#1020
r-1.030442390377452 !
#1024
r-0.9801769079200154 !
#1028
r-0.8796459430051422 !
#1032
r-0.8545132017764238 !
#1036
r-0.7288494956328321 !
#1040
r-0.7037167544041136 !
#1044
r-0.578053048260522 !
#1048
r-0.578053048260522 !
#1052
r-0.4775220833456486 !
#1056
r-0.5026548245743669 !
#1060
r-0.4272566008882119 !
#1064
r-0.5277875658030853 !
#1068
r-0.4021238596594935 !
#1072
r-0.4523893421169302 !
#1076
r-0.5277875658030853 !
#1080
r-0.5026548245743669 !
#1084
r-0.4021238596594935 !
#1088
r-0.4272566008882119 !
#1092
r-0.3769911184307752 !
#1096
r-0.4021238596594935 !
#1100
r-0.3267256359733385 !
#1104
r-0.2761459942505428 !
#1108
r-0.2510132530218245 !
#1112
r-0.2510132530218245 !
#1116
r-0.2010619298297468 !
#1120
r-0.2261946710584651 !
#1124
r-0.2761459942505428 !
#1128
r-0.2761459942505428 !
#1132
r-0.2261946710584651 !
#1136
r-0.2761459942505428 !
#1140
r-0.02513274122871835 !
#1144
r-0.1256637061435917 !
#1148
r-0.2510132530218245 !
#1152
r-0.2761459942505428 !
#1156
r-0.2261946710584651 !
#1160
r-0.2261946710584651 !
#1164
r-0.1507964473723101 !
#1168
r-0.2261946710584651 !
#1172
r-0.1507964473723101 !
#1176
r-0.2010619298297468 !
#1180
r-0.1507964473723101 !
#1184
r-0.1256637061435917 !
#1188
r-0.02513274122871835 !
#1192
r-0.05026548245743669 !
#1196
r0.1507964473723101 !
#1200
r0.1759291886010284 !
#1204
r0.4021238596594935 !
#1208
r0.4272566008882119 !
#1212
r0.5026548245743669 !
#1216
r0.4775220833456486 !
#1220
r0.5277875658030853 !
#1224
r0.5026548245743669 !
#1228
r0.5277875658030853 !
#1232
r0.5026548245743669 !
#1236
r0.5529203070318035 !
#1240
r0.5026548245743669 !
#1244
r0.5529203070318035 !
#1248
r0.5026548245743669 !
#1252
r0.5277875658030853 !
#1256
r0.5277875658030853 !
#1260
r0.5026548245743669 !
#1264
r0.5277875658030853 !
#1268
r0.5026548245743669 !
#1272
r0.5277875658030853 !
#1276
r0.5529203070318035 !
#1280
r0.5277875658030853 !
#1284
r0.4775220833456486 !
#1288
r0.4775220833456486 !
#1292
r0.5026548245743669 !
#1296
r0.4523893421169302 !
#1300
r0.5026548245743669 !
#1304
r0.5277875658030853 !
#1308
r0.6785840131753953 !
#1312
r0.6785840131753953 !
#1316
r0.8042477193189871 !
#1320
r0.8545132017764238 !
#1324
r0.9047786842338603 !
#1328
r0.9047786842338603 !
#1332
r0.8293804605477054 !
#1336
r0.8293804605477054 !
#1340
r0.9047786842338603 !
#1344
r0.9047786842338603 !
#1348
r1.055575131606171 !
#1352
r1.005309649148734 !
#1356
r1.030442390377452 !
#1360
r1.030442390377452 !
#1364
r1.055575131606171 !
#1368
r1.030442390377452 !
#1372
r1.080707872834889 !
#1376
r1.055575131606171 !
#1380
r1.105840614063607 !
#1384
r1.105840614063607 !
#1388
r1.080707872834889 !
#1392
r1.105840614063607 !
#1396
r1.055575131606171 !
#1400
r1.080707872834889 !
#1404
r1.030442390377452 !
#1408
r1.030442390377452 !
#1412
r0.9801769079200154 !
#1416
r1.005309649148734 !
#1420
r0.9550441666912971 !
#1424
r1.005309649148734 !
#1428
r0.8796459430051422 !
#1432
r0.8545132017764238 !
#1436
r0.7288494956328321 !
#1440
r0.7288494956328321 !
#1444
r0.578053048260522 !
#1448
r0.6031857894892403 !
#1452
r0.4775220833456486 !
#1456
r0.4272566008882119 !
#1460
r0.5529203070318035 !
#1464
r0.4523893421169302 !
#1468
r0.5529203070318035 !
#1472
r0.5529203070318035 !
#1476
r0.4775220833456486 !
#1480
r0.5026548245743669 !
#1484
r0.4272566008882119 !
#1488
r0.4021238596594935 !
#1492
r0.3518583772020568 !
#1496
r0.3769911184307752 !
#1500
r0.3015928947446201 !
#1504
r0.3015928947446201 !
#1508
r0.2261946710584651 !
#1512
r0.2510132530218245 !
#1516
r0.2010619298297468 !
#1520
r0.2010619298297468 !
#1524
r0.2510132530218245 !
#1528
r0.2010619298297468 !
#1532
r0.2261946710584651 !
#1536
r0.2261946710584651 !
#1540
r-0.02513274122871835 !
#1544
r0.07539822368615504 !
#1548
r0.2261946710584651 !
#1552
r0.2010619298297468 !
#1556
r0.2261946710584651 !
#1560
r0.2261946710584651 !
#1564
r0.1005309649148734 !
#1568
r0.1256637061435917 !
#1572
r0.1759291886010284 !
#1576
r0.1507964473723101 !
#1580
r0.2010619298297468 !
#1584
r0.1507964473723101 !
#1588
r0.02513274122871835 !
#1592
r0.02513274122871835 !
#1596
r-0.1256637061435917 !
#1600
r-0.1507964473723101 !
#1604
r-0.4523893421169302 !
#1608
r-0.4523893421169302 !
#1612
r-0.5277875658030853 !
#1616
r-0.5026548245743669 !
#1620
r-0.5529203070318035 !
#1624
r-0.5277875658030853 !
#1628
r-0.5529203070318035 !
#1632
r-0.5529203070318035 !
#1636
r-0.5277875658030853 !
#1640
r-0.5277875658030853 !
#1644
r-0.5529203070318035 !
#1648
r-0.5529203070318035 !
#1652
r-0.5277875658030853 !
#1656
r-0.5277875658030853 !
#1660
r-0.6031857894892403 !
#1664
r-0.578053048260522 !
#1668
r-0.5529203070318035 !
#1672
r-0.578053048260522 !
#1676
r-0.5529203070318035 !
#1680
r-0.5529203070318035 !
#1684
r-0.5026548245743669 !
#1688
r-0.5277875658030853 !
#1692
r-0.4775220833456486 !
#1696
r-0.5277875658030853 !
#1700
r-0.4775220833456486 !
#1704
r-0.5277875658030853 !
#1708
r-0.7539822368615503 !
#1712
r-0.7539822368615503 !
#1716
r-0.8545132017764238 !
#1720
r-0.8545132017764238 !
#1724
r-0.9047786842338603 !
#1728
r-0.9047786842338603 !
#1732
r-0.8545132017764238 !
#1736
r-0.8796459430051422 !
#1740
r-0.9047786842338603 !
#1744
r-0.9047786842338603 !
#1748
r-1.105840614063607 !
#1752
r-1.005309649148734 !
#1756
r-1.080707872834889 !
#1760
r-1.055575131606171 !
#1764
r-1.080707872834889 !
#1768
r-1.080707872834889 !
#1772
r-1.105840614063607 !
#1776
r-1.105840614063607 !
#1780
r-1.130973355292326 !
#1784
r-1.130973355292326 !
#1788
r-1.105840614063607 !
#1792
r-1.130973355292326 !
#1796
r-1.105840614063607 !
#1800
r-1.105840614063607 !
#1804
r-1.055575131606171 !
#1808
r-1.080707872834889 !
#1812
r-0.9299114254625788 !
#1816
r-0.9299114254625788 !
#1820
r-0.8545132017764238 !
#1824
r-0.9047786842338603 !
#1828
r-0.8545132017764238 !
#1832
r-0.8796459430051422 !
#1836
r-0.7791149780902686 !
#1840
r-0.7791149780902686 !
#1844
r-0.7037167544041136 !
#1848
r-0.7037167544041136 !
#1852
r-0.5529203070318035 !
#1856
r-0.578053048260522 !
#1860
r-0.4272566008882119 !
#1864
r-0.4272566008882119 !
#1868
r-0.5529203070318035 !
#1872
r-0.5277875658030853 !
#1876
r-0.4523893421169302 !
#1880
r-0.5026548245743669 !
#1884
r-0.4272566008882119 !
#1888
r-0.4272566008882119 !
#1892
r-0.4021238596594935 !
#1896
r-0.4272566008882119 !
#1900
r-0.4021238596594935 !
#1904
r-0.4021238596594935 !
#1908
r-0.3267256359733385 !
#1912
r-0.3518583772020568 !
#1916
r-0.2761459942505428 !
#1920
r-0.3015928947446201 !
#1924
r-0.2010619298297468 !
#1928
r-0.1759291886010284 !
#1932
r-0.1507964473723101 !
#1936
r-0.1507964473723101 !
#1940
r0.07539822368615504 !
#1944
r0 !
#1948
r-0.1507964473723101 !
#1952
r-0.1507964473723101 !
#1956
r-0.2010619298297468 !
#1960
r-0.2261946710584651 !
#1964
r-0.1759291886010284 !
#1968
r-0.1256637061435917 !
#1972
r-0.2010619298297468 !
#1976
r-0.1759291886010284 !
#1980
r-0.2510132530218245 !
#1984
r-0.2010619298297468 !
#1988
r-0.1005309649148734 !
#1992
r-0.07539822368615504 !
#1996
r0.1256637061435917 !
#2000
r0.1507964473723101 !
#2004
r0.3769911184307752 !
#2008
r0.4021238596594935 !
#2012
r0.4775220833456486 !
#2016
r0.4775220833456486 !
#2020
r0.5277875658030853 !
#2024
r0.5026548245743669 !
#2028
r0.5277875658030853 !
#2032
r0.5277875658030853 !
#2036
r0.5026548245743669 !
#2040
r0.5026548245743669 !
#2044
r0.5277875658030853 !
#2048
r0.5026548245743669 !
#2052
r0.5529203070318035 !
#2056
r0.5277875658030853 !
#2060
r0.5026548245743669 !
#2064
r0.5277875658030853 !
#2068
r0.5529203070318035 !
#2072
r0.5277875658030853 !
#2076
r0.5529203070318035 !
#2080
r0.5277875658030853 !
#2084
r0.4775220833456486 !
#2088
r0.4523893421169302 !
#2092
r0.5026548245743669 !
#2096
r0.4523893421169302 !
#2100
r0.4775220833456486 !
#2104
r0.5026548245743669 !
#2108
r0.653451271946677 !
#2112
r0.653451271946677 !
#2116
r0.8042477193189871 !
#2120
r0.8042477193189871 !
#2124
r0.8796459430051422 !
#2128
r0.8796459430051422 !
#2132
r0.8545132017764238 !
#2136
r0.8796459430051422 !
#2140
r0.8293804605477054 !
#2144
r0.9047786842338603 !
#2148
r1.055575131606171 !
#2152
r1.005309649148734 !
#2156
r1.055575131606171 !
#2160
r1.030442390377452 !
#2164
r1.005309649148734 !
#2168
r1.030442390377452 !
#2172
r1.055575131606171 !
#2176
r1.055575131606171 !
#2180
r1.105840614063607 !
#2184
r1.105840614063607 !
#2188
r1.055575131606171 !
#2192
r0.9801769079200154 !
#2196
r1.080707872834889 !
#2200
r1.055575131606171 !
#2204
r1.030442390377452 !
#2208
r1.005309649148734 !
#2212
r0.9299114254625788 !
#2216
r0.9047786842338603 !
#2220
r0.8293804605477054 !
#2224
r0.8796459430051422 !
#2228
r0.8293804605477054 !
#2232
r0.8796459430051422 !
#2236
r0.8042477193189871 !
#2240
r0.8042477193189871 !
#2244
r0.6785840131753953 !
#2248
r0.6785840131753953 !
#2252
r0.5529203070318035 !
#2256
r0.6031857894892403 !
#2260
r0.4523893421169302 !
#2264
r0.6031857894892403 !
#2268
r0.4272566008882119 !
#2272
r0.4775220833456486 !
#2276
r0.5529203070318035 !
#2280
r0.5026548245743669 !
#2284
r0.4021238596594935 !
#2288
r0.4523893421169302 !
#2292
r0.3769911184307752 !
#2296
r0.3518583772020568 !
#2300
r0.4021238596594935 !
#2304
r0.3769911184307752 !
#2308
r0.3267256359733385 !
#2312
r0.3267256359733385 !
#2316
r0.2510132530218245 !
#2320
r0.2761459942505428 !
#2324
r0.1759291886010284 !
#2328
r0.2010619298297468 !
#2332
r0.1507964473723101 !
#2336
r0.1507964473723101 !
#2340
r-0.1005309649148734 !
#2344
r-0.02513274122871835 !
#2348
r0.1256637061435917 !
#2352
r0.1005309649148734 !
#2356
r0.2010619298297468 !
#2360
r0.2261946710584651 !
#2364
r0.1256637061435917 !
#2368
r0.1256637061435917 !
#2372
r0.2010619298297468 !
#2376
r0.1507964473723101 !
#2380
r0.2010619298297468 !
#2384
r0.2010619298297468 !
#2388
r0.07539822368615504 !
#2392
r0.05026548245743669 !
#2396
r-0.07539822368615504 !
