fst/samples/t0001.vcd
$date
	Mon Jul 21 08:55:20 2025

$end
$version
	Test Converter
$end
$timescale
	1ps
$end
$scope module scp0001 $end
$scope module scp0002 $end
$var reg 1 ! clk0001 $end
$var reg 1 " rst0001 $end
$var reg 8 # reg0001[7:0] $end
$var reg 1 $ reg0002 $end
$var reg 1 % reg0003 $end
$var reg 8 & reg0004[7:0] $end
$var reg 8 ' reg0005[7:0] $end
$upscope $end
$upscope $end
$enddefinitions $end
#0
$dumpvars
bxxxxxxxx '
b00000001 &
1%
0$
b00111011 #
0"
0!
$end
#20
1!
#40
0!
#60
1!
#80
0!
#88
1"
#100
1!
#120
0!
b00000001 #
b00000000 &
#140
1!
#160
0!
b00000001 &
b00000001 #
#180
1!
#200
0!
b01111111 #
b00000000 &
#220
1!
#240
0!
b00000011 &
b00111111 #
1$
#260
1!
#280
0!
#300
1!
#320
0!
0$
b00000010 #
b00111011 &
#340
1!
#360
0!
bxxxxxxxx &
b00000011 &
b00111111 #
1$
#380
1!
#400
0!
0$
#420
1!
#440
0!
b00000001 #
b00000010 &
b00000010 '
#460
1!
#480
0!
b00000001 &
b00000000 #
#500
1!
#520
0!
b01111111 #
b00000000 &
#540
1!
#560
0!
b00000111 &
b00111010 #
bxxxxxxxx '
1$
#580
1!
#600
0!
#620
1!
#640
0!
0$
b00000000 #
b00111111 &
#660
1!
#680
0!
bxxxxxxxx &
b00000111 &
b00111010 #
1$
#700
1!
#720
0!
0$
#740
1!
#760
0!
b00000001 #
b00000110 &
b00000000 '
#780
1!
#800
0!
b00000101 &
b00011100 #
#820
1!
#840
0!
b01111111 #
b00000100 &
#860
1!
#880
0!
b00000011 &
b00011010 #
bxxxxxxxx '
1$
#900
1!
#920
0!
#940
1!
#960
0!
0$
b00000011 #
b00110111 &
#980
1!
#1000
0!
bxxxxxxxx &
b00000011 &
b00011010 #
1$
#1020
1!
#1040
0!
0$
#1060
1!
#1080
0!
b00011111 #
b00000010 &
b00000011 '
#1100
1!
#1120
0!
b00000001 &
b00011101 #
#1140
1!
#1160
0!
b00000001 #
b00000000 &
#1180
1!
#1200
0!
b00001111 &
b00011011 #
b00000010 '
1$
#1220
1!
#1240
0!
#1260
1!
#1280
0!
#1300
1!
#1320
0!
0$
#1340
1!
#1360
0!
b00010111 #
b00001110 &
#1380
1!
#1400
0!
b00001101 &
b00011011 #
#1420
1!
#1440
0!
b00000001 #
b00001100 &
#1460
1!
#1480
0!
b00001011 &
b00011111 #
1$
b00000000 '
#1500
1!
#1520
0!
#1540
1!
#1560
0!
#1580
1!
#1600
0!
0$
#1620
1!
#1640
0!
b00010111 #
b00001010 &
#1660
1!
#1680
0!
b00001001 &
b01011011 #
#1700
1!
#1720
0!
b00000001 #
b00001000 &
#1740
1!
#1760
0!
b00000111 &
b00000111 #
1$
#1780
1!
#1800
0!
#1820
1!
#1840
0!
#1860
1!
#1880
0!
0$
#1900
1!
#1920
0!
b00000001 #
b00000110 &
#1940
1!
#1960
0!
b00000101 &
b01011000 #
#1980
1!
#2000
0!
b00001111 #
b00000100 &
#2020
1!
#2040
0!
b00000011 &
b00010101 #
1$
b00000000 '
#2060
1!
#2080
0!
#2100
1!
#2120
0!
0$
#2140
1!
#2160
0!
b00001111 #
b00000010 &
#2180
1!
#2200
0!
b00000001 &
b00011011 #
#2220
1!
#2240
0!
b00000001 #
b00000000 &
#2260
1!
#2280
0!
b00011111 &
b00000000 #
1$
b00000000 '
#2300
1!
#2320
0!
#2340
1!
#2360
0!
#2380
1!
#2400
0!
0$
#2420
1!
#2440
0!
b00000001 #
b00011110 &
#2460
1!
#2480
0!
b00011101 &
b00111111 #
#2500
1!
#2520
0!
b00001111 #
b00011100 &
#2540
1!
#2560
0!
b00011011 &
b00000001 #
1$
b00000001 '
#2580
1!
#2600
0!
#2620
1!
#2640
0!
0$
b00010101 #
b00010111 &
#2660
1!
#2680
0!
b00010110 &
b00001111 #
#2700
1!
#2720
0!
b00011101 #
b00010101 &
#2740
1!
#2760
0!
b00010100 &
b00000001 #
#2780
1!
#2800
0!
b00011111 #
b00010011 &
1$
b00000010 '
#2820
1!
#2840
0!
#2860
1!
#2880
0!
#2900
1!
#2920
0!
0$
#2940
1!
#2960
0!
b00010010 &
b00000111 #
#2980
1!
#3000
0!
b00111010 #
b00010001 &
#3020
1!
#3040
0!
b00010000 &
b00000001 #
#3060
1!
#3080
0!
b00011101 #
b00001111 &
1$
b00000100 '
#3100
1!
#3120
0!
#3140
1!
#3160
0!
#3180
1!
#3200
0!
0$
#3220
1!
#3240
0!
b00001110 &
b00000111 #
#3260
1!
#3280
0!
b00011101 #
b00001101 &
#3300
1!
#3320
0!
b00001100 &
b00000001 #
#3340
1!
#3360
0!
b00000000 #
b00001011 &
1$
b00000010 '
#3380
1!
#3400
0!
#3420
1!
#3440
0!
#3460
1!
#3480
0!
0$
#3500
1!
#3520
0!
b00001010 &
b00000001 #
#3540
1!
#3560
0!
b00001001 &
#3580
1!
#3600
0!
b00001000 &
b00000111 #
#3620
1!
#3640
0!
b00000001 #
b00000111 &
1$
b00000001 '
#3660
1!
#3680
0!
#3700
1!
#3720
0!
0$
b00000011 &
b00111000 #
#3740
1!
#3760
0!
b00000001 #
b00000010 &
#3780
1!
#3800
0!
b00000001 &
b00111000 #
#3820
1!
#3840
0!
b01011111 #
b00000000 &
#3860
1!
#3880
0!
b00111111 &
b00000000 #
1$
b00000000 '
#3900
1!
#3920
0!
#3940
1!
#3960
0!
bxxxxxxxx #
b00110011 &
0%
