fst/samples/t0009.vcd
$date
	Fri Jul 25 10:40:09 2025

$end
$version
	fstWriter
$end
$timescale
	1ns
$end
$scope module scp0001 $end
$scope module scp0002 $end
$var parameter 32 ! parameter0001[31:0] $end
$var parameter 3 " parameter0002[2:0] $end
$var parameter 3 # parameter0003[2:0] $end
$var parameter 2 $ parameter0004[1:0] $end
$var parameter 2 % parameter0005[1:0] $end
$var parameter 2 & parameter0006[1:0] $end
$var parameter 2 ' parameter0007[1:0] $end
$var parameter 3 ( parameter0008[2:0] $end
$var parameter 3 ) parameter0009[2:0] $end
$var parameter 32 * parameter0010[31:0] $end
$var parameter 4 + parameter0011[3:0] $end
$var parameter 4 , parameter0012[3:0] $end
$var parameter 4 - parameter0013[3:0] $end
$var parameter 4 . parameter0014[3:0] $end
$var parameter 4 / parameter0015[3:0] $end
$var parameter 4 0 parameter0016[3:0] $end
$var parameter 4 1 parameter0017[3:0] $end
$var parameter 4 2 parameter0018[3:0] $end
$var parameter 4 3 parameter0019[3:0] $end
$var parameter 4 4 parameter0020[3:0] $end
$var parameter 4 5 parameter0021[3:0] $end
$var parameter 4 6 parameter0022[3:0] $end
$var parameter 4 7 parameter0023[3:0] $end
$var parameter 4 8 parameter0024[3:0] $end
$var parameter 4 9 parameter0025[3:0] $end
$var parameter 4 : parameter0026[3:0] $end
$var parameter 4 ; parameter0027[3:0] $end
$var parameter 3 < parameter0028[2:0] $end
$var parameter 3 = parameter0029[2:0] $end
$var parameter 3 > parameter0030[2:0] $end
$var parameter 3 ? parameter0031[2:0] $end
$var parameter 3 @ parameter0032[2:0] $end
$var parameter 3 A parameter0033[2:0] $end
$var parameter 3 B parameter0034[2:0] $end
$var parameter 3 C parameter0035[2:0] $end
$var parameter 2 D parameter0036[1:0] $end
$var parameter 2 E parameter0037[1:0] $end
$var parameter 2 F parameter0038[1:0] $end
$var parameter 2 G parameter0039[1:0] $end
$var parameter 2 H parameter0040[1:0] $end
$var parameter 2 I parameter0041[1:0] $end
$var parameter 2 J parameter0042[1:0] $end
$var parameter 2 K parameter0043[1:0] $end
$var parameter 4 L parameter0044[3:0] $end
$var parameter 4 M parameter0045[3:0] $end
$var parameter 4 N parameter0046[3:0] $end
$var parameter 4 O parameter0047[3:0] $end
$var parameter 4 P parameter0048[3:0] $end
$var parameter 4 Q parameter0049[3:0] $end
$var parameter 4 R parameter0050[3:0] $end
$var parameter 4 S parameter0051[3:0] $end
$var parameter 4 T parameter0052[3:0] $end
$var parameter 4 U parameter0053[3:0] $end
$var parameter 4 V parameter0054[3:0] $end
$var parameter 4 W parameter0055[3:0] $end
$var parameter 4 X parameter0056[3:0] $end
$var parameter 4 Y parameter0057[3:0] $end
$var parameter 4 Z parameter0058[3:0] $end
$var parameter 4 [ parameter0059[3:0] $end
$var parameter 3 \ parameter0060[2:0] $end
$var parameter 3 ] parameter0061[2:0] $end
$var parameter 3 ^ parameter0062[2:0] $end
$var parameter 3 _ parameter0063[2:0] $end
$var parameter 3 ` parameter0064[2:0] $end
$var parameter 3 a parameter0065[2:0] $end
$var parameter 3 b parameter0066[2:0] $end
$var parameter 3 c parameter0067[2:0] $end
$var parameter 2 d parameter0068[1:0] $end
$var parameter 2 e parameter0069[1:0] $end
$var parameter 2 f parameter0070[1:0] $end
$var parameter 3 g parameter0071[2:0] $end
$var parameter 3 h parameter0072[2:0] $end
$var parameter 3 i parameter0073[2:0] $end
$var parameter 3 j parameter0074[2:0] $end
$var parameter 3 k parameter0075[2:0] $end
$var parameter 3 l parameter0076[2:0] $end
$var parameter 2 m parameter0077[1:0] $end
$var parameter 2 n parameter0078[1:0] $end
$var parameter 2 o parameter0079[1:0] $end
$var parameter 2 p parameter0080[1:0] $end
$var parameter 3 q parameter0081[2:0] $end
$var parameter 3 r parameter0082[2:0] $end
$var parameter 3 s parameter0083[2:0] $end
$var parameter 3 t parameter0084[2:0] $end
$var parameter 3 u parameter0085[2:0] $end
$var parameter 3 v parameter0086[2:0] $end
$var parameter 2 w parameter0087[1:0] $end
$var parameter 2 x parameter0088[1:0] $end
$var parameter 2 y parameter0089[1:0] $end
$var parameter 4 z parameter0090[3:0] $end
$var parameter 4 { parameter0091[3:0] $end
$var parameter 4 | parameter0092[3:0] $end
$var parameter 4 } parameter0093[3:0] $end
$var parameter 4 ~ parameter0094[3:0] $end
$var parameter 4 !! parameter0095[3:0] $end
$var parameter 4 "! parameter0096[3:0] $end
$var parameter 4 #! parameter0097[3:0] $end
$var parameter 4 $! parameter0098[3:0] $end
$var parameter 2 %! parameter0099[1:0] $end
$var parameter 2 &! parameter0100[1:0] $end
$var parameter 2 '! parameter0101[1:0] $end
$var parameter 2 (! parameter0102[1:0] $end
$var parameter 32 )! parameter0103[31:0] $end
$var parameter 16 *! parameter0104[15:0] $end
$var parameter 16 +! parameter0105[15:0] $end
$var parameter 16 ,! parameter0106[15:0] $end
$var parameter 16 -! parameter0107[15:0] $end
$var parameter 16 .! parameter0108[15:0] $end
$var parameter 16 /! parameter0109[15:0] $end
$var parameter 16 0! parameter0110[15:0] $end
$var parameter 16 1! parameter0111[15:0] $end
$var parameter 16 2! parameter0112[15:0] $end
$var parameter 16 3! parameter0113[15:0] $end
$var parameter 16 4! parameter0114[15:0] $end
$var parameter 16 5! parameter0115[15:0] $end
$var parameter 16 6! parameter0116[15:0] $end
$var parameter 16 7! parameter0117[15:0] $end
$var parameter 16 8! parameter0118[15:0] $end
$var parameter 16 9! parameter0119[15:0] $end
$var parameter 16 :! parameter0120[15:0] $end
$var parameter 16 ;! parameter0121[15:0] $end
$var parameter 16 <! parameter0122[15:0] $end
$var parameter 16 =! parameter0123[15:0] $end
$var parameter 16 >! parameter0124[15:0] $end
$var parameter 16 ?! parameter0125[15:0] $end
$var parameter 16 @! parameter0126[15:0] $end
$var parameter 16 A! parameter0127[15:0] $end
$var parameter 16 B! parameter0128[15:0] $end
$var parameter 16 C! parameter0129[15:0] $end
$var parameter 16 D! parameter0130[15:0] $end
$var parameter 16 E! parameter0131[15:0] $end
$var parameter 16 F! parameter0132[15:0] $end
$var parameter 16 G! parameter0133[15:0] $end
$var parameter 16 H! parameter0134[15:0] $end
$var parameter 16 I! parameter0135[15:0] $end
$var parameter 16 J! parameter0136[15:0] $end
$var parameter 16 K! parameter0137[15:0] $end
$var parameter 16 L! parameter0138[15:0] $end
$var parameter 16 M! parameter0139[15:0] $end
$var parameter 16 N! parameter0140[15:0] $end
$var parameter 16 O! parameter0141[15:0] $end
$var parameter 16 P! parameter0142[15:0] $end
$var reg 1 Q! clk0001 $end
$var reg 1 R! clk0002 $end
$var reg 1 S! reg0001 $end
$var reg 16 T! reg0002[15:0] $end
$var reg 8 U! reg0003[7:0] $end
$var reg 8 V! reg0004[7:0] $end
$var reg 1 W! reg0005 $end
$var reg 1 X! reg0006 $end
$var reg 1 Y! reg0007 $end
$var reg 1 Z! reg0008 $end
$var reg 1 [! reg0009 $end
$var reg 1 \! reg0010 $end
$var reg 1 ]! reg0011 $end
$var reg 1 ^! reg0012 $end
$var reg 1 _! reg0013 $end
$var reg 1 `! reg0014 $end
$var reg 1 a! reg0015 $end
$var reg 1 b! reg0016 $end
$var reg 1 c! reg0017 $end
$var reg 1 d! reg0018 $end
$var reg 1 e! reg0019 $end
$var reg 1 f! reg0020 $end
$var reg 1 g! reg0021 $end
$var reg 1 h! reg0022 $end
$var reg 1 i! reg0023 $end
$var reg 1 j! reg0024 $end
$var reg 1 k! reg0025 $end
$var reg 1 l! reg0026 $end
$var reg 1 m! reg0027 $end
$var reg 1 n! reg0028 $end
$var reg 1 o! reg0029 $end
$var reg 1 p! reg0030 $end
$var reg 1 q! reg0031 $end
$var reg 1 r! reg0032 $end
$var reg 1 s! reg0033 $end
$var reg 1 t! reg0034 $end
$var reg 1 u! reg0035 $end
$var reg 1 v! reg0036 $end
$var reg 1 w! reg0037 $end
$var reg 1 x! reg0038 $end
$var reg 1 y! reg0039 $end
$var reg 1 z! reg0040 $end
$var reg 1 {! reg0041 $end
$var reg 1 |! reg0042 $end
$var reg 1 }! reg0043 $end
$var reg 1 ~! reg0044 $end
$var reg 1 !" reg0045 $end
$var reg 1 "" reg0046 $end
$var reg 1 #" reg0047 $end
$var reg 1 $" reg0048 $end
$var reg 1 %" reg0049 $end
$var reg 1 &" reg0050 $end
$var reg 1 '" reg0051 $end
$var reg 1 (" reg0052 $end
$var reg 1 )" reg0053 $end
$var reg 1 *" reg0054 $end
$var reg 1 +" reg0055 $end
$var reg 1 ," reg0056 $end
$var reg 1 -" reg0057 $end
$var reg 1 ." reg0058 $end
$var reg 1 /" reg0059 $end
$var reg 1 0" reg0060 $end
$var reg 1 1" reg0061 $end
$var reg 1 2" reg0062 $end
$var reg 1 3" reg0063 $end
$var reg 1 4" reg0064 $end
$var reg 1 5" reg0065 $end
$var reg 1 6" reg0066 $end
$var reg 1 7" reg0067 $end
$var reg 1 8" reg0068 $end
$var reg 1 9" reg0069 $end
$var reg 1 :" reg0070 $end
$var reg 1 ;" reg0071 $end
$var reg 1 <" reg0072 $end
$var reg 1 =" reg0073 $end
$var reg 1 >" reg0074 $end
$var reg 1 ?" reg0075 $end
$var reg 1 @" reg0076 $end
$var reg 1 A" reg0077 $end
$var reg 1 B" reg0078 $end
$var reg 1 C" reg0079 $end
$var reg 1 D" reg0080 $end
$var reg 1 E" reg0081 $end
$var reg 1 F" reg0082 $end
$var reg 1 G" reg0083 $end
$var reg 1 H" reg0084 $end
$var reg 1 I" reg0085 $end
$var reg 1 J" reg0086 $end
$var reg 1 K" reg0087 $end
$var reg 1 L" reg0088 $end
$var reg 1 M" reg0089 $end
$var reg 1 N" reg0090 $end
$var reg 1 O" reg0091 $end
$var reg 1 P" reg0092 $end
$var reg 1 Q" reg0093 $end
$var reg 1 R" reg0094 $end
$var reg 1 S" reg0095 $end
$var reg 1 T" reg0096 $end
$var reg 1 U" reg0097 $end
$var reg 1 V" reg0098 $end
$var reg 1 W" reg0099 $end
$var reg 1 X" reg0100 $end
$var reg 1 Y" reg0101 $end
$var reg 1 Z" reg0102 $end
$var reg 1 [" reg0103 $end
$var reg 1 \" reg0104 $end
$var reg 1 ]" reg0105 $end
$var reg 1 ^" reg0106 $end
$var reg 1 _" reg0107 $end
$var reg 1 `" reg0108 $end
$var reg 1 a" reg0109 $end
$var reg 1 b" reg0110 $end
$var reg 1 c" reg0111 $end
$var reg 1 d" reg0112 $end
$var reg 1 e" reg0113 $end
$var reg 1 f" reg0114 $end
$var reg 1 g" reg0115 $end
$var reg 1 h" reg0116 $end
$var reg 4 i" reg0117[3:0] $end
$var reg 8 j" reg0118[7:0] $end
$var reg 4 k" reg0119[3:0] $end
$var reg 1 l" reg0120 $end
$var reg 1 m" reg0121 $end
$var reg 1 n" reg0122 $end
$var reg 1 o" reg0123 $end
$var reg 1 p" reg0124 $end
$var reg 1 q" reg0125 $end
$var reg 1 r" reg0126 $end
$var reg 1 s" reg0127 $end
$var reg 1 t" reg0128 $end
$var reg 1 u" reg0129 $end
$var reg 1 v" reg0130 $end
$var reg 1 w" reg0131 $end
$var reg 1 x" reg0132 $end
$var reg 1 y" reg0133 $end
$var reg 1 z" reg0134 $end
$var reg 1 {" rst0001 $end
$var reg 1 |" reg0135 $end
$var reg 1 }" reg0136 $end
$var reg 1 ~" reg0137 $end
$var reg 1 !# reg0138 $end
$var reg 1 "# reg0139 $end
$var reg 1 ## reg0140 $end
$var reg 1 $# reg0141 $end
$var reg 1 %# reg0142 $end
$var reg 1 &# reg0143 $end
$var reg 1 '# reg0144 $end
$var reg 1 (# reg0145 $end
$var reg 1 )# reg0146 $end
$var reg 1 *# reg0147 $end
$var reg 1 +# reg0148 $end
$var reg 1 ,# reg0149 $end
$var reg 1 -# reg0150 $end
$var reg 1 .# reg0151 $end
$var reg 1 /# reg0152 $end
$var reg 2 0# reg0153[1:0] $end
$var reg 2 1# reg0154[7:6] $end
$var reg 1 2# reg0155 $end
$var reg 1 3# reg0156 $end
$var reg 1 4# reg0157 $end
$var reg 1 5# reg0158 $end
$var reg 1 6# reg0159 $end
$var reg 16 7# reg0160[15:0] $end
$var reg 16 8# reg0161[15:0] $end
$var reg 16 9# reg0162[15:0] $end
$var reg 2 :# reg0163[1:0] $end
$var reg 1 ;# reg0164 $end
$var reg 1 <# reg0165 $end
$var reg 4 =# reg0166[3:0] $end
$var reg 2 ># reg0167[1:0] $end
$var reg 1 ?# rst0002 $end
$var reg 1 @# reg0168 $end
$var reg 1 A# reg0169 $end
$var reg 8 B# reg0170[7:0] $end
$var reg 8 C# reg0171[7:0] $end
$var reg 1 D# reg0172 $end
$var reg 1 E# reg0173 $end
$var reg 1 F# reg0174 $end
$var reg 1 G# reg0175 $end
$var reg 1 H# reg0176 $end
$var reg 16 I# reg0177[15:0] $end
$var reg 1 J# reg0178 $end
$var reg 1 K# reg0179 $end
$var reg 16 L# reg0180[15:0] $end
$var reg 2 M# reg0181[1:0] $end
$var reg 8 N# reg0182[7:0] $end
$var reg 8 O# reg0183[7:0] $end
$var reg 8 P# reg0184[7:0] $end
$var reg 8 Q# reg0185[7:0] $end
$var reg 8 R# reg0186[7:0] $end
$var reg 8 S# reg0187[7:0] $end
$var reg 8 T# reg0188[7:0] $end
$var reg 2 U# reg0189[1:0] $end
$var reg 3 V# reg0190[2:0] $end
$var reg 3 W# reg0191[2:0] $end
$var reg 16 X# reg0192[15:0] $end
$var reg 24 Y# reg0193[23:0] $end
$var reg 2 Z# reg0194[1:0] $end
$var reg 1 [# reg0195 $end
$var reg 1 \# reg0196 $end
$var reg 8 ]# reg0197[7:0] $end
$var reg 4 ^# reg0198[3:0] $end
$var reg 3 _# reg0199[2:0] $end
$var reg 2 `# reg0200[1:0] $end
$var reg 2 a# reg0201[1:0] $end
$var reg 4 b# reg0202[3:0] $end
$var reg 3 c# reg0203[2:0] $end
$var reg 2 d# reg0204[1:0] $end
$var reg 3 e# reg0205[2:0] $end
$var reg 2 f# reg0206[1:0] $end
$var reg 3 g# reg0207[2:0] $end
$var reg 3 h# reg0208[2:0] $end
$var reg 2 i# reg0209[1:0] $end
$var reg 4 j# reg0210[3:0] $end
$var reg 2 k# reg0211[1:0] $end
$var reg 1 l# reg0212 $end
$var reg 1 m# reg0213 $end
$var reg 2 n# reg0214[1:0] $end
$var reg 1 o# reg0215 $end
$var reg 8 p# reg0216[7:0] $end
$var reg 8 q# reg0217[7:0] $end
$var reg 8 r# reg0218[7:0] $end
$var reg 8 s# reg0219[7:0] $end
$var reg 15 t# reg0220[14:0] $end
$var reg 5 u# reg0221[4:0] $end
$var reg 8 v# reg0222[7:0] $end
$var reg 8 w# reg0223[7:0] $end
$var reg 8 x# reg0224[7:0] $end
$var reg 4 y# reg0225[3:0] $end
$var reg 2 z# reg0226[1:0] $end
$var reg 1 {# rst0003 $end
$var reg 1 |# rst0004 $end
$var reg 8 }# reg0227[7:0] $end
$var reg 16 ~# reg0228[15:0] $end
$var reg 8 !$ reg0229[7:0] $end
$var reg 1 "$ rst0005 $end
$var reg 1 #$ reg0230 $end
$var reg 1 $$ reg0231 $end
$var reg 8 %$ reg0232[7:0] $end
$var reg 5 &$ reg0233[4:0] $end
$var reg 1 '$ rst0006 $end
$var reg 6 ($ reg0234[5:0] $end
$var reg 6 )$ reg0235[5:0] $end
$var reg 1 *$ rst0007 $end
$var reg 1 +$ reg0236 $end
$var reg 8 ,$ reg0237[7:0] $end
$var reg 8 -$ reg0238[7:0] $end
$var reg 8 .$ reg0239[7:0] $end
$var reg 8 /$ reg0240[7:0] $end
$var reg 8 0$ reg0241[7:0] $end
$var reg 8 1$ reg0242[7:0] $end
$var reg 8 2$ reg0243[7:0] $end
$var reg 8 3$ reg0244[7:0] $end
$var reg 33 4$ reg0245[32:0] $end
$var reg 8 5$ reg0246[7:0] $end
$var reg 8 6$ reg0247[7:0] $end
$var reg 1 7$ reg0248 $end
$var reg 1 8$ rst0008 $end
$var reg 9 9$ reg0249[8:0] $end
$var reg 9 :$ reg0250[8:0] $end
$var reg 9 ;$ reg0251[8:0] $end
$var reg 1 <$ reg0252 $end
$var reg 8 =$ reg0253[7:0] $end
$var reg 1 >$ reg0254 $end
$var reg 16 ?$ reg0255[15:0] $end
$var reg 16 @$ reg0256[15:0] $end
$var reg 16 A$ reg0257[15:0] $end
$var reg 16 B$ reg0258[15:0] $end
$var reg 16 C$ reg0259[15:0] $end
$var reg 16 D$ reg0260[15:0] $end
$var reg 16 E$ reg0261[15:0] $end
$var reg 16 F$ reg0262[15:0] $end
$var reg 16 G$ reg0263[15:0] $end
$var reg 16 H$ reg0264[15:0] $end
$var reg 16 I$ reg0265[15:0] $end
$var reg 16 J$ reg0266[15:0] $end
$var reg 9 K$ reg0267[8:0] $end
$var reg 1 L$ reg0268 $end
$var reg 1 M$ reg0269 $end
$var reg 8 N$ reg0270[7:0] $end
$var reg 4 O$ reg0271[3:0] $end
$var reg 3 P$ reg0272[2:0] $end
$var reg 2 Q$ reg0273[1:0] $end
$var reg 2 R$ reg0274[1:0] $end
$var reg 4 S$ reg0275[3:0] $end
$var reg 3 T$ reg0276[2:0] $end
$var reg 2 U$ reg0277[1:0] $end
$var reg 3 V$ reg0278[2:0] $end
$var reg 2 W$ reg0279[1:0] $end
$var reg 3 X$ reg0280[2:0] $end
$var reg 2 Y$ reg0281[1:0] $end
$var reg 4 Z$ reg0282[3:0] $end
$var reg 2 [$ reg0283[1:0] $end
$var reg 1 \$ reg0284 $end
$var reg 9 ]$ reg0285[8:0] $end
$var reg 1 ^$ reg0286 $end
$var reg 15 _$ reg0287[14:0] $end
$var reg 15 `$ reg0288[14:0] $end
$var reg 15 a$ reg0289[14:0] $end
$var reg 15 b$ reg0290[14:0] $end
$var reg 15 c$ reg0291[14:0] $end
$var reg 15 d$ reg0292[14:0] $end
$var reg 16 e$ reg0293[15:0] $end
$var reg 9 f$ reg0294[8:0] $end
$var reg 9 g$ reg0295[8:0] $end
$var reg 9 h$ reg0296[8:0] $end
$var reg 9 i$ reg0297[8:0] $end
$var reg 1 j$ rst0009 $end
$var reg 1 k$ reg0298 $end
$var reg 6 l$ reg0299[5:0] $end
$var reg 1 m$ reg0300 $end
$var reg 6 n$ reg0301[5:0] $end
$var reg 16 o$ reg0302[15:0] $end
$var reg 16 p$ reg0303[15:0] $end
$var reg 9 q$ reg0304[8:0] $end
$var reg 9 r$ reg0305[8:0] $end
$var reg 9 s$ reg0306[8:0] $end
$var reg 16 t$ reg0307[15:0] $end
$var reg 16 u$ reg0308[15:0] $end
$var reg 16 v$ reg0309[15:0] $end
$var reg 9 w$ reg0310[8:0] $end
$var reg 1 x$ reg0311 $end
$var reg 1 y$ clk0003 $end
$var reg 1 z$ rst0010 $end
$var reg 1 {$ rst0011 $end
$var reg 1 |$ reg0312 $end
$upscope $end
$upscope $end
$enddefinitions $end
#0
$dumpvars
x|$
1{$
0z$
1y$
0x$
b000000001 w$
b0000000000000000 v$
b0000000000000000 u$
b0000000000000001 t$
b000000001 s$
b000000000 r$
b000000001 q$
b0000000000000001 p$
bxxxxxxxxxxxxxxxx o$
b000000 n$
1m$
b000000 l$
1k$
1j$
b000000001 i$
b000000001 h$
b000000001 g$
b000000001 f$
b0000000000000001 e$
b000000000000001 d$
b000000000000001 c$
b000000000000001 b$
b000000000000000 a$
b000000000000001 `$
b000000000000000 _$
1^$
b000000001 ]$
1\$
b01 [$
b0001 Z$
b01 Y$
b001 X$
b01 W$
b001 V$
b01 U$
b001 T$
b0001 S$
b01 R$
b01 Q$
b001 P$
b0001 O$
b00000000 N$
1M$
1L$
b000000001 K$
b0000000000000001 J$
b0000000000000001 I$
b0000000000000001 H$
b0000000000000000 G$
b0000000000000000 F$
b0000000000000000 E$
b0000000000000000 D$
b0000000000000000 C$
b0000000000000000 B$
b0000000000000001 A$
b0000000000000001 @$
b0000000000000001 ?$
1>$
b00000001 =$
1<$
b000000001 ;$
b000000001 :$
b000000001 9$
18$
17$
b00000001 6$
b00000001 5$
b000000000000000000000000000000001 4$
b00000001 3$
b00000001 2$
b00000001 1$
b00000001 0$
b00000001 /$
b00000001 .$
b00000001 -$
b00000001 ,$
0+$
1*$
b000001 )$
b000001 ($
1'$
b00001 &$
b00000001 %$
1$$
1#$
1"$
b00000001 !$
b0000000000000001 ~#
b00000001 }#
1|#
1{#
b00 z#
b0111 y#
b00000001 x#
b00000001 w#
b00000001 v#
b00001 u#
b000000000000001 t#
b00000001 s#
b00000001 r#
b00000001 q#
b00000001 p#
1o#
b01 n#
0m#
1l#
b01 k#
b0001 j#
b01 i#
b001 h#
b001 g#
b01 f#
b001 e#
b01 d#
b001 c#
b0001 b#
b01 a#
b01 `#
b001 _#
b0001 ^#
b00000001 ]#
1\#
1[#
b01 Z#
b000000000000000000000001 Y#
b0000000000000001 X#
b001 W#
b001 V#
b01 U#
b00000001 T#
b00000001 S#
b00000001 R#
b00000001 Q#
b00000001 P#
b00000001 O#
b00000001 N#
b01 M#
b0000000000000001 L#
1K#
1J#
b0000000000000001 I#
1H#
1G#
1F#
1E#
1D#
b00000001 C#
b00000001 B#
1A#
0@#
1?#
b00 >#
b0111 =#
1<#
1;#
b01 :#
b0000000000000001 9#
bxxxxxxxxxxxxxxxx 8#
b0000000000000001 7#
x6#
15#
14#
13#
12#
bxx 1#
b01 0#
1/#
1.#
1-#
1,#
1+#
1*#
1)#
1(#
1'#
1&#
1%#
1$#
1##
1"#
1!#
1~"
1}"
1|"
1{"
1z"
1y"
1x"
1w"
1v"
1u"
1t"
1s"
1r"
1q"
1p"
1o"
1n"
1m"
1l"
b0001 k"
b00000001 j"
b0001 i"
1h"
1g"
1f"
1e"
1d"
1c"
1b"
1a"
1`"
1_"
1^"
1]"
1\"
1["
1Z"
0Y"
1X"
1W"
1V"
1U"
1T"
1S"
1R"
1Q"
1P"
1O"
1N"
1M"
1L"
1K"
1J"
0I"
1H"
1G"
1F"
1E"
1D"
1C"
1B"
0A"
1@"
1?"
1>"
0="
1<"
0;"
1:"
09"
08"
17"
16"
15"
14"
13"
12"
11"
10"
0/"
1."
1-"
1,"
1+"
1*"
1)"
1("
1'"
1&"
1%"
1$"
1#"
1""
1!"
1~!
1}!
1|!
1{!
1z!
1y!
1x!
1w!
1v!
1u!
1t!
1s!
1r!
1q!
1p!
1o!
1n!
1m!
1l!
1k!
1j!
1i!
1h!
1g!
1f!
1e!
1d!
1c!
1b!
1a!
1`!
1_!
1^!
1]!
1\!
1[!
1Z!
1Y!
1X!
1W!
b00000001 V!
bxxxxxxxx U!
b0000000000000001 T!
xS!
1R!
1Q!
b0000000000010111 P!
b0000000000101110 O!
b0000000000000000 N!
b0000000000000010 M!
b0000000000000001 L!
b0000000000000111 K!
b0000000000001001 J!
b0000000000001000 I!
b0000000000001010 H!
b0000000000000011 G!
b0000000000100111 F!
b0000000000001100 E!
b0000000000001011 D!
b0000000000101011 C!
b0000000000100011 B!
b0000000000011011 A!
b0000000000010011 @!
b0000000000100001 ?!
b0000000000011001 >!
b0000000000010001 =!
b0000000000100010 <!
b0000000000011010 ;!
b0000000000010010 :!
b0000000000100100 9!
b0000000000011100 8!
b0000000000010100 7!
b0000000000000100 6!
b0000000000000101 5!
b0000000000000110 4!
b0000000000100000 3!
b0000000000011000 2!
b0000000000010000 1!
b0000000000100110 0!
b0000000000100101 /!
b0000000000011110 .!
b0000000000011101 -!
b0000000000010110 ,!
b0000000000010101 +!
b0000000000011111 *!
b00000000000000000000000000011111 )!
b01 (!
b01 '!
b00 &!
b00 %!
b0000 $!
b0010 #!
b0001 "!
b0011 !!
b0100 ~
b0110 }
b0101 |
b0111 {
b0001 z
b01 y
b00 x
b01 w
b001 v
b000 u
b001 t
b000 s
b011 r
b000 q
b01 p
b01 o
b00 n
b00 m
b000 l
b011 k
b001 j
b000 i
b000 h
b001 g
b00 f
b01 e
b01 d
b000 c
b011 b
b001 a
b001 `
b010 _
b001 ^
b000 ]
b000 \
b0011 [
b0000 Z
b0001 Y
b0001 X
b0110 W
b0011 V
b0010 U
b0111 T
b0000 S
b0100 R
b0001 Q
b0000 P
b0001 O
b0000 N
b0101 M
b0010 L
b01 K
b01 J
b00 I
b00 H
b01 G
b00 F
b00 E
b01 D
b001 C
b011 B
b000 A
b010 @
b000 ?
b000 >
b001 =
b001 <
b0001 ;
b0000 :
b0000 9
b0001 8
b0101 7
b0100 6
b0111 5
b0110 4
b0011 3
b0000 2
b0011 1
b0001 0
b0000 /
b0010 .
b0001 -
b0010 ,
b0011 +
b00000000000000000000000000001111 *
b000 )
b001 (
b00 '
b01 &
b00 %
b01 $
b000 #
b001 "
b00000000000000000000000000001111 !
$end
#4
x@#
xE#
xF#
bxx M#
x#$
x$$
#20
0Q!
0R!
1S!
b00011011 U!
16#
0y$
0|$
#40
1y$
1R!
1Q!
1$$
1#$
b01 M#
1F#
1E#
0@#
#60
0Q!
0R!
0y$
#80
1y$
1R!
1Q!
#100
0Q!
0R!
0y$
#120
1y$
1R!
1Q!
#140
0Q!
0R!
0y$
#160
1y$
1R!
1Q!
#180
0Q!
0R!
0y$
#200
1y$
1R!
1Q!
08$
0{$
#204
0|#
#220
0Q!
0R!
0y$
#240
1y$
1R!
1Q!
#244
0?#
0{#
1z$
#260
0Q!
0R!
0y$
#264
0*$
#280
1y$
1R!
1Q!
#284
1|$
b00 :#
0;#
b0000 =#
b01 >#
b00 Z#
0[#
b0000 y#
b01 z#
b000000000000000000000000000000000 4$
#300
0|$
0Q!
0R!
0y$
06#
b0000000000000001 8#
#304
b000000 )$
#320
1y$
1R!
1Q!
#324
1|$
b000000000000000000000000000000001 4$
b00 z#
b0001 y#
1[#
b01 Z#
b00 >#
b0001 =#
1;#
b01 :#
0m$
#340
0|$
0Q!
0R!
0y$
16#
#360
1y$
1R!
1Q!
b00 :#
b00 Z#
#364
1m$
b0011 =#
b01 >#
b0011 y#
b01 z#
b000000000000000000000000000000000 4$
b000000000000000 t#
#380
0Q!
0R!
0y$
#400
1y$
1R!
1Q!
#404
b000000000000000000000000000000011 4$
b00 z#
b0111 y#
b00 >#
b0111 =#
b01 Z#
b01 :#
b00000000 ]#
#420
0Q!
0R!
0y$
#440
1y$
1R!
1Q!
#444
b00 :#
b00 Z#
b0000 =#
b01 >#
b0000 y#
b01 z#
b000000000000000000000000000000010 4$
1|$
0;#
0[#
b0000000000000001 7#
b000000000000000000000000 Y#
b00000001 q#
b000000000000001 _$
b000000000000001 a$
b000000000000000 b$
b000000000000000 c$
#460
0|$
0Q!
0R!
0y$
06#
#480
1y$
1R!
1Q!
#484
1|$
1[#
1;#
b000000000000000000000000000000001 4$
b00 z#
b0001 y#
b00 >#
b0001 =#
b01 Z#
b01 :#
0m$
#500
0|$
0Q!
0R!
0y$
16#
#520
1y$
1R!
1Q!
b00 :#
b00 Z#
#524
1m$
b0011 =#
b01 >#
b0011 y#
b01 z#
b000000000000000000000000000000000 4$
b000000000000001 t#
#540
0Q!
0R!
0y$
#560
1y$
1R!
1Q!
#564
b000000000000000000000000000000111 4$
b00 z#
b0111 y#
b00 >#
b0111 =#
b01 Z#
b01 :#
#580
0Q!
0R!
0y$
#600
1y$
1R!
1Q!
#604
b00 :#
b00 Z#
b0000 =#
b01 >#
b0000 y#
b01 z#
b000000000000000000000000000000110 4$
1|$
0;#
0[#
b000000000000001 c$
b000000000000001 b$
b000000000000000 a$
b000000000000000 _$
b00000011 q#
b000000000000000000000001 Y#
b0000000000000011 7#
#620
0|$
0Q!
0R!
0y$
06#
#640
1y$
1R!
1Q!
#644
1|$
1[#
1;#
b000000000000000000000000000000101 4$
b00 z#
b0001 y#
b00 >#
b0001 =#
b01 Z#
b01 :#
0m$
#660
0|$
0Q!
0R!
0y$
16#
#680
1y$
1R!
1Q!
b00 :#
b00 Z#
#684
1m$
b0011 =#
b01 >#
b0011 y#
b01 z#
b000000000000000000000000000000100 4$
b000000000000000 t#
#700
0Q!
0R!
0y$
#720
1y$
1R!
1Q!
#724
b000000000000000000000000000000011 4$
b00 z#
b0111 y#
b00 >#
b0111 =#
b01 Z#
b01 :#
#740
0Q!
0R!
0y$
#760
1y$
1R!
1Q!
#764
b00 :#
b00 Z#
b0000 =#
b01 >#
b0000 y#
b01 z#
b000000000000000000000000000000010 4$
1|$
0;#
0[#
b0000000000000001 7#
b000000000000000000000000 Y#
b00000001 q#
b000000000000011 _$
b000000000000011 a$
b000000000000000 b$
b000000000000000 c$
#780
0|$
0Q!
0R!
0y$
06#
#800
1y$
1R!
1Q!
#804
1|$
1[#
1;#
b000000000000000000000000000000001 4$
b00 z#
b0001 y#
b00 >#
b0001 =#
b01 Z#
b01 :#
0m$
#820
0|$
0Q!
0R!
0y$
16#
#840
1y$
1R!
1Q!
b00 :#
b00 Z#
#844
1m$
b0011 =#
b01 >#
b0011 y#
b01 z#
b000000000000000000000000000000000 4$
b000000000000011 t#
#860
0Q!
0R!
0y$
#880
1y$
1R!
1Q!
#884
b000000000000000000000000000001111 4$
b00 z#
b0111 y#
b00 >#
b0111 =#
b01 Z#
b01 :#
#900
0Q!
0R!
0y$
#920
1y$
1R!
1Q!
#924
b00 :#
b00 Z#
b0000 =#
b01 >#
b0000 y#
b01 z#
b000000000000000000000000000001110 4$
1|$
0;#
0[#
b000000000000011 c$
b000000000000011 b$
b000000000000010 a$
b000000000000010 _$
b00000111 q#
b000000000000000000000011 Y#
b0000000000000111 7#
#940
0|$
0Q!
0R!
0y$
06#
#960
1y$
1R!
1Q!
#964
1|$
1[#
1;#
b000000000000000000000000000001101 4$
b00 z#
b0001 y#
b00 >#
b0001 =#
b01 Z#
b01 :#
0m$
#980
0|$
0Q!
0R!
0y$
16#
#1000
1y$
1R!
1Q!
b00 :#
b00 Z#
