fst/samples/t0013.vcd
$date
	Mon Jul 21 08:55:20 2025

$end
$version
	Test Converter
$end
$timescale
	1ps
$end
$scope module scp0001 $end
$var wire 1 ! clk0001 $end
$var wire 1 " rst0001 $end
$var wire 1 # wire0001 $end
$var wire 1 $ wire0002 $end
$var wire 2 % wire0003[1:0] $end
$var wire 6 & wire0004[5:0] $end
$var wire 2 ' wire0005[1:0] $end
$var wire 6 ( wire0006[5:0] $end
$var wire 14 ) wire0007[13:0] $end
$var wire 14 * wire0008[13:0] $end
$var wire 1 + wire0009 $end
$var wire 1 , wire0010 $end
$var wire 1 - wire0011 $end
$var wire 1 . wire0012 $end
$var wire 2 / wire0013[1:0] $end
$var wire 6 0 wire0014[5:0] $end
$var wire 2 1 wire0015[1:0] $end
$var wire 6 2 wire0016[5:0] $end
$var wire 14 3 wire0017[13:0] $end
$var wire 14 4 wire0018[13:0] $end
$var wire 1 5 wire0019 $end
$var wire 1 6 wire0020 $end
$var wire 1 7 wire0021 $end
$var wire 1 8 wire0022 $end
$var wire 2 9 wire0023[1:0] $end
$var wire 6 : wire0024[5:0] $end
$var wire 2 ; wire0025[1:0] $end
$var wire 6 < wire0026[5:0] $end
$var wire 14 = wire0027[13:0] $end
$var wire 14 > wire0028[13:0] $end
$var wire 1 ? wire0029 $end
$var wire 1 @ wire0030 $end
$var wire 2 A wire0031[1:0] $end
$var wire 16 B wire0032[15:0] $end
$var wire 16 C wire0033[15:0] $end
$var wire 4 D wire0034[3:0] $end
$var wire 4 E wire0035[3:0] $end
$var wire 3 F wire0036[2:0] $end
$var wire 8 G wire0037[7:0] $end
$var wire 3 H wire0038[2:0] $end
$var wire 8 I wire0039[7:0] $end
$var wire 3 J wire0040[2:0] $end
$var wire 3 K wire0041[2:0] $end
$var wire 1 L wire0042 $end
$var wire 1 M wire0043 $end
$var wire 16 N wire0044[15:0] $end
$var wire 16 O wire0045[15:0] $end
$var wire 16 P wire0046[15:0] $end
$var wire 16 Q wire0047[15:0] $end
$var wire 16 R wire0048[15:0] $end
$var wire 16 S wire0049[15:0] $end
$var wire 16 T wire0050[15:0] $end
$var wire 16 U wire0051[15:0] $end
$var wire 16 V wire0052[15:0] $end
$var wire 16 W wire0053[15:0] $end
$var wire 16 X wire0054[15:0] $end
$var wire 16 Y wire0055[15:0] $end
$var wire 16 Z wire0056[15:0] $end
$var wire 16 [ wire0057[15:0] $end
$var wire 16 \ wire0058[15:0] $end
$var wire 16 ] wire0059[15:0] $end
$var wire 16 ^ wire0060[15:0] $end
$var wire 16 _ wire0061[15:0] $end
$var wire 16 ` wire0062[15:0] $end
$var wire 16 a wire0063[15:0] $end
$var wire 16 b wire0064[15:0] $end
$var wire 16 c wire0065[15:0] $end
$var wire 16 d wire0066[15:0] $end
$var wire 16 e wire0067[15:0] $end
$var wire 16 f wire0068[15:0] $end
$var wire 16 g wire0069[15:0] $end
$var wire 16 h wire0070[15:0] $end
$var wire 16 i wire0071[15:0] $end
$var wire 16 j wire0072[15:0] $end
$var wire 16 k wire0073[15:0] $end
$var wire 16 l wire0074[15:0] $end
$var wire 16 m wire0075[15:0] $end
$var wire 16 n wire0076[15:0] $end
$var wire 16 o wire0077[15:0] $end
$var wire 16 p wire0078[15:0] $end
$var wire 16 q wire0079[15:0] $end
$var wire 16 r wire0080[15:0] $end
$var wire 16 s wire0081[15:0] $end
$var wire 16 t wire0082[15:0] $end
$var wire 16 u wire0083[15:0] $end
$var wire 16 v wire0084[15:0] $end
$var wire 16 w wire0085[15:0] $end
$var wire 16 x wire0086[15:0] $end
$var wire 16 y wire0087[15:0] $end
$var wire 16 z wire0088[15:0] $end
$var wire 16 { wire0089[15:0] $end
$var wire 16 | wire0090[15:0] $end
$var wire 16 } wire0091[15:0] $end
$var wire 16 ~ wire0092[15:0] $end
$var wire 16 !! wire0093[15:0] $end
$var wire 16 "! wire0094[15:0] $end
$var wire 16 #! wire0095[15:0] $end
$var wire 16 $! wire0096[15:0] $end
$var wire 16 %! wire0097[15:0] $end
$var wire 16 &! wire0098[15:0] $end
$var wire 16 '! wire0099[15:0] $end
$var wire 16 (! wire0100[15:0] $end
$var wire 16 )! wire0101[15:0] $end
$var wire 16 *! wire0102[15:0] $end
$var wire 16 +! wire0103[15:0] $end
$var wire 16 ,! wire0104[15:0] $end
$var wire 16 -! wire0105[15:0] $end
$var wire 16 .! wire0106[15:0] $end
$var wire 16 /! wire0107[15:0] $end
$var wire 16 0! wire0108[15:0] $end
$var wire 16 1! wire0109[15:0] $end
$var wire 16 2! wire0110[15:0] $end
$var wire 16 3! wire0111[15:0] $end
$var wire 16 4! wire0112[15:0] $end
$var wire 16 5! wire0113[15:0] $end
$var wire 16 6! wire0114[15:0] $end
$var wire 16 7! wire0115[15:0] $end
$var wire 16 8! wire0116[15:0] $end
$var wire 16 9! wire0117[15:0] $end
$var wire 16 :! wire0118[15:0] $end
$var wire 16 ;! wire0119[15:0] $end
$var wire 16 <! wire0120[15:0] $end
$var wire 16 =! wire0121[15:0] $end
$var wire 16 >! wire0122[15:0] $end
$var wire 16 ?! wire0123[15:0] $end
$var wire 16 @! wire0124[15:0] $end
$var wire 16 A! wire0125[15:0] $end
$var wire 16 B! wire0126[15:0] $end
$var wire 16 C! wire0127[15:0] $end
$var wire 16 D! wire0128[15:0] $end
$var wire 16 E! wire0129[15:0] $end
$var wire 16 F! wire0130[15:0] $end
$var wire 16 G! wire0131[15:0] $end
$var wire 16 H! wire0132[15:0] $end
$var wire 16 I! wire0133[15:0] $end
$var wire 16 J! wire0134[15:0] $end
$var wire 16 K! wire0135[15:0] $end
$var wire 16 L! wire0136[15:0] $end
$var wire 16 M! wire0137[15:0] $end
$var wire 16 N! wire0138[15:0] $end
$var wire 16 O! wire0139[15:0] $end
$upscope $end
$enddefinitions $end
1!
0"
1#
1$
b01 %
b011111 &
b00 '
b000000 (
b00000000000001 )
b00000000000001 *
1+
1,
1-
1.
b01 /
b000001 0
b01 1
b000001 2
b00000000000001 3
b00000000000001 4
15
16
17
18
b01 9
b000001 :
b01 ;
b000001 <
b00000000000001 =
b00000000000001 >
1?
1@
b01 A
b0000000001011111 B
b0000000000001111 C
b0111 D
b0111 E
b000 F
b00000001 G
b001 H
b00111111 I
b010 J
b001 K
0L
0M
b0000000000000001 N
b0000000000000001 O
b0000000000000001 P
b0000000000000001 Q
b0000000000000001 R
b0000000000000001 S
b0000000000000001 T
b0000000000000001 U
b0000000000000001 V
b0000000000000001 W
b0000000000000001 X
b0000000000000001 Y
b0000000000000001 Z
b0000000000000001 [
b0000000000000001 \
b0000000000000001 ]
b0000000000000001 ^
b0000000000000001 _
b0000000000000001 `
b0000000000000001 a
b0000000000000001 b
b0000000000000001 c
b0000000000000001 d
b0000000000000001 e
b0000000000000001 f
b0000000000000001 g
b0000000000000001 h
b0000000000000001 i
b0000000000000001 j
b0000000000000001 k
b0000000000000001 l
b0000000000000001 m
b0000000000000001 n
b0000000000000001 o
b0000000000000001 p
b0000000000000001 q
b0000000000000001 r
b0000000000000001 s
b0000000000000001 t
b0000000000000001 u
b0000000000000001 v
b0000000000000001 w
b0000000000000001 x
b0000000000000001 y
b0000000000000001 z
b0000000000000001 {
b0000000000000001 |
b0000000000000001 }
b0000000000000001 ~
b0000000000000001 !!
b0000000000000001 "!
b0000000000000001 #!
b0000000000000001 $!
b0000000000000001 %!
b0000000000000001 &!
b0000000000000001 '!
b0000000000000001 (!
b0000000000000001 )!
b0000000000000001 *!
b0000000000000001 +!
b0000000000000001 ,!
b0000000000000001 -!
b0000000000000001 .!
b0000000000000001 /!
b0000000000000001 0!
b0000000000000001 1!
b0000000000000001 2!
b0000000000000001 3!
b0000000000000001 4!
b0000000000000001 5!
b0000000000000001 6!
b0000000000000001 7!
b0000000000000001 8!
b0000000000000001 9!
b0000000000000001 :!
b0000000000000001 ;!
b0000000000000001 <!
b0000000000000001 =!
b0000000000000001 >!
b0000000000000001 ?!
b0000000000000001 @!
b0000000000000001 A!
b0000000000000001 B!
b0000000000000001 C!
b0000000000000001 D!
b0000000000000001 E!
b0000000000000001 F!
b0000000000000001 G!
b0000000000000001 H!
b0000000000000001 I!
b0000000000000001 J!
b0000000000000001 K!
b0000000000000001 L!
b0000000000000001 M!
b0000000000000001 N!
b0000000000000001 O!
#4000
$dumpvars
b0000000000000010 m
b0000000000001011 l
b0000000000001110 k
b0000000000000000 j
b0000000000000110 i
b0000000000000001 h
b0000000000001110 g
b0000000000001111 f
b0000000000000101 e
b0000000000000001 d
b0000000000000101 c
b0000000000001001 b
b0000000000000010 a
b0000000000000100 `
b0000000000001000 _
b0000000000000011 ^
b0000000000000110 ]
b0000000000000110 \
b0000000000011110 [
b0000000000000000 Z
b0000000000001101 Y
b0000000000000111 X
b0000000000001100 W
b0000000000000000 V
b0000000000000110 U
b0000000000000111 T
b0000000000001011 S
b0000000000001010 R
b0000000000001100 Q
b0000000000000110 P
b0000000000001111 O
b0000000000000000 N
0$
0#
0!
$end
#24000
1!
#40000
1"
#44000
0!
1#
b0000000000001101 N
b0000000000000001 O
b0000000000000101 P
b0000000000000111 Q
b0000000000000000 R
b0000000000001000 S
b0000000000001000 T
b0000000000000001 U
b0000000000000101 V
b0000000000000110 W
b0000000000001010 X
b0000000000000011 Y
b0000000000000001 Z
b0000000000001110 [
b0000000000001101 \
b0000000000000001 ]
b0000000000011111 ^
b0000000000000010 `
b0000000000001011 a
b0000000000011110 b
b0000000000001101 c
b0000000000000001 d
b0000000000001011 e
b0000000000001101 f
b0000000000001010 g
b0000000000001101 i
b0000000000000010 j
b0000000000001010 k
b0000000000001100 l
b0000000000000101 m
#64000
1!
#84000
0!
b0000000000000000 m
b0000000000001001 l
b0000000000001011 k
b0000000000001010 j
b0000000000001111 i
b0000000000001011 g
b0000000000001111 f
b0000000000000001 e
b0000000000001100 d
b0000000000000110 c
b0000000000000100 b
b0000000000000010 a
b0000000000000100 `
b0000000000000100 ^
b0000000000000011 ]
b0000000000000001 \
b0000000000001011 [
b0000000000000000 Z
b0000000000011011 Y
b0000000000011100 X
b0000000000011111 W
b0000000000000100 V
b0000000000011111 U
b0000000000000110 T
b0000000000001011 S
b0000000000000101 R
b0000000000001001 Q
b0000000000001001 P
b0000000000011001 O
b0000000000011000 N
b0000000000001100 _
b0000000000001011 h
#104000
1!
#124000
0!
b0000000000001000 h
b0000000000000110 _
b0000000000000111 N
b0000000000000011 O
b0000000000001100 P
b0000000000000110 Q
b0000000000000110 R
b0000000000001010 S
b0000000000000100 T
b0000000000001011 U
b0000000000000000 V
b0000000000000110 W
b0000000000000110 X
b0000000000000011 Y
b0000000000000001 Z
b0000000000000101 [
b0000000000001001 \
b0000000000001110 ]
b0000000000000101 a
b0000000000000011 c
b0000000000001010 d
b0000000000000111 e
b0000000000001101 f
b0000000000000010 i
b0000000000000111 j
b0000000000001101 k
b0000000000001011 l
b0000000000000101 m
#144000
1!
#164000
0!
b0000000000001000 m
b0000000000000000 l
b0000000000001110 k
b0000000000000000 j
b0000000000001000 i
b0000000000001110 f
b0000000000000000 e
b0000000000001100 d
b0000000000000111 c
b0000000000001100 a
b0000000000000011 ]
b0000000000000100 \
b0000000000000111 [
b0000000000001011 Z
b0000000000000101 Y
b0000000000000001 X
b0000000000000101 W
b0000000000001110 U
b0000000000000111 T
b0000000000001001 S
b0000000000001000 R
b0000000000001001 Q
b0000000000001010 P
b0000000000001101 O
b0000000000000000 N
b0000000000000101 _
b0000000000000100 h
b0000000000001010 ^
b0000000000001000 `
b0000000000000111 b
b0000000000001010 g
#184000
1!
#204000
0!
b0000000000001101 g
b0000000000000001 b
b0000000000001110 `
b0000000000000000 ^
b0000000000001010 h
b0000000000001101 _
b0000000000001101 N
b0000000000011111 O
b0000000000001111 P
b0000000000000010 Q
b0000000000000111 R
b0000000000000000 S
b0000000000001111 T
b0000000000001101 U
b0000000000000010 W
b0000000000000100 X
b0000000000000100 Y
b0000000000000100 Z
b0000000000001011 [
b0000000000000110 \
b0000000000001010 ]
b0000000000000001 a
b0000000000001101 c
b0000000000001101 d
b0000000000000000 f
b0000000000001100 i
b0000000000001101 j
b0000000000000100 k
b0000000000000101 l
b0000000000000101 V
#224000
1!
#244000
0!
b0000000000000111 V
b0000000000001111 l
b0000000000000000 k
b0000000000000011 j
b0000000000001110 i
b0000000000001100 f
b0000000000000010 d
b0000000000000000 c
b0000000000000010 a
b0000000000000011 ]
b0000000000001110 \
b0000000000000110 [
b0000000000001010 Z
b0000000000000110 Y
b0000000000001101 X
b0000000000001011 W
b0000000000000101 U
b0000000000001100 T
b0000000000000001 S
b0000000000001100 R
b0000000000000010 Q
b0000000000001011 P
b0000000000000010 O
b0000000000000010 N
b0000000000001110 _
b0000000000000010 h
b0000000000000011 ^
b0000000000001011 `
b0000000000000000 b
b0000000000000001 g
b0000000000000111 m
#264000
1!
#284000
0!
b0000000000000011 m
b0000000000000000 g
b0000000000000001 b
b0000000000001101 `
b0000000000001001 ^
b0000000000000000 h
b0000000000000110 _
b0000000000000110 N
b0000000000000111 O
b0000000000000111 P
b0000000000001101 Q
b0000000000000001 R
b0000000000001000 S
b0000000000000110 U
b0000000000001000 W
b0000000000000111 X
b0000000000000001 Y
b0000000000000111 Z
b0000000000000111 [
b0000000000001101 \
b0000000000000000 a
b0000000000000001 c
b0000000000000011 d
b0000000000001111 f
b0000000000001101 i
b0000000000000110 j
b0000000000001101 V
b0000000000001110 e
#304000
1!
#324000
0!
b0000000000000011 V
b0000000000000001 j
b0000000000001011 i
b0000000000000000 d
b0000000000000110 c
b0000000000001110 a
b0000000000000010 \
b0000000000001010 [
b0000000000000001 Z
b0000000000000110 Y
b0000000000000001 X
b0000000000001010 W
b0000000000000001 U
b0000000000001101 S
b0000000000001011 R
b0000000000000001 Q
b0000000000001100 P
b0000000000001100 O
b0000000000001000 N
b0000000000000111 _
b0000000000000011 h
b0000000000000111 ^
b0000000000000111 `
b0000000000000101 b
b0000000000000110 g
b0000000000000011 m
b0000000000000011 T
b0000000000001010 ]
b0000000000000111 k
b0000000000000010 l
#344000
1!
#364000
0!
b0000000000000000 l
b0000000000000100 k
b0000000000000100 ]
b0000000000000010 T
b0000000000001111 m
b0000000000000010 g
b0000000000001001 `
b0000000000000110 ^
b0000000000000110 h
b0000000000000011 _
b0000000000001111 N
b0000000000000001 O
b0000000000001110 P
b0000000000000011 Q
b0000000000001101 R
b0000000000001110 S
b0000000000000000 U
b0000000000001110 W
b0000000000001111 X
b0000000000001011 Y
b0000000000000100 Z
b0000000000000111 [
b0000000000000110 \
b0000000000001100 a
b0000000000001111 c
b0000000000000010 d
b0000000000000111 i
b0000000000000000 j
b0000000000000001 V
b0000000000000001 e
b0000000000000101 f
#384000
1!
#404000
0!
b0000000000000100 f
b0000000000001100 e
b0000000000000100 V
b0000000000001011 j
b0000000000000010 i
b0000000000000011 d
b0000000000000000 c
b0000000000001011 a
b0000000000000000 \
b0000000000001000 [
b0000000000000001 Z
b0000000000000101 Y
b0000000000000101 X
b0000000000001001 W
b0000000000000000 U
b0000000000001100 S
b0000000000000000 R
b0000000000000000 Q
b0000000000000111 O
b0000000000001001 N
b0000000000001110 _
b0000000000000001 h
b0000000000000001 ^
b0000000000000110 `
b0000000000000001 g
b0000000000000001 m
b0000000000000101 T
b0000000000000001 ]
b0000000000001110 k
b0000000000000100 l
b0000000000000001 b
#424000
1!
#444000
0!
b0000000000000010 b
b0000000000000010 l
b0000000000001001 k
b0000000000000001 ]
b0000000000000000 T
b0000000000011000 m
b0000000000001101 g
b0000000000000001 `
b0000000000000111 ^
b0000000000001001 h
b0000000000000000 _
b0000000000001100 N
b0000000000001101 O
b0000000000000110 Q
b0000000000000001 R
b0000000000000111 S
b0000000000000100 U
b0000000000001110 W
b0000000000000011 X
b0000000000000010 Y
b0000000000000101 Z
b0000000000000101 [
b0000000000000110 \
b0000000000000000 a
b0000000000000000 c
b0000000000000000 d
b0000000000000110 i
b0000000000001110 j
b0000000000001101 V
b0000000000001101 e
b0000000000000011 f
b0000000000000011 P
#464000
1!
#484000
0!
b0000000000010000 P
b0000000000000100 f
b0000000000000000 e
b0000000000000010 V
b0000000000000011 j
b0000000000000100 i
b0000000000000101 d
b0000000000000101 c
b0000000000000110 a
b0000000000001011 \
b0000000000001101 [
b0000000000001011 Z
b0000000000001010 Y
b0000000000000000 X
b0000000000000110 W
b0000000000000000 U
b0000000000000010 S
b0000000000000000 R
b0000000000001001 Q
b0000000000000111 O
b0000000000000001 _
b0000000000001101 h
b0000000000000110 ^
b0000000000000011 `
b0000000000000100 g
b0000000000000101 m
b0000000000000011 T
b0000000000000100 ]
b0000000000000101 k
b0000000000001100 l
b0000000000001000 b
#504000
1!
#524000
0!
b0000000000001100 b
b0000000000001101 l
b0000000000000000 k
b0000000000000111 ]
b0000000000000011 T
b0000000000000010 m
b0000000000000111 g
b0000000000000111 `
b0000000000000111 ^
b0000000000000001 h
b0000000000000100 _
b0000000000000000 O
b0000000000001011 Q
b0000000000000001 R
b0000000000000011 S
b0000000000000101 U
b0000000000000001 W
b0000000000001100 X
b0000000000000001 Y
b0000000000000100 Z
b0000000000000010 [
b0000000000000001 \
b0000000000001011 a
b0000000000000101 c
b0000000000000110 d
b0000000000001001 i
b0000000000001010 j
b0000000000000100 V
b0000000000000001 e
b0000000000001001 f
b0000000000010101 P
b0000000000001001 N
#544000
1!
#564000
0!
b0000000000000100 N
b0000000000000001 P
b0000000000000111 f
b0000000000000111 e
b0000000000011110 V
b0000000000000000 j
b0000000000000000 i
b0000000000001110 d
b0000000000001011 c
b0000000000000001 a
b0000000000000001 \
b0000000000001110 Y
b0000000000010110 X
b0000000000010101 W
b0000000000000010 U
b0000000000000001 S
b0000000000000010 R
b0000000000000001 Q
b0000000000000110 O
b0000000000000001 _
b0000000000001010 h
b0000000000000010 ^
b0000000000000001 `
b0000000000000000 g
b0000000000000011 m
b0000000000000001 T
b0000000000000000 ]
b0000000000000000 k
b0000000000000001 l
b0000000000000010 b
#584000
1!
#604000
0!
b0000000000000001 b
b0000000000000100 l
b0000000000000001 k
b0000000000000111 ]
b0000000000000000 T
b0000000000010100 m
b0000000000001111 g
b0000000000001100 `
b0000000000000000 ^
b0000000000000011 h
b0000000000000111 _
b0000000000000111 O
b0000000000000001 R
b0000000000000011 S
b0000000000001000 U
b0000000000000111 W
b0000000000000101 X
b0000000000000111 Y
b0000000000000110 \
b0000000000000000 a
b0000000000000001 c
b0000000000000011 d
b0000000000000010 i
b0000000000000000 j
b0000000000011000 V
b0000000000001101 e
b0000000000000000 f
b0000000000000100 P
b0000000000001111 N
b0000000000000000 [
b0000000000001011 Z
#624000
1!
#644000
0!
b0000000000001110 Z
b0000000000001011 [
b0000000000001010 N
b0000000000000111 P
b0000000000000100 f
b0000000000000010 e
b0000000000000100 V
b0000000000000000 i
b0000000000000010 d
b0000000000000100 c
b0000000000001110 a
b0000000000000000 \
b0000000000000100 Y
b0000000000011101 X
b0000000000000001 W
b0000000000000011 U
b0000000000000010 S
b0000000000000010 R
b0000000000001101 O
b0000000000000111 _
b0000000000000001 h
b0000000000000111 ^
b0000000000000101 `
b0000000000000011 g
b0000000000000010 m
b0000000000000001 T
b0000000000000001 k
b0000000000000000 b
b0000000000000010 Q
#664000
1!
#684000
0!
b0000000000000000 Q
b0000000000000000 b
b0000000000000100 k
b0000000000000100 T
b0000000000001011 m
b0000000000001001 g
b0000000000001000 ^
b0000000000000000 h
b0000000000000101 _
b0000000000001100 O
b0000000000000100 R
b0000000000001000 S
b0000000000000001 U
b0000000000000001 W
b0000000000001100 X
b0000000000000110 Y
b0000000000000001 \
b0000000000000100 a
b0000000000000001 c
b0000000000001100 d
b0000000000000000 i
b0000000000000010 V
b0000000000000011 e
b0000000000001001 f
b0000000000001001 P
b0000000000000000 N
b0000000000001100 [
b0000000000000110 Z
b0000000000000010 ]
b0000000000000001 l
#704000
1!
#724000
0!
b0000000000000001 l
b0000000000001010 ]
b0000000000000000 Z
b0000000000001101 N
b0000000000000011 P
b0000000000001101 f
b0000000000001010 e
b0000000000000000 V
b0000000000000011 i
b0000000000000000 d
b0000000000000101 c
b0000000000000010 a
b0000000000000001 \
b0000000000001010 Y
b0000000000001000 X
b0000000000001001 W
b0000000000000000 U
b0000000000001111 S
b0000000000000000 R
b0000000000010001 O
b0000000000001011 _
b0000000000000011 h
b0000000000001110 ^
b0000000000000011 g
b0000000000000010 m
b0000000000010011 T
b0000000000000010 k
b0000000000000001 b
b0000000000000100 Q
b0000000000000100 `
b0000000000000001 j
#744000
1!
#764000
0!
b0000000000001010 `
b0000000000000000 Q
b0000000000000010 b
b0000000000001010 k
b0000000000011011 T
b0000000000000111 m
b0000000000001110 g
b0000000000000001 ^
b0000000000000001 h
b0000000000000010 _
b0000000000011111 O
b0000000000000010 R
b0000000000010101 S
b0000000000000111 U
b0000000000000001 W
b0000000000001010 X
b0000000000001101 Y
b0000000000000001 \
b0000000000000011 a
b0000000000001111 c
b0000000000001100 d
b0000000000001110 i
b0000000000000101 V
b0000000000001011 e
b0000000000001110 f
b0000000000000001 P
b0000000000000001 N
b0000000000000001 Z
b0000000000000010 ]
b0000000000001101 l
b0000000000000000 [
#784000
1!
#804000
0!
b0000000000000001 [
b0000000000000010 l
b0000000000010010 ]
b0000000000000101 Z
b0000000000001001 N
b0000000000000011 P
b0000000000000010 f
b0000000000000001 e
b0000000000000001 V
b0000000000000000 i
b0000000000000001 d
b0000000000000001 c
b0000000000000000 a
b0000000000000011 \
b0000000000000001 Y
b0000000000000011 X
b0000000000000000 W
b0000000000000000 U
b0000000000001010 S
b0000000000000101 R
b0000000000000010 O
b0000000000001111 _
b0000000000000001 h
b0000000000000011 ^
b0000000000001011 g
b0000000000001101 m
b0000000000001101 T
b0000000000000101 k
b0000000000000100 b
b0000000000000001 Q
b0000000000000111 `
b0000000000000000 j
#824000
1!
#844000
0!
b0000000000000101 j
b0000000000000000 Q
b0000000000000000 b
b0000000000000100 k
b0000000000001110 T
b0000000000000100 m
b0000000000000110 g
b0000000000000011 ^
b0000000000000001 h
b0000000000000010 _
b0000000000001111 O
b0000000000000100 R
b0000000000000001 S
b0000000000001010 U
b0000000000001110 W
b0000000000000001 X
b0000000000010010 Y
b0000000000000000 \
b0000000000000110 a
b0000000000000000 c
b0000000000000100 d
b0000000000000110 i
b0000000000000101 V
b0000000000000010 e
b0000000000000110 f
b0000000000000111 P
b0000000000000101 N
b0000000000000000 ]
b0000000000000000 l
b0000000000000100 [
#864000
1!
#884000
0!
b0000000000001100 [
b0000000000000000 l
b0000000000011111 ]
b0000000000001100 N
b0000000000001000 P
b0000000000000100 f
b0000000000001101 e
b0000000000000000 V
b0000000000000111 i
b0000000000000001 d
b0000000000000000 c
b0000000000000010 a
b0000000000000000 \
b0000000000001010 Y
b0000000000000010 X
b0000000000000001 W
b0000000000000000 U
b0000000000001000 S
b0000000000000000 R
b0000000000000000 O
b0000000000001010 _
b0000000000000011 h
b0000000000000011 ^
b0000000000000101 g
b0000000000000001 m
b0000000000010010 T
b0000000000010000 k
b0000000000001101 b
b0000000000000111 Q
b0000000000000011 j
b0000000000001111 `
#904000
1!
#924000
0!
b0000000000000000 `
b0000000000000101 j
b0000000000001111 Q
b0000000000001010 b
b0000000000000001 k
b0000000000000010 T
b0000000000001100 m
b0000000000000000 g
b0000000000000101 ^
b0000000000000100 h
b0000000000000011 _
b0000000000000101 O
b0000000000000010 R
b0000000000000010 S
b0000000000000000 U
b0000000000000010 W
b0000000000000000 Y
b0000000000000100 \
b0000000000000000 a
b0000000000000010 c
b0000000000001101 d
b0000000000001101 i
b0000000000000110 V
b0000000000000110 e
b0000000000001100 f
b0000000000001111 P
b0000000000000110 N
b0000000000000111 ]
b0000000000001111 l
b0000000000001001 [
b0000000000000001 Z
#944000
1!
#964000
0!
b0000000000000000 Z
b0000000000001101 [
b0000000000000000 l
b0000000000001011 ]
b0000000000000111 N
b0000000000011011 P
b0000000000001111 f
b0000000000000011 e
b0000000000000010 V
b0000000000000111 i
b0000000000011001 d
b0000000000000000 c
b0000000000000010 a
b0000000000000010 \
b0000000000000100 Y
b0000000000000011 W
b0000000000000000 U
b0000000000001110 S
b0000000000000001 R
b0000000000001000 O
b0000000000000110 _
b0000000000000000 h
b0000000000001111 ^
b0000000000001100 g
b0000000000011101 m
b0000000000001100 T
b0000000000000111 k
b0000000000000010 b
b0000000000000000 Q
b0000000000000110 j
b0000000000000001 `
b0000000000001101 X
#984000
1!
#1004000
0!
b0000000000001001 X
b0000000000000001 `
b0000000000000011 j
b0000000000000010 Q
b0000000000000110 b
b0000000000000000 k
b0000000000000000 T
b0000000000001110 m
b0000000000011101 g
b0000000000001100 h
b0000000000000001 _
b0000000000000010 O
b0000000000001100 R
b0000000000000001 S
b0000000000000010 U
b0000000000000110 W
b0000000000001010 Y
b0000000000000011 \
b0000000000000011 a
b0000000000000110 c
b0000000000000111 d
b0000000000001011 i
b0000000000001110 e
b0000000000000000 f
b0000000000001110 P
b0000000000000011 N
b0000000000000111 ]
b0000000000000000 l
b0000000000000010 [
b0000000000000011 Z
#1024000
1!
#1044000
0!
b0000000000001111 Z
b0000000000001010 [
b0000000000000010 l
b0000000000001110 ]
b0000000000000001 N
b0000000000000011 P
b0000000000011101 f
b0000000000011110 e
b0000000000001101 i
b0000000000000010 d
b0000000000001001 c
b0000000000000110 a
b0000000000001011 \
b0000000000001001 Y
b0000000000000001 W
b0000000000000010 U
b0000000000000110 S
b0000000000000001 R
b0000000000001110 O
b0000000000001011 _
b0000000000000011 h
b0000000000000101 g
b0000000000001111 m
b0000000000001101 T
b0000000000001101 k
b0000000000001001 b
b0000000000000001 Q
b0000000000001111 j
b0000000000000111 `
b0000000000000010 X
b0000000000001011 ^
b0000000000000011 V
#1064000
1!
#1084000
0!
b0000000000001011 V
b0000000000000000 ^
b0000000000000001 X
b0000000000000110 `
b0000000000000001 j
b0000000000000000 Q
b0000000000000000 b
b0000000000001000 k
b0000000000000000 T
b0000000000001010 m
b0000000000000001 g
b0000000000000100 h
b0000000000000010 _
b0000000000000101 O
b0000000000000011 R
b0000000000001011 S
b0000000000000111 U
b0000000000001110 W
b0000000000001010 Y
b0000000000000101 \
b0000000000001101 a
b0000000000001011 c
b0000000000011010 d
b0000000000001110 i
b0000000000010010 e
b0000000000000011 f
b0000000000000001 P
b0000000000000101 N
b0000000000000110 ]
b0000000000001101 l
b0000000000001100 [
b0000000000000011 Z
#1104000
1!
#1124000
0!
b0000000000001010 Z
b0000000000000111 [
b0000000000001110 l
b0000000000000001 ]
b0000000000000000 N
b0000000000000101 P
b0000000000000010 f
b0000000000000001 e
b0000000000000111 i
b0000000000000111 d
b0000000000011111 c
b0000000000001010 a
b0000000000000010 \
b0000000000000001 U
b0000000000000011 R
b0000000000000001 O
b0000000000001010 _
b0000000000000001 h
b0000000000001101 g
b0000000000000000 T
b0000000000001010 k
b0000000000010001 b
b0000000000000111 Q
b0000000000000010 j
b0000000000000101 `
b0000000000000011 X
b0000000000000111 ^
b0000000000001010 V
#1144000
1!
#1164000
0!
b0000000000001101 V
b0000000000000010 ^
b0000000000000000 X
b0000000000000010 `
b0000000000000110 j
b0000000000011111 Q
b0000000000000111 b
b0000000000000011 k
b0000000000000000 T
b0000000000001001 g
b0000000000000110 h
b0000000000000000 _
b0000000000000011 O
b0000000000000000 R
b0000000000000110 U
b0000000000000000 \
b0000000000001001 a
b0000000000001101 c
b0000000000001101 d
b0000000000000000 i
b0000000000001001 e
b0000000000000100 f
b0000000000000000 P
b0000000000001010 N
b0000000000000001 ]
b0000000000000010 l
b0000000000000000 [
b0000000000001100 Z
b0000000000000100 W
b0000000000000110 S
b0000000000000010 m
#1184000
1!
#1204000
0!
b0000000000001010 m
b0000000000001111 S
b0000000000000010 W
b0000000000000000 Z
b0000000000000011 [
b0000000000001111 l
b0000000000000111 ]
b0000000000000010 N
b0000000000000010 P
b0000000000000110 e
b0000000000000011 i
b0000000000001111 d
b0000000000000010 c
b0000000000000000 a
b0000000000000011 \
b0000000000001111 U
b0000000000001001 R
b0000000000000000 O
b0000000000001110 _
b0000000000000100 h
b0000000000001100 g
b0000000000000100 T
b0000000000001100 k
b0000000000000000 b
b0000000000001001 Q
b0000000000001110 j
b0000000000000111 `
b0000000000000011 X
b0000000000000010 ^
b0000000000001011 V
b0000000000001111 Y
#1224000
1!
#1244000
0!
b0000000000000000 Y
b0000000000000110 V
b0000000000001101 ^
b0000000000000001 X
b0000000000000111 `
b0000000000000110 j
b0000000000000000 Q
b0000000000000000 b
b0000000000011011 k
b0000000000001111 T
b0000000000000110 g
b0000000000000000 h
b0000000000000000 _
b0000000000000010 O
b0000000000000010 R
b0000000000000010 U
b0000000000000001 \
b0000000000000011 a
b0000000000000000 c
b0000000000000000 d
b0000000000000001 i
b0000000000000011 e
b0000000000001110 P
b0000000000000000 N
b0000000000000011 ]
b0000000000000100 l
b0000000000000001 [
b0000000000000110 Z
b0000000000000010 S
b0000000000000000 m
b0000000000001100 f
#1264000
1!
#1284000
0!
1$
#1304000
1!
#1324000
0!
#1344000
1!
#1364000
0!
#1384000
1!
#1404000
0!
#1424000
1!
#1444000
0!
#1464000
1!
#1484000
0!
#1504000
1!
#1524000
0!
#1544000
1!
#1564000
0!
#1584000
1!
#1604000
0!
#1624000
1!
#1644000
0!
#1664000
1!
#1684000
0!
#1704000
1!
#1724000
0!
#1744000
1!
#1764000
0!
#1784000
1!
#1804000
0!
#1824000
1!
