fst/samples/t0012.vcd
$date
	Mon Jul 21 08:55:20 2025

$end
$version
	Test Converter
$end
$timescale
	1ps
$end
$scope module scp0001 $end
$var real 64 ! real0001 $end
$upscope $end
$enddefinitions $end
#0
$dumpvars
rinf !
$end
#4000000000000
r15.70796326794897 !
#8000000000000
r7.853981633974483 !
#12000000000000
r5.23598775598299 !
#16000000000000
r3.926990816987241 !
#20000000000000
r3.141592653589793 !
#24000000000000
r2.617993877991494 !
#28000000000000
r2.243994752564138 !
#32000000000000
r1.963495408493621 !
#36000000000000
r1.74532925199433 !
