fst/samples/t0024.vcd
$date
	Mon Jul 21 08:55:25 2025

$end
$version
	Test Converter
$end
$timescale
	1ns
$end
$scope module scp0001 $end
$var reg 4 ! reg0001[3:0] $end
$var reg 4 " reg0002[3:0] $end
$var reg 1 # clk0001 $end
$var reg 1 $ rst0001 $end
$upscope $end
$enddefinitions $end
#0
$dumpvars
0$
x#
bxxxx "
bxxxx !
$end
#80
b0011 !
b0000 "
1#
#160
0#
#240
1#
b0000 "
b0110 !
#320
0#
#400
1#
b0010 !
b0010 "
1$
#480
0#
#560
1#
b0001 "
b0010 !
#640
0#
#720
1#
b0000 !
b0010 "
#800
0#
#880
1#
b0001 !
#960
0#
#1040
1#
b0010 !
b0011 "
#1120
0#
#1200
1#
b0001 "
b0110 !
0$
#1280
0#
#1360
1#
b0010 !
b0101 "
#1440
0#
#1520
1#
b0000 "
#1600
0#
#1680
1#
b0000 "
b0001 !
#1760
0#
#1840
1#
b0001 "
#1920
0#
#2000
1#
b0010 "
b0111 !
#2080
0#
#2160
1#
b0011 !
b0010 "
#2240
0#
#2320
1#
b0010 "
b0010 !
#2400
0#
#2480
1#
b0000 !
b0101 "
#2560
0#
#2640
1#
b0001 "
b0001 !
#2720
0#
#2800
1#
b0101 !
b0010 "
#2880
0#
#2960
1#
b0000 "
b0001 !
#3040
0#
#3120
1#
b0010 !
#3200
0#
#3280
1#
b0100 !
b0010 "
#3360
0#
#3440
1#
b0001 "
b0001 !
#3520
0#
#3600
1#
b0010 !
b0000 "
#3680
0#
#3760
1#
b0101 "
b0000 !
#3840
0#
#3920
1#
b0101 !
b0011 "
#4000
0#
#4080
1#
b0101 "
b0001 !
#4160
0#
#4240
1#
b0000 !
b0111 "
#4320
0#
#4400
1#
b0110 "
b0111 !
#4480
0#
#4560
1#
b0100 !
b0001 "
#4640
0#
#4720
1#
b0001 "
b0001 !
#4800
0#
#4880
1#
b0011 !
b0101 "
#4960
0#
#5040
1#
b0000 "
b0100 !
#5120
0#
#5200
1#
b0010 !
b0000 "
#5280
0#
#5360
1#
b0101 "
b0100 !
#5440
0#
#5520
1#
b0001 !
b0010 "
#5600
0#
#5680
1#
b0110 "
b0000 !
#5760
0#
#5840
1#
b0001 !
b0011 "
#5920
0#
#6000
1#
b0000 "
b0000 !
#6080
0#
#6160
1#
b0111 !
b0000 "
#6240
0#
#6320
1#
b0011 "
b0000 !
#6400
0#
#6480
1#
b0100 !
b0110 "
#6560
0#
#6640
1#
b0001 "
b0110 !
#6720
0#
#6800
1#
b0000 !
b0000 "
#6880
0#
#6960
1#
b0011 "
b0001 !
#7040
0#
#7120
1#
b0001 !
b0111 "
#7200
0#
#7280
1#
b0010 "
b0000 !
#7360
0#
#7440
1#
b0001 !
b0001 "
#7520
0#
#7600
1#
b0110 "
b0010 !
#7680
0#
#7760
1#
b0000 !
b0000 "
#7840
0#
#7920
1#
b0111 "
b0010 !
#8000
0#
#8080
1#
b0100 !
b0110 "
#8160
0#
#8240
1#
b0101 "
b0000 !
#8320
0#
#8400
1#
b0111 !
b0001 "
#8480
0#
#8560
1#
b0011 "
b0001 !
#8640
0#
#8720
1#
b0101 !
b0001 "
#8800
0#
#8880
1#
b0000 "
b0000 !
#8960
0#
#9040
1#
b0000 !
#9120
0#
#9200
1#
b0011 "
#9280
0#
#9360
1#
b0100 "
b0000 !
#9440
0#
#9520
1#
b0001 !
b0101 "
#9600
0#
#9680
1#
b0010 "
b0110 !
#9760
0#
#9840
1#
b0101 !
b0010 "
#9920
0#
#10000
1#
b0000 "
b0010 !
#10080
0#
#10160
1#
b0110 !
b0011 "
#10240
0#
#10320
1#
b0101 "
b0001 !
#10400
0#
#10480
1#
b0100 !
b0001 "
#10560
0#
#10640
1#
b0101 "
b0011 !
#10720
0#
#10800
1#
b0010 !
b0000 "
#10880
0#
#10960
1#
b0001 "
b0001 !
#11040
0#
#11120
1#
b0000 !
b0101 "
#11200
0#
#11280
1#
b0111 "
b0001 !
#11360
0#
#11440
1#
b0110 !
#11520
0#
#11600
1#
b0011 !
b0000 "
#11680
0#
#11760
1#
b0110 "
#11840
0#
#11920
1#
b0010 "
b0100 !
#12000
0#
#12080
1#
b0110 !
#12160
0#
#12240
1#
b0001 !
b0101 "
#12320
0#
#12400
1#
b0010 "
#12480
0#
#12560
1#
b0011 "
#12640
0#
#12720
1#
b0110 "
b0000 !
#12800
0#
#12880
1#
b0011 !
b0111 "
#12960
0#
#13040
1#
b0010 "
b0111 !
#13120
0#
#13200
1#
b0000 !
b0001 "
#13280
0#
#13360
1#
b0011 "
b0111 !
#13440
0#
#13520
1#
b0010 !
b0110 "
#13600
0#
#13680
1#
b0001 "
b0011 !
#13760
0#
#13840
1#
b0101 !
b0010 "
#13920
0#
#14000
1#
b0001 "
b0001 !
#14080
0#
#14160
1#
b0000 !
b0101 "
#14240
0#
#14320
1#
b0001 !
#14400
0#
#14480
1#
b0010 !
#14560
0#
#14640
1#
b0110 !
b0000 "
#14720
0#
#14800
1#
b0001 "
b0001 !
#14880
0#
#14960
1#
b0001 "
#15040
0#
#15120
1#
b0011 "
b0010 !
#15200
0#
#15280
1#
b0001 !
b0111 "
#15360
0#
#15440
1#
b0100 "
b0001 !
#15520
0#
#15600
1#
b0000 !
b0110 "
#15680
0#
#15760
1#
b0000 "
b0101 !
#15840
0#
#15920
1#
b0000 !
#16000
0#
#16080
1#
b0001 !
b0001 "
#16160
0#
#16240
1#
b0010 "
b0010 !
#16320
0#
#16400
1#
b0110 !
b0000 "
#16480
0#
#16560
1#
b0111 "
b0010 !
#16640
0#
#16720
1#
b0100 !
b0000 "
#16800
0#
#16880
1#
b0101 "
b0011 !
#16960
0#
#17040
1#
b0001 !
b0111 "
#17120
0#
#17200
1#
b0000 "
b0110 !
#17280
0#
#17360
1#
b0001 !
b0001 "
#17440
0#
#17520
1#
b0101 "
b0000 !
#17600
0#
#17680
1#
b0101 !
b0010 "
#17760
0#
#17840
1#
b0111 "
b0001 !
#17920
0#
#18000
1#
b0110 !
#18080
0#
#18160
1#
b0101 !
b0000 "
#18240
0#
#18320
1#
b0000 "
b0100 !
#18400
0#
#18480
1#
b0001 !
b0101 "
#18560
0#
#18640
1#
b0110 "
b0011 !
#18720
0#
#18800
1#
b0001 !
b0011 "
#18880
0#
#18960
1#
b0001 "
b0000 !
#19040
0#
#19120
1#
b0101 !
b0001 "
#19200
0#
#19280
1#
b0010 "
b0001 !
#19360
0#
#19440
1#
b0011 !
b0011 "
#19520
0#
#19600
1#
b0110 "
b0101 !
#19680
0#
#19760
1#
b0000 !
b0001 "
#19840
0#
#19920
1#
b0100 "
b0100 !
#20000
0#
#20080
1#
b0000 !
b0110 "
#20160
0#
#20240
1#
b0010 "
b0001 !
#20320
0#
#20400
1#
b0000 !
b0100 "
#20480
0#
#20560
1#
b0001 "
b0111 !
#20640
0#
#20720
1#
b0100 !
b0001 "
#20800
0#
#20880
1#
b0010 "
b0111 !
#20960
0#
#21040
1#
b0100 !
b0001 "
#21120
0#
#21200
1#
b0010 "
b0001 !
#21280
0#
#21360
1#
b0011 !
b0111 "
#21440
0#
#21520
1#
b0001 "
b0000 !
#21600
0#
#21680
1#
b0100 "
#21760
0#
#21840
1#
b0000 "
b0111 !
#21920
0#
#22000
1#
b0001 !
b0100 "
#22080
0#
#22160
1#
b0011 "
b0001 !
#22240
0#
#22320
1#
b0000 !
b0111 "
#22400
0#
#22480
1#
b0001 !
#22560
0#
#22640
1#
b0110 !
b0010 "
#22720
0#
#22800
1#
b0100 "
b0000 !
#22880
0#
#22960
1#
b0111 "
#23040
0#
#23120
1#
b0000 "
b0000 !
#23200
0#
#23280
1#
b0000 !
b0011 "
#23360
0#
#23440
1#
b0001 "
b0111 !
#23520
0#
#23600
1#
b0011 !
b0001 "
#23680
0#
#23760
1#
b0000 "
b0001 !
#23840
0#
#23920
1#
b0010 !
b0010 "
#24000
0#
#24080
1#
b0010 "
b0100 !
#24160
0#
#24240
1#
b0010 !
b0000 "
#24320
0#
#24400
1#
b0011 !
#24480
0#
#24560
1#
b0000 !
b0110 "
#24640
0#
#24720
1#
b0100 "
b0110 !
#24800
0#
#24880
1#
b0000 "
#24960
0#
#25040
1#
b0101 "
b0000 !
#25120
0#
#25200
1#
b0101 !
b0010 "
#25280
0#
#25360
1#
b0011 "
b0000 !
#25440
0#
#25520
1#
b0001 !
b0001 "
#25600
0#
#25680
1#
b0000 "
b0111 !
#25760
0#
#25840
1#
b0001 !
b0001 "
#25920
0#
#26000
1#
b0111 !
#26080
0#
#26160
1#
b0001 "
#26240
0#
#26320
1#
b0001 "
b0010 !
#26400
0#
#26480
1#
b0011 !
b0110 "
#26560
0#
#26640
1#
b0011 "
b0001 !
#26720
0#
#26800
1#
b0101 !
b0001 "
#26880
0#
#26960
1#
b0000 "
b0010 !
#27040
0#
#27120
1#
b0000 !
b0000 "
#27200
0#
#27280
1#
b0001 "
b0110 !
#27360
0#
#27440
1#
b0010 !
b0000 "
#27520
0#
#27600
1#
b0101 "
b0010 !
#27680
0#
#27760
1#
b0000 !
b0011 "
#27840
0#
#27920
1#
b0000 "
b0011 !
#28000
0#
#28080
1#
b0100 !
b0001 "
#28160
0#
#28240
1#
b0001 "
b0000 !
#28320
0#
#28400
1#
b0011 !
b0010 "
#28480
0#
#28560
1#
b0001 "
b0001 !
#28640
0#
#28720
1#
b0001 !
b0011 "
#28800
0#
#28880
1#
b0010 "
b0010 !
#28960
0#
#29040
1#
b0100 !
b0110 "
#29120
0#
#29200
1#
b0010 "
b0001 !
#29280
0#
#29360
1#
b0100 !
b0000 "
#29440
0#
#29520
1#
b0000 "
b0000 !
#29600
0#
#29680
1#
b0010 !
b0000 "
#29760
0#
#29840
1#
b0010 "
b0011 !
#29920
0#
#30000
1#
b0001 !
b0010 "
#30080
0#
#30160
1#
b0111 "
b0001 !
#30240
0#
#30320
1#
b0010 !
b0001 "
#30400
0#
#30480
1#
b0001 "
b0011 !
#30560
0#
#30640
1#
b0011 !
b0001 "
#30720
0#
#30800
1#
b0101 "
b0000 !
#30880
0#
#30960
1#
b0011 !
#31040
0#
#31120
1#
b0011 !
b0001 "
#31200
0#
#31280
1#
b0100 "
b0101 !
#31360
0#
#31440
1#
b0001 !
b0010 "
#31520
0#
#31600
1#
b0001 "
b0001 !
#31680
0#
#31760
1#
b0110 !
b0011 "
#31840
0#
#31920
1#
b0100 "
b0010 !
#32000
0#
#32080
1#
b0011 !
b0000 "
#32160
0#
#32240
1#
b0110 "
b0001 !
#32320
0#
#32400
1#
b0011 !
b0001 "
#32480
0#
#32560
1#
b0011 "
b0011 !
#32640
0#
#32720
1#
b0000 !
b0101 "
#32800
0#
#32880
1#
b0111 "
b0000 !
#32960
0#
#33040
1#
b0100 !
b0000 "
#33120
0#
#33200
1#
b0011 !
#33280
0#
#33360
1#
b0011 !
b0110 "
#33440
0#
#33520
1#
b0000 "
b0110 !
#33600
0#
#33680
1#
b0011 !
b0000 "
#33760
0#
#33840
1#
b0001 "
b0010 !
#33920
0#
#34000
1#
b0001 !
b0110 "
#34080
0#
#34160
1#
b0001 "
b0110 !
#34240
0#
#34320
1#
b0011 !
b0000 "
#34400
0#
#34480
1#
b0101 "
b0000 !
#34560
0#
#34640
1#
b0111 !
b0010 "
#34720
0#
#34800
1#
b0011 "
b0101 !
#34880
0#
#34960
1#
b0100 !
b0110 "
#35040
0#
#35120
1#
b0001 "
b0001 !
#35200
0#
#35280
1#
b0110 !
b0001 "
#35360
0#
#35440
1#
b0000 "
b0001 !
#35520
0#
#35600
1#
b0100 !
b0001 "
#35680
0#
#35760
1#
b0001 "
#35840
0#
#35920
1#
b0110 "
b0000 !
#36000
0#
#36080
1#
b0011 !
#36160
0#
#36240
1#
b0010 !
b0000 "
#36320
0#
#36400
1#
b0000 "
b0001 !
#36480
0#
#36560
1#
b0110 !
b0000 "
#36640
0#
#36720
1#
b0111 "
b0101 !
#36800
0#
#36880
1#
b0100 !
b0011 "
#36960
0#
#37040
1#
b0000 "
b0111 !
#37120
0#
#37200
1#
b0001 !
b0001 "
#37280
0#
#37360
1#
b0010 "
b0000 !
#37440
0#
#37520
1#
b0011 !
b0000 "
#37600
0#
#37680
1#
b0110 "
b0001 !
#37760
0#
#37840
1#
b0100 !
b0000 "
#37920
0#
#38000
1#
b0001 "
#38080
0#
#38160
1#
b0010 "
b0001 !
#38240
0#
#38320
1#
b0001 !
b0000 "
#38400
0#
#38480
1#
b0001 !
#38560
0#
#38640
1#
b0110 !
b0111 "
#38720
0#
#38800
1#
b0000 "
b0001 !
#38880
0#
#38960
1#
b0000 !
b0010 "
#39040
0#
#39120
1#
b0001 "
b0001 !
#39200
0#
#39280
1#
b0010 !
b0111 "
#39360
0#
#39440
1#
b0110 "
b0011 !
#39520
0#
#39600
1#
b0000 !
b0000 "
#39680
0#
#39760
1#
b0000 "
b0001 !
#39840
0#
#39920
1#
b0010 !
b0111 "
#40000
0#
#40080
1#
b0101 "
b0001 !
#40160
0#
#40240
1#
b0000 !
b0000 "
#40320
0#
#40400
1#
b0001 "
b0010 !
#40480
0#
#40560
1#
b0001 !
b0011 "
#40640
0#
#40720
1#
b0000 "
b0110 !
#40800
0#
#40880
1#
b0100 !
#40960
0#
#41040
1#
b0101 !
b0110 "
