fst/samples/t0020.vcd
$date
	Mon Jul 21 08:55:25 2025

$end
$version
	Test Converter
$end
$timescale
	10us
$end
$var reg 1 ! reg0001 $end
$var event 1 " event0001 $end
$var reg 32 # reg0002[31:0] $end
$var reg 1 $ reg0003 $end
$var event 1 % event0002 $end
$var reg 32 & reg0004[31:0] $end
$var reg 1 ' rst0001 $end
$var event 1 ( rst0002 $end
$var reg 32 ) reg0005[31:0] $end
$var reg 1 * reg0006 $end
$var event 1 + event0003 $end
$var reg 32 , reg0007[31:0] $end
$enddefinitions $end
#0
$dumpvars
b00000000000000000000000011111111 ,
1*
b00000000000000000000000011111111 )
1'
b00000000000000000000000011111111 &
1$
b00000000000000000000000011111111 #
1!
$end
#848
0!
b11111111111111111111111111111110 #
0"
#1864
0$
b11111111111111111111111111111110 &
0%
#2764
0'
b11111111111111111111111111111110 )
0(
#3200
b11111111111111111111111111111111 )
1'
#6772
0*
b10001111111111111111111111101111 ,
0+
#7416
b11111111111111111111111111111111 ,
1*
#8396
0'
b11111111111111111111111111111110 )
0(
#8760
b11111111111111111111111111111111 )
1'
#9636
0*
b10001111111111111111111111101111 ,
0+
#10128
b11111111111111111111111111111111 ,
1*
#10844
b11111111111111111111111111111111 &
1$
#11300
b11111111111111111111111111111111 #
1!
