fst/samples/t0025.vcd
$date
	Mon Jul 21 08:55:25 2025

$end
$version
	Test Converter
$end
$timescale
	10fs
$end
$scope module scp0001 $end
$var wire 1 ! wire0001 $end
$var wire 10 " wire0002[0:9] $end
$var reg 1 # rst0001 $end
$var reg 1 $ reg0001 $end
$var reg 1 % reg0002 $end
$scope module scp0002 $end
$var wire 1 & clk0001 $end
$var wire 11 ' wire0003[0:10] $end
$var wire 1 ( rst0002 $end
$var wire 1 ) wire0004 $end
$var wire 1 ! wire0001 $end
$var wire 10 * wire0002[0:9] $end
$scope begin scp0003 $end
$scope module scp0004 $end
$var wire 1 & clk0001 $end
$var wire 1 ( rst0002 $end
$var wire 1 + wire0004 $end
$var reg 1 , reg0003 $end
$var reg 1 - reg0004 $end
$upscope $end
$upscope $end
$scope begin scp0005 $end
$scope module scp0004 $end
$var wire 1 & clk0001 $end
$var wire 1 ( rst0002 $end
$var wire 1 . wire0004 $end
$var reg 1 / reg0003 $end
$var reg 1 0 reg0004 $end
$upscope $end
$upscope $end
$scope begin scp0006 $end
$scope module scp0004 $end
$var wire 1 & clk0001 $end
$var wire 1 ( rst0002 $end
$var wire 1 1 wire0004 $end
$var reg 1 2 reg0003 $end
$var reg 1 3 reg0004 $end
$upscope $end
$upscope $end
$scope begin scp0007 $end
$scope module scp0004 $end
$var wire 1 & clk0001 $end
$var wire 1 ( rst0002 $end
$var wire 1 4 wire0004 $end
$var reg 1 5 reg0003 $end
$var reg 1 6 reg0004 $end
$upscope $end
$upscope $end
$scope begin scp0008 $end
$scope module scp0004 $end
$var wire 1 & clk0001 $end
$var wire 1 ( rst0002 $end
$var wire 1 7 wire0004 $end
$var reg 1 8 reg0003 $end
$var reg 1 9 reg0004 $end
$upscope $end
$upscope $end
$scope begin scp0009 $end
$scope module scp0004 $end
$var wire 1 & clk0001 $end
$var wire 1 ( rst0002 $end
$var wire 1 : wire0004 $end
$var reg 1 ; reg0003 $end
$var reg 1 < reg0004 $end
$upscope $end
$upscope $end
$scope begin scp0010 $end
$scope module scp0004 $end
$var wire 1 & clk0001 $end
$var wire 1 ( rst0002 $end
$var wire 1 = wire0004 $end
$var reg 1 > reg0003 $end
$var reg 1 ? reg0004 $end
$upscope $end
$upscope $end
$scope begin scp0011 $end
$scope module scp0004 $end
$var wire 1 & clk0001 $end
$var wire 1 ( rst0002 $end
$var wire 1 @ wire0004 $end
$var reg 1 A reg0003 $end
$var reg 1 B reg0004 $end
$upscope $end
$upscope $end
$scope begin scp0012 $end
$scope module scp0004 $end
$var wire 1 & clk0001 $end
$var wire 1 ( rst0002 $end
$var wire 1 C wire0004 $end
$var reg 1 D reg0003 $end
$var reg 1 E reg0004 $end
$upscope $end
$upscope $end
$scope begin scp0013 $end
$scope module scp0004 $end
$var wire 1 & clk0001 $end
$var wire 1 ( rst0002 $end
$var wire 1 F wire0004 $end
$var reg 1 G reg0003 $end
$var reg 1 H reg0004 $end
$upscope $end
$upscope $end
$upscope $end
$upscope $end
$enddefinitions $end
#0
$dumpvars
1H
xG
xF
1E
xD
xC
1B
xA
x@
1?
x>
x=
1<
x;
x:
19
x8
x7
16
x5
x4
13
x2
x1
10
x/
x.
1-
x,
1+
b0000000001 *
1)
0(
b1xxxxxxxxxx '
1&
1%
1$
0#
b0000000001 "
x!
$end
#8000
b00xxxxxxxxx '
0,
0.
#16000
b001xxxxxxxx '
1/
11
#20000
1#
1(
#24000
b0010xxxxxxx '
02
04
#32000
b00101xxxxxx '
15
17
#40000
b001010xxxxx '
08
0:
#48000
b0010101xxxx '
0%
0)
0+
1;
1=
#56000
b01101010xxx '
1.
1,
0>
0@
#64000
b010010101xx '
01
0/
1A
1C
#72000
b0101101010x '
14
12
0D
0F
#80000
b01010010101 '
07
05
1!
1G
#88000
b01010110101 '
1:
18
#96000
b00010100101 '
0=
0;
1+
1)
1%
#104000
b00010101101 '
1@
1>
0,
0.
#112000
b00110101001 '
0C
0A
1/
11
#120000
b00100101011 '
1F
1D
02
04
#128000
b00101101010 '
0G
0!
15
17
#136000
b00101001010 '
08
0:
#144000
b00101011010 '
0%
0)
0+
1;
1=
#152000
b01101010010 '
1.
1,
0>
0@
#160000
b01001010110 '
01
0/
1A
1C
#168000
b01011010100 '
14
12
0D
0F
#176000
b01010010101 '
07
05
1!
1G
#184000
b01010110101 '
1:
18
#192000
b00010100101 '
0=
0;
1+
1)
1%
#200000
b00010101101 '
1@
1>
0,
0.
#208000
b00110101001 '
0C
0A
1/
11
#216000
b00100101011 '
1F
1D
02
04
#224000
b00101101010 '
0G
0!
15
17
#232000
b00101001010 '
08
0:
#240000
b00101011010 '
0%
0)
0+
1;
1=
b0101000000 "
0$
0&
b0101001010 *
0-
03
09
0<
0B
0H
#248000
b01101010010 '
1.
1,
0>
0@
#256000
b01001010110 '
01
0/
1A
1C
#264000
b01011010100 '
14
12
0D
0F
#272000
b01010010101 '
07
05
1!
1G
#280000
b01010110101 '
1:
18
#288000
b00010100101 '
0=
0;
1+
1)
1%
#296000
b00010101101 '
1@
1>
0,
0.
#304000
b00110101001 '
0C
0A
1/
11
#312000
b00100101011 '
1F
1D
02
04
#320000
b00101101010 '
0G
0!
15
17
#328000
b00101001010 '
08
0:
#336000
b00101011010 '
0%
0)
0+
1;
1=
#344000
b01101010010 '
1.
1,
0>
0@
#352000
b01001010110 '
01
0/
1A
1C
#360000
b01011010100 '
14
12
0D
0F
#368000
b01010010101 '
07
05
1!
1G
#376000
b01010110101 '
1:
18
#384000
b00010100101 '
0=
0;
1+
1)
1%
#392000
b00010101101 '
1@
1>
0,
0.
#400000
b00110101001 '
0C
0A
1/
11
#408000
b00100101011 '
1F
1D
02
04
#416000
b00101101010 '
0G
0!
15
17
#424000
b00101001010 '
08
0:
#432000
b00101011010 '
0%
0)
0+
1;
1=
#440000
b01101010010 '
1.
1,
0>
0@
#448000
b01001010110 '
01
0/
1A
1C
#456000
b01011010100 '
14
12
0D
0F
#464000
b01010010101 '
07
05
1!
1G
#472000
b01010110101 '
1:
18
#480000
b00010100101 '
0=
0;
1+
1)
1%
1&
1$
#488000
b00010101101 '
1@
1>
0,
0.
#496000
b00110101001 '
0C
0A
1/
11
#504000
b00100101011 '
1F
1D
02
04
#512000
b00101101010 '
0G
0!
15
17
#520000
b00101001010 '
08
0:
#528000
b00101011010 '
0%
0)
0+
1;
1=
#536000
b01101010010 '
1.
1,
0>
0@
#544000
b01001010110 '
01
0/
1A
1C
#552000
b01011010100 '
14
12
0D
0F
#560000
b01010010101 '
07
05
1!
1G
#568000
b01010110101 '
1:
18
#576000
b00010100101 '
0=
0;
1+
1)
1%
#584000
b00010101101 '
1@
1>
0,
0.
#592000
b00110101001 '
0C
0A
1/
11
#600000
b00100101011 '
1F
1D
02
04
#608000
b00101101010 '
0G
0!
15
17
#616000
b00101001010 '
08
0:
#624000
b00101011010 '
0%
0)
0+
1;
1=
#632000
b01101010010 '
1.
1,
0>
0@
#640000
b01001010110 '
01
0/
1A
1C
#648000
b01011010100 '
14
12
0D
0F
#656000
b01010010101 '
07
05
1!
1G
#664000
b01010110101 '
1:
18
#672000
b00010100101 '
0=
0;
1+
1)
1%
#680000
b00010101101 '
1@
1>
0,
0.
#688000
b00110101001 '
0C
0A
1/
11
#696000
b00100101011 '
1F
1D
02
04
#704000
b00101101010 '
0G
0!
15
17
#712000
b00101001010 '
08
0:
#720000
b00101011010 '
0%
0)
0+
1;
1=
0$
0&
#728000
b01101010010 '
1.
1,
0>
0@
#736000
b01001010110 '
01
0/
1A
1C
#744000
b01011010100 '
14
12
0D
0F
#752000
b01010010101 '
07
05
1!
1G
#760000
b01010110101 '
1:
18
#768000
b00010100101 '
0=
0;
1+
1)
1%
#776000
b00010101101 '
1@
1>
0,
0.
#784000
b00110101001 '
0C
0A
1/
11
#792000
b00100101011 '
1F
1D
02
04
#800000
b00101101010 '
0G
0!
15
17
#808000
b00101001010 '
08
0:
#816000
b00101011010 '
0%
0)
0+
1;
1=
#824000
b01101010010 '
1.
1,
0>
0@
#832000
b01001010110 '
01
0/
1A
1C
#840000
b01011010100 '
14
12
0D
0F
#848000
b01010010101 '
07
05
1!
1G
#856000
b01010110101 '
1:
18
#864000
b00010100101 '
0=
0;
1+
1)
1%
#872000
b00010101101 '
1@
1>
0,
0.
#880000
b00110101001 '
0C
0A
1/
11
#888000
b00100101011 '
1F
1D
02
04
#896000
b00101101010 '
0G
0!
15
17
#904000
b00101001010 '
08
0:
#912000
b00101011010 '
0%
0)
0+
1;
1=
#920000
b01101010010 '
1.
1,
0>
0@
#928000
b01001010110 '
01
0/
1A
1C
#936000
b01011010100 '
14
12
0D
0F
#944000
b01010010101 '
07
05
1!
1G
#952000
b01010110101 '
1:
18
#960000
b00010100101 '
0=
0;
1+
1)
1%
1&
1$
#968000
b00010101101 '
1@
1>
0,
0.
#976000
b00110101001 '
0C
0A
1/
11
#984000
b00100101011 '
1F
1D
02
04
#992000
b00101101010 '
0G
0!
15
17
#1000000
b00101001010 '
08
0:
#1008000
b00101011010 '
0%
0)
0+
1;
1=
#1016000
b01101010010 '
1.
1,
0>
0@
#1024000
b01001010110 '
01
0/
1A
1C
#1032000
b01011010100 '
14
12
0D
0F
#1040000
b01010010101 '
07
05
1!
1G
#1048000
b01010110101 '
1:
18
#1056000
b00010100101 '
0=
0;
1+
1)
1%
#1064000
b00010101101 '
1@
1>
0,
0.
#1072000
b00110101001 '
0C
0A
1/
11
#1080000
b00100101011 '
1F
1D
02
04
#1088000
b00101101010 '
0G
0!
15
17
#1096000
b00101001010 '
08
0:
#1104000
b00101011010 '
0%
0)
0+
1;
1=
#1112000
b01101010010 '
1.
1,
0>
0@
#1120000
b01001010110 '
01
0/
1A
1C
#1128000
b01011010100 '
14
12
0D
0F
#1136000
b01010010101 '
07
05
1!
1G
#1144000
b01010110101 '
1:
18
#1152000
b00010100101 '
0=
0;
1+
1)
1%
#1160000
b00010101101 '
1@
1>
0,
0.
#1168000
b00110101001 '
0C
0A
1/
11
#1176000
b00100101011 '
1F
1D
02
04
#1184000
b00101101010 '
0G
0!
15
17
#1192000
b00101001010 '
08
0:
#1200000
b00101011010 '
0%
0)
0+
1;
1=
0$
0&
#1208000
b01101010010 '
1.
1,
0>
0@
#1216000
b01001010110 '
01
0/
1A
1C
