fst/samples/t0026.vcd
$date
	Mon Jul 21 08:55:25 2025

$end
$version
	Test Converter
$end
$timescale
	1ns
$end
$scope module scp0001 $end
$var reg 1 ! rst0001 $end
$var reg 1 " reg0001 $end
$var reg 1 # clk0001 $end
$var reg 1 $ reg0002 $end
$var reg 1 % reg0003 $end
$var reg 1 & reg0004 $end
$var string 0 ' string0001 $end
$var reg 1 ( reg0005 $end
$var string 0 ) string0002 $end
$scope module scp0002 $end
$var reg 1 ! rst0001 $end
$var reg 1 " reg0001 $end
$var reg 1 # clk0001 $end
$var reg 1 $ reg0002 $end
$var reg 1 % reg0003 $end
$var reg 1 & reg0004 $end
$var reg 1 * reg0006 $end
$var reg 1 ( reg0005 $end
$var reg 1 + reg0007 $end
$var reg 1 , reg0008 $end
$var reg 3 - reg0009 $end
$upscope $end
$upscope $end
$enddefinitions $end
1!
0"
1#
0$
1%
0&
0(
0*
0+
0,
b111 -
#40
$dumpvars
b110 -
1,
s0x1 )
0#
$end
#80
1#
1&
#120
0#
s0x2 )
b100 -
#160
1#
#200
0#
b000 -
s0x3 )
1+
1*
1(
0%
1"
#240
1#
1$
#280
0#
#320
1#
0$
#360
0#
#400
1#
1$
0"
0(
0*
0+
0&
#440
0#
b001 -
s0x1 '
#480
1#
0$
#520
0#
s0x2 '
b010 -
s0x4 )
#560
1#
#600
0#
s0x5 )
b100 -
s0x3 '
1%
#640
1#
1&
#680
0#
0%
b000 -
s0x6 )
1+
1*
1(
1"
#720
0"
0(
0*
0+
1#
0&
#760
0#
s0x7 )
s0x4 '
#800
1#
#840
0#
s0x5 '
s0x8 )
#880
1#
1&
1+
1*
1(
1"
#920
0#
#960
1#
0"
0(
0*
0+
0&
1$
#1000
0#
s0x6 '
b001 -
#1040
1#
1&
1+
1*
1(
1"
#1080
0#
#1120
1#
#1160
0#
#1200
1#
0"
0(
0*
0+
0&
0$
#1240
0#
b010 -
s0x7 '
s0x9 )
#1280
1#
1&
1+
1*
1(
1"
#1320
0#
#1360
1#
0"
0(
0*
0+
0&
#1400
0#
s0xa )
s0x8 '
b100 -
1%
#1440
1#
1&
#1480
0#
0%
b000 -
s0xb )
1+
1*
1(
1"
#1520
0"
0(
0*
0+
1#
0&
1$
#1560
0#
b001 -
s0x9 '
#1600
1#
0$
1&
1+
1*
1(
1"
#1640
0#
#1680
1#
1$
#1720
0#
#1760
1#
0$
0"
0(
0*
0+
0&
#1800
0#
s0xa '
b010 -
s0xc )
#1840
1#
1&
1+
1*
1(
1"
1$
#1880
0#
#1920
1#
0$
0"
0(
0*
0+
0&
#1960
0#
s0xd )
b100 -
s0xb '
1%
#2000
1#
#2040
0#
0%
b000 -
s0xe )
#2080
1#
#2120
0#
s0xf )
s0xc '
#2160
1#
#2200
0#
s0xd '
s0x10 )
#2240
1#
#2280
0#
s0x11 )
s0xe '
#2320
1#
1&
1+
1*
1(
1"
#2360
0#
#2400
1#
0"
0(
0*
0+
0&
#2440
0#
s0xf '
s0x12 )
#2480
1#
1&
1+
1*
1(
1"
#2520
0#
#2560
1#
1$
#2600
0#
#2640
1#
0$
0"
0(
0*
0+
0&
#2680
0#
s0x13 )
s0x10 '
#2720
1#
1&
1+
1*
1(
1"
#2760
0#
#2800
1#
#2840
0#
#2880
1#
0"
0(
0*
0+
0&
1$
#2920
0#
s0x11 '
b001 -
#2960
1#
#3000
0#
b011 -
s0x12 '
#3040
1#
0$
1&
1+
1*
1(
1"
#3080
0#
#3120
1#
0"
0(
0*
0+
0&
#3160
0#
s0x13 '
b110 -
s0x14 )
1%
#3200
1#
1&
1$
#3240
0#
b101 -
#3280
1#
#3320
0#
b011 -
0%
1+
1*
1(
1"
#3360
0"
0(
0*
0+
1#
0$
0&
#3400
0#
1%
b110 -
s0x15 )
s0x14 '
#3440
1#
1$
#3480
0#
b101 -
#3520
1#
0$
#3560
0#
b010 -
s0x16 )
0%
#3600
1#
1$
#3640
0#
1%
b101 -
s0x15 '
#3680
1#
#3720
0#
b011 -
0%
#3760
1#
0$
1&
1+
1*
1(
1"
#3800
0#
#3840
1#
1$
#3880
0#
#3920
1#
0$
#3960
0#
#4000
1#
1$
0"
0(
0*
0+
0&
