vcd/samples/t0008.vcd
$date
	Mon Jul 21 08:55:20 2025
$end
$version
	Test Converter
$end
$timescale
	1ps
$end
$scope module scp0001 $end
$var reg 1 ! clk0001 $end
$var reg 1 " reg0001 $end
$var reg 8 # reg0002[7:0] $end
$var wand 1 $ wand0001 $end
$var wand 1 % wand0002 $end
$var integer 1024 & integer0001 $end
$var reg 8 ' reg0003[7:0] $end
$var reg 8 ( reg0004[7:0] $end
$var reg 8 ) reg0005[7:0] $end
$var reg 8 * reg0006[7:0] $end
$var reg 1 + reg0007 $end
$scope module scp0002 $end
$var wire 1 , wire0001 $end
$var wire 1 - wire0002 $end
$var wire 1 % wire0003 $end
$var wire 1 $ wire0004 $end
$scope module scp0003 $end
$var wire 1 , wire0001 $end
$var wire 1 - wire0002 $end
$var wire 1 % wire0003 $end
$var wire 1 $ wire0004 $end
$var wire 1 . wire0005[3] $end
$var wire 1 / wire0005[2] $end
$var wire 1 0 wire0005[1] $end
$var wire 1 1 wire0005[0] $end
$var wire 1 2 wire0006[3] $end
$var wire 1 3 wire0006[2] $end
$var wire 1 4 wire0006[1] $end
$var wire 1 5 wire0006[0] $end
$var wire 1 6 wire0007[1] $end
$var wire 1 7 wire0007[0] $end
$var wire 1 8 wire0008[3] $end
$var wire 1 9 wire0008[2] $end
$var wire 1 : wire0008[1] $end
$var wire 1 ; wire0008[0] $end
$var wire 1 < wire0009[1] $end
$var wire 1 = wire0009[0] $end
$var reg 1 > reg0008 $end
$var reg 1 ? reg0009 $end
$var wire 1 @ wire0010 $end
$var wire 1 A wire0011 $end
$var reg 1 B reg0010 $end
$var wire 1 C wire0012 $end
$var reg 1 D reg0011 $end
$var wire 1 E wire0013 $end
$var reg 1 F reg0012 $end
$var wire 1 G wire0014 $end
$var reg 1 H reg0013 $end
$var wire 1 I wire0015 $end
$var reg 1 J reg0014 $end
$var wire 1 K wire0016 $end
$var reg 1 L reg0015 $end
$var reg 1 M reg0016 $end
$var wire 1 N wire0017 $end
$var reg 1 O reg0017 $end
$var reg 1 P reg0018 $end
$var reg 1 Q clk0002 $end
$var reg 1 R reg0019 $end
$var wire 1 S wire0018 $end
$var reg 7 T reg0020[6:0] $end
$var reg 1 U reg0021 $end
$var wire 1 V wire0019 $end
$var wire 1 W wire0020 $end
$var reg 1 X reg0022 $end
$var reg 1 Y reg0023 $end
$var reg 1 Z reg0024 $end
$var reg 1 [ reg0025 $end
$var reg 1 \ reg0026 $end
$var reg 1 ] clk0003 $end
$var reg 1 ^ reg0027 $end
$var reg 1 _ reg0028 $end
$var reg 1 ` reg0029 $end
$var wire 1 a wire0021 $end
$var reg 1 b reg0030 $end
$var reg 1 c reg0031 $end
$var reg 1 d reg0032 $end
$var wire 1 e wire0022 $end
$var reg 1 f reg0033 $end
$var reg 1 g reg0034 $end
$var reg 1 h reg0035 $end
$var reg 1 i reg0036 $end
$var reg 1 j reg0037 $end
$var reg 1 k reg0038 $end
$var reg 1 l reg0039 $end
$var wire 1 m wire0023 $end
$var reg 1 n reg0040 $end
$var reg 1 o reg0041 $end
$var reg 1 p reg0042 $end
$var reg 1 q reg0043 $end
$var wire 1 r wire0024 $end
$var reg 1 s reg0044 $end
$var wire 1 t wire0025 $end
$var reg 1 u reg0045 $end
$var wire 1 v wire0026 $end
$var wire 1 w wire0027 $end
$var reg 1 x reg0046 $end
$var reg 1 y reg0047 $end
$var wire 1 z wire0028 $end
$var wire 1 { wire0029 $end
$var reg 1 | reg0048 $end
$var wire 1 } wire0030 $end
$var reg 1 ~ rst0001 $end
$var reg 1 !! rst0002 $end
$var reg 1 "! rst0003 $end
$var reg 1 #! rst0004 $end
$var reg 1 $! rst0005 $end
$var wire 1 %! rst0006 $end
$var reg 1 &! reg0049 $end
$var reg 1 '! reg0050 $end
$var reg 1 (! reg0051 $end
$var reg 1 )! reg0052 $end
$var wire 1 *! wire0031 $end
$var reg 1 +! reg0053 $end
$var wire 1 ,! wire0032 $end
$var reg 1 -! reg0054 $end
$var reg 1 .! reg0055 $end
$var reg 1 /! reg0056 $end
$var wire 1 0! wire0033 $end
$var wire 1 1! wire0034 $end
$var reg 1 2! reg0057 $end
$var wire 1 3! wire0035 $end
$var reg 1 4! reg0058 $end
$var reg 1 5! reg0059 $end
$var reg 1 6! reg0060 $end
$var reg 1 7! reg0061 $end
$var wire 1 8! wire0036 $end
$var reg 1 9! rst0007 $end
$var reg 1 :! rst0008 $end
$var reg 1 ;! clk0004 $end
$var reg 1 <! reg0062 $end
$var wire 1 =! wire0037 $end
$var wire 1 >! wire0038[5] $end
$var wire 1 ?! wire0038[4] $end
$var wire 1 @! wire0038[3] $end
$var wire 1 A! wire0038[2] $end
$var wire 1 B! wire0038[1] $end
$var wire 1 C! wire0038[0] $end
$var wire 1 D! wire0039[5] $end
$var wire 1 E! wire0039[4] $end
$var wire 1 F! wire0039[3] $end
$var wire 1 G! wire0039[2] $end
$var wire 1 H! wire0039[1] $end
$var wire 1 I! wire0039[0] $end
$var reg 1 J! reg0063 $end
$var wire 1 K! wire0040 $end
$var wire 1 L! wire0041[6] $end
$var wire 1 M! wire0041[5] $end
$var wire 1 N! wire0041[4] $end
$var wire 1 O! wire0041[3] $end
$var wire 1 P! wire0041[2] $end
$var wire 1 Q! wire0041[1] $end
$var wire 1 R! wire0041[0] $end
$var wire 1 S! wire0042[6] $end
$var wire 1 T! wire0042[5] $end
$var wire 1 U! wire0042[4] $end
$var wire 1 V! wire0042[3] $end
$var wire 1 W! wire0042[2] $end
$var wire 1 X! wire0042[1] $end
$var wire 1 Y! wire0042[0] $end
$var wire 1 Z! wire0043 $end
$var wire 1 [! wire0044 $end
$var wire 1 \! wire0045 $end
$var wire 1 ]! wire0046 $end
$var wire 1 ^! wire0047 $end
$var wire 1 _! wire0048 $end
$var wire 1 `! wire0049 $end
$var wire 1 a! wire0050 $end
$var wire 1 b! wire0051 $end
$var wire 1 c! wire0052 $end
$var wire 1 d! wire0053 $end
$var wire 1 e! wire0054 $end
$var wire 1 f! wire0055 $end
$var wire 1 g! wire0056 $end
$var wire 1 h! wire0057 $end
$var wire 1 i! wire0058 $end
$var wire 1 j! clk0005 $end
$var wire 1 k! rst0009 $end
$var wire 1 l! wire0059 $end
$var wire 1 m! wire0060 $end
$var wire 1 n! wire0061 $end
$var wire 1 o! wire0062 $end
$var wire 1 p! wire0063 $end
$var wire 1 q! wire0064 $end
$var wire 1 r! wire0065 $end
$var wire 1 s! wire0066 $end
$var wire 1 t! wire0067 $end
$var wire 1 u! wire0068 $end
$var wire 1 v! wire0069 $end
$var wire 1 w! wire0070 $end
$var wire 1 x! wire0071 $end
$var wire 1 y! wire0072 $end
$var wire 1 z! wire0073 $end
$var wire 1 {! wire0074 $end
$var wire 1 |! wire0075 $end
$var wire 1 }! wire0076 $end
$var wire 1 ~! wire0077 $end
$var wire 1 !" wire0078 $end
$var wire 1 "" wire0079 $end
$var wire 1 #" wire0080 $end
$var wire 1 $" wire0081 $end
$var wire 1 %" wire0082 $end
$var wire 1 &" wire0083 $end
$var wire 1 '" wire0084 $end
$var wire 1 (" wire0085 $end
$var wire 1 )" wire0086 $end
$var wire 1 *" wire0087 $end
$var wire 1 +" wire0088 $end
$var wire 1 ," rst0010 $end
$var wire 1 -" wire0089 $end
$var wire 1 ." wire0090 $end
$var wire 1 /" wire0091 $end
$var wire 1 0" wire0092 $end
$var wire 1 1" wire0093 $end
$var wire 1 2" wire0094 $end
$var wire 1 3" wire0095 $end
$var wire 1 4" wire0096 $end
$var wire 1 5" wire0097 $end
$var wire 1 6" wire0098 $end
$var wire 1 7" wire0099 $end
$var wire 1 8" rst0011 $end
$var wire 1 9" wire0100 $end
$var wire 1 :" clk0006 $end
$var wire 1 ;" wire0101 $end
$var wire 1 <" wire0102 $end
$var wire 1 =" wire0103 $end
$var wire 1 >" wire0104 $end
$var wire 1 ?" clk0007 $end
$var wire 1 @" wire0105 $end
$var wire 1 A" wire0106 $end
$var wire 1 B" wire0107 $end
$var wire 1 C" wire0108 $end
$var wire 1 D" wire0109 $end
$var wire 1 E" wire0110 $end
$var wire 1 F" wire0111 $end
$var wire 1 G" wire0112 $end
$var wire 1 H" wire0113 $end
$scope module scp0004 $end
$var parameter 32 I" parameter0001 $end
$var parameter 32 J" parameter0002 $end
$var parameter 48 K" parameter0003 $end
$var parameter 104 L" parameter0004 $end
$var wire 1 D" clk0008 $end
$var tri1 1 M" tri10001 $end
$var tri1 1 N" clk0009 $end
$var tri1 1 O" tri10002 $end
$var tri0 1 z! tri00001 $end
$var tri0 1 P" tri00002 $end
$var wire 1 . wire0114[3] $end
$var wire 1 / wire0114[2] $end
$var wire 1 0 wire0114[1] $end
$var wire 1 1 wire0114[0] $end
$var wire 1 Q" wire0115[3] $end
$var wire 1 R" wire0115[2] $end
$var wire 1 S" wire0115[1] $end
$var wire 1 T" wire0115[0] $end
$var reg 4 U" reg0064[3:0] $end
$upscope $end
$scope module scp0005 $end
$var parameter 32 V" parameter0001 $end
$var parameter 32 W" parameter0002 $end
$var parameter 48 X" parameter0003 $end
$var parameter 104 Y" parameter0004 $end
$var wire 1 D" clk0008 $end
$var tri1 1 Z" tri10001 $end
$var tri1 1 [" clk0009 $end
$var tri1 1 \" tri10002 $end
$var tri0 1 {! tri00001 $end
$var tri0 1 ]" tri00002 $end
$var wire 1 2 wire0114[3] $end
$var wire 1 3 wire0114[2] $end
$var wire 1 4 wire0114[1] $end
$var wire 1 5 wire0114[0] $end
$var wire 1 ^" wire0115[3] $end
$var wire 1 _" wire0115[2] $end
$var wire 1 `" wire0115[1] $end
$var wire 1 a" wire0115[0] $end
$var reg 4 b" reg0064[3:0] $end
$upscope $end
$scope module scp0006 $end
$var parameter 32 c" parameter0001 $end
$var parameter 32 d" parameter0002 $end
$var parameter 48 e" parameter0003 $end
$var parameter 104 f" parameter0004 $end
$var wire 1 z! clk0008 $end
$var tri1 1 g" tri10001 $end
$var tri1 1 h" clk0009 $end
$var tri1 1 i" tri10002 $end
$var tri0 1 x! tri00001 $end
$var tri0 1 j" tri00002 $end
$var wire 1 6 wire0114[1] $end
$var wire 1 7 wire0114[0] $end
$var wire 1 k" wire0115[1] $end
$var wire 1 l" wire0115[0] $end
$var reg 2 m" reg0064[1:0] $end
$upscope $end
$scope module scp0007 $end
$var parameter 32 n" parameter0001 $end
$var parameter 32 o" parameter0002 $end
$var parameter 48 p" parameter0003 $end
$var parameter 104 q" parameter0004 $end
$var wire 1 -" clk0008 $end
$var tri1 1 r" tri10001 $end
$var tri1 1 s" clk0009 $end
$var tri1 1 t" tri10002 $end
$var tri0 1 u" tri00001 $end
$var tri0 1 v" tri00002 $end
$var wire 1 8 wire0114[3] $end
$var wire 1 9 wire0114[2] $end
$var wire 1 : wire0114[1] $end
$var wire 1 ; wire0114[0] $end
$var wire 1 w" wire0115[3] $end
$var wire 1 x" wire0115[2] $end
$var wire 1 y" wire0115[1] $end
$var wire 1 z" wire0115[0] $end
$var reg 4 {" reg0064[3:0] $end
$upscope $end
$scope module scp0008 $end
$var parameter 32 |" parameter0001 $end
$var parameter 32 }" parameter0002 $end
$var parameter 48 ~" parameter0003 $end
$var parameter 104 !# parameter0004 $end
$var wire 1 "# clk0008 $end
$var tri1 1 ## tri10001 $end
$var tri1 1 $# clk0009 $end
$var tri1 1 %# tri10002 $end
$var tri0 1 &# tri00001 $end
$var tri0 1 '# tri00002 $end
$var wire 1 < wire0114[1] $end
$var wire 1 = wire0114[0] $end
$var wire 1 (# wire0115[1] $end
$var wire 1 )# wire0115[0] $end
$var reg 2 *# reg0064[1:0] $end
$upscope $end
$scope module scp0009 $end
$var parameter 40 +# parameter0005 $end
$var parameter 40 ,# parameter0006 $end
$var parameter 32 -# parameter0007 $end
$var parameter 64 .# parameter0004 $end
$var wire 1 /# wire0116 $end
$var wire 1 j! wire0117 $end
$var wire 1 Z! wire0118 $end
$var wire 1 % wire0119 $end
$var reg 1 0# reg0065 $end
$var reg 1 1# reg0066 $end
$var reg 1 2# reg0067 $end
$var reg 1 3# reg0068 $end
$var reg 1 4# reg0069 $end
$var reg 1 5# reg0070 $end
$var reg 2 6# reg0071[1:0] $end
$var wire 1 7# wire0120 $end
$var wire 1 8# wire0121 $end
$var tri 1 9# tri0001 $end
$upscope $end
$scope module scp0010 $end
$var parameter 40 :# parameter0005 $end
$var parameter 40 ;# parameter0006 $end
$var parameter 32 <# parameter0007 $end
$var parameter 64 =# parameter0004 $end
$var wire 1 1" wire0116 $end
$var wire 1 0" wire0117 $end
$var wire 1 [! wire0118 $end
$var wire 1 $ wire0119 $end
$var reg 1 ># reg0065 $end
$var reg 1 ?# reg0066 $end
$var reg 1 @# reg0067 $end
$var reg 1 A# reg0068 $end
$var reg 1 B# reg0069 $end
$var reg 1 C# reg0070 $end
$var reg 2 D# reg0071[1:0] $end
$var wire 1 E# wire0120 $end
$var wire 1 F# wire0121 $end
$var tri 1 G# tri0001 $end
$upscope $end
$scope module scp0011 $end
$var parameter 32 H# parameter0008 $end
$var parameter 32 I# parameter0009 $end
$var parameter 72 J# parameter0004 $end
$var parameter 512 K# parameter0010 $end
$var parameter 512 L# parameter0011 $end
$var parameter 512 M# parameter0012 $end
$var parameter 512 N# parameter0013 $end
$var parameter 512 O# parameter0014 $end
$var parameter 512 P# parameter0015 $end
$var parameter 512 Q# parameter0016 $end
$var parameter 512 R# parameter0017 $end
$var parameter 512 S# parameter0018 $end
$var parameter 512 T# parameter0019 $end
$var parameter 512 U# parameter0020 $end
$var parameter 512 V# parameter0021 $end
$var parameter 512 W# parameter0022 $end
$var parameter 512 X# parameter0023 $end
$var parameter 512 Y# parameter0024 $end
$var parameter 512 Z# parameter0025 $end
$var parameter 32 [# parameter0026 $end
$var parameter 32 \# parameter0027 $end
$var parameter 32 ]# parameter0028 $end
$var parameter 32 ^# parameter0029 $end
$var parameter 32 _# parameter0030 $end
$var parameter 32 `# parameter0031 $end
$var parameter 32 a# parameter0032 $end
$var parameter 32 b# parameter0033 $end
$var parameter 32 c# parameter0034 $end
$var tri0 1 F" tri00003 $end
$var tri0 1 C" tri00004 $end
$var wire 1 E" wire0122 $end
$var wire 1 :" clk0010 $end
$var wire 1 <" wire0123 $end
$var wire 1 ;" wire0124 $end
$var wire 1 ?" clk0011 $end
$var wire 1 B" wire0125 $end
$var tri0 1 @" tri00005 $end
$var tri0 1 d# tri00006 $end
$var wire 1 e# wire0126 $end
$var wire 1 f# wire0127 $end
$var tri0 1 g# tri00007 $end
$var wire 1 ]! wire0128 $end
$var wire 1 _! wire0129 $end
$var wire 1 ^! wire0130 $end
$var wire 1 h# wire0131 $end
$var wire 1 \! wire0132 $end
$var reg 4096 i# reg0072[4095:0] $end
$var reg 4096 j# reg0073[4095:0] $end
$var reg 16 k# reg0074[15:0] $end
$var reg 16 l# reg0075[15:0] $end
$var reg 9 m# reg0076[8:0] $end
$var reg 9 n# reg0077[8:0] $end
$var reg 16 o# reg0078[15:0] $end
$var reg 16 p# reg0079[15:0] $end
$var reg 16 q# reg0080[15:0] $end
$var reg 1 r# reg0081 $end
$var reg 1 s# reg0082 $end
$var reg 1 t# reg0083 $end
$var reg 1 u# rst0012 $end
$var reg 1 v# reg0084 $end
$var reg 1 w# reg0038 $end
$var wire 1 x# wire0133[8] $end
$var wire 1 y# wire0133[7] $end
$var wire 1 z# wire0133[6] $end
$var wire 1 {# wire0133[5] $end
$var wire 1 |# wire0133[4] $end
$var wire 1 }# wire0133[3] $end
$var wire 1 ~# wire0133[2] $end
$var wire 1 !$ wire0133[1] $end
$var wire 1 "$ wire0133[0] $end
$var wire 1 #$ wire0134[15] $end
$var wire 1 $$ wire0134[14] $end
$var wire 1 %$ wire0134[13] $end
$var wire 1 &$ wire0134[12] $end
$var wire 1 '$ wire0134[11] $end
$var wire 1 ($ wire0134[10] $end
$var wire 1 )$ wire0134[9] $end
$var wire 1 *$ wire0134[8] $end
$var wire 1 +$ wire0134[7] $end
$var wire 1 ,$ wire0134[6] $end
$var wire 1 -$ wire0134[5] $end
$var wire 1 .$ wire0134[4] $end
$var wire 1 /$ wire0134[3] $end
$var wire 1 0$ wire0134[2] $end
$var wire 1 1$ wire0134[1] $end
$var wire 1 2$ wire0134[0] $end
$var wire 1 3$ wire0135[15] $end
$var wire 1 4$ wire0135[14] $end
$var wire 1 5$ wire0135[13] $end
$var wire 1 6$ wire0135[12] $end
$var wire 1 7$ wire0135[11] $end
$var wire 1 8$ wire0135[10] $end
$var wire 1 9$ wire0135[9] $end
$var wire 1 :$ wire0135[8] $end
$var wire 1 ;$ wire0135[7] $end
$var wire 1 <$ wire0135[6] $end
$var wire 1 =$ wire0135[5] $end
$var wire 1 >$ wire0135[4] $end
$var wire 1 ?$ wire0135[3] $end
$var wire 1 @$ wire0135[2] $end
$var wire 1 A$ wire0135[1] $end
$var wire 1 B$ wire0135[0] $end
$var wire 1 C$ wire0136 $end
$var wire 1 D$ clk0012 $end
$var wire 1 E$ clk0013 $end
$var wire 1 F$ wire0137 $end
$var wire 1 G$ wire0138 $end
$var wire 1 H$ wire0139 $end
$var wire 1 I$ wire0140 $end
$var wire 1 J$ wire0141 $end
$var wire 1 K$ clk0014 $end
$var wire 1 L$ wire0142 $end
$var wire 1 M$ wire0143 $end
$var wire 1 N$ clk0015 $end
$var wire 1 O$ wire0144 $end
$var wire 1 P$ wire0145 $end
$var wire 1 Q$ wire0146 $end
$var integer 32 R$ integer0002 $end
$var integer 32 S$ integer0003 $end
$var integer 32 T$ integer0004 $end
$var integer 32 U$ integer0005 $end
$var integer 32 V$ integer0006 $end
$var integer 32 W$ integer0007 $end
$var integer 32 X$ integer0008 $end
$var integer 32 Y$ integer0009 $end
$upscope $end
$upscope $end
$upscope $end
$upscope $end
$enddefinitions $end
#0
$dumpvars
b011 I"
b1 J"
b01010101011000110101010101011001011101010111011 K"
b0011110101000001001100010001101100111101000011010011100100100001000101010010001100010111001101010001101 L"
b011 V"
b1 W"
b01010101011000110101010101011001011101010111011 X"
b0011110101000001001100010001101100111101000011010011100100100001000101010010001100010111001101010001101 Y"
b01 c"
b1 d"
b01010101011000110101010101011001011101010111011 e"
b0011110101000001001100010001101100111101000011010011100100100001000101010010001100010111001101010001101 f"
b011 n"
b1 o"
b01010101011000110101010101011001011101010111011 p"
b0011110101000001001100010001101100111101000011010011100100100001000101010010001100010111001101010001101 q"
b01 |"
b1 }"
b01010101011000110101010101011001011101010111011 ~"
b0011110101000001001100010001101100111101000011010011100100100001000101010010001100010111001101010001101 !#
b001110110010110100110111001011010001101 +#
b001100110011110100100111000110010011010 ,#
b0001011100011011000101010011010 -#
b001001010011110100001111001011010010110101000001001011010010000 .#
b001110110010110100110111001011010001101 :#
b001100110011110100100111000110010011010 ;#
b0001011100011011000101010011010 <#
b001001010011110100001111001011010010110101000001001011010010000 =#
b0110 H#
b0010001100100001001000110011010 I#
b00100101001111010000111100101101001011010100000100010101001100110010010 J#
b00000000000000000000000000000000000000000000000000000000000000000000000000000000000000000000000000000000000000000000000000000000000000000000000000000000000000000000000000000000000000000000000000000000000000000000000000000000000000000000000000000000000000000000000000000000000000000000000000000000000000000000000000000000000000000000000000000000000000000000000000000000000000000000000000000000000000000000000000000000000000000000000000000000000000000000000000000000000000000000000000000000000000000000000000000000 K#
b00000000000000000000000000000000000000000000000000000000000000000000000000000000000000000000000000000000000000000000000000000000000000000000000000000000000000000000000000000000000000000000000000000000000000000000000000000000000000000000000000000000000000000000000000000000000000000000000000000000000000000000000000000000000000000000000000000000000000000000000000000000000000000000000000000000000000000000000000000000000000000000000000000000000000000000000000000000000000000000000000000000000000000000000000000000 L#
b00000000000000000000000000000000000000000000000000000000000000000000000000000000000000000000000000000000000000000000000000000000000000000000000000000000000000000000000000000000000000000000000000000000000000000000000000000000000000000000000000000000000000000000000000000000000000000000000000000000000000000000000000000000000000000000000000000000000000000000000000000000000000000000000000000000000000000000000000000000000000000000000000000000000000000000000000000000000000000000000000000000000000000000000000000000 M#
b00000000000000000000000000000000000000000000000000000000000000000000000000000000000000000000000000000000000000000000000000000000000000000000000000000000000000000000000000000000000000000000000000000000000000000000000000000000000000000000000000000000000000000000000000000000000000000000000000000000000000000000000000000000000000000000000000000000000000000000000000000000000000000000000000000000000000000000000000000000000000000000000000000000000000000000000000000000000000000000000000000000000000000000000000000000 N#
b00000000000000000000000000000000000000000000000000000000000000000000000000000000000000000000000000000000000000000000000000000000000000000000000000000000000000000000000000000000000000000000000000000000000000000000000000000000000000000000000000000000000000000000000000000000000000000000000000000000000000000000000000000000000000000000000000000000000000000000000000000000000000000000000000000000000000000000000000000000000000000000000000000000000000000000000000000000000000000000000000000000000000000000000000000000 O#
b00000000000000000000000000000000000000000000000000000000000000000000000000000000000000000000000000000000000000000000000000000000000000000000000000000000000000000000000000000000000000000000000000000000000000000000000000000000000000000000000000000000000000000000000000000000000000000000000000000000000000000000000000000000000000000000000000000000000000000000000000000000000000000000000000000000000000000000000000000000000000000000000000000000000000000000000000000000000000000000000000000000000000000000000000000000 P#
b00000000000000000000000000000000000000000000000000000000000000000000000000000000000000000000000000000000000000000000000000000000000000000000000000000000000000000000000000000000000000000000000000000000000000000000000000000000000000000000000000000000000000000000000000000000000000000000000000000000000000000000000000000000000000000000000000000000000000000000000000000000000000000000000000000000000000000000000000000000000000000000000000000000000000000000000000000000000000000000000000000000000000000000000000000000 Q#
b00000000000000000000000000000000000000000000000000000000000000000000000000000000000000000000000000000000000000000000000000000000000000000000000000000000000000000000000000000000000000000000000000000000000000000000000000000000000000000000000000000000000000000000000000000000000000000000000000000000000000000000000000000000000000000000000000000000000000000000000000000000000000000000000000000000000000000000000000000000000000000000000000000000000000000000000000000000000000000000000000000000000000000000000000000000 R#
b00000000000000000000000000000000000000000000000000000000000000000000000000000000000000000000000000000000000000000000000000000000000000000000000000000000000000000000000000000000000000000000000000000000000000000000000000000000000000000000000000000000000000000000000000000000000000000000000000000000000000000000000000000000000000000000000000000000000000000000000000000000000000000000000000000000000000000000000000000000000000000000000000000000000000000000000000000000000000000000000000000000000000000000000000000000 S#
b00000000000000000000000000000000000000000000000000000000000000000000000000000000000000000000000000000000000000000000000000000000000000000000000000000000000000000000000000000000000000000000000000000000000000000000000000000000000000000000000000000000000000000000000000000000000000000000000000000000000000000000000000000000000000000000000000000000000000000000000000000000000000000000000000000000000000000000000000000000000000000000000000000000000000000000000000000000000000000000000000000000000000000000000000000000 T#
b00000000000000000000000000000000000000000000000000000000000000000000000000000000000000000000000000000000000000000000000000000000000000000000000000000000000000000000000000000000000000000000000000000000000000000000000000000000000000000000000000000000000000000000000000000000000000000000000000000000000000000000000000000000000000000000000000000000000000000000000000000000000000000000000000000000000000000000000000000000000000000000000000000000000000000000000000000000000000000000000000000000000000000000000000000000 U#
b00000000000000000000000000000000000000000000000000000000000000000000000000000000000000000000000000000000000000000000000000000000000000000000000000000000000000000000000000000000000000000000000000000000000000000000000000000000000000000000000000000000000000000000000000000000000000000000000000000000000000000000000000000000000000000000000000000000000000000000000000000000000000000000000000000000000000000000000000000000000000000000000000000000000000000000000000000000000000000000000000000000000000000000000000000000 V#
b00000000000000000000000000000000000000000000000000000000000000000000000000000000000000000000000000000000000000000000000000000000000000000000000000000000000000000000000000000000000000000000000000000000000000000000000000000000000000000000000000000000000000000000000000000000000000000000000000000000000000000000000000000000000000000000000000000000000000000000000000000000000000000000000000000000000000000000000000000000000000000000000000000000000000000000000000000000000000000000000000000000000000000000000000000000 W#
b00000000000000000000000000000000000000000000000000000000000000000000000000000000000000000000000000000000000000000000000000000000000000000000000000000000000000000000000000000000000000000000000000000000000000000000000000000000000000000000000000000000000000000000000000000000000000000000000000000000000000000000000000000000000000000000000000000000000000000000000000000000000000000000000000000000000000000000000000000000000000000000000000000000000000000000000000000000000000000000000000000000000000000000000000000000 X#
b00000000000000000000000000000000000000000000000000000000000000000000000000000000000000000000000000000000000000000000000000000000000000000000000000000000000000000000000000000000000000000000000000000000000000000000000000000000000000000000000000000000000000000000000000000000000000000000000000000000000000000000000000000000000000000000000000000000000000000000000000000000000000000000000000000000000000000000000000000000000000000000000000000000000000000000000000000000000000000000000000000000000000000000000000000000 Y#
b00000000000000000000000000000000000000000000000000000000000000000000000000000000000000000000000000000000000000000000000000000000000000000000000000000000000000000000000000000000000000000000000000000000000000000000000000000000000000000000000000000000000000000000000000000000000000000000000000000000000000000000000000000000000000000000000000000000000000000000000000000000000000000000000000000000000000000000000000000000000000000000000000000000000000000000000000000000000000000000000000000000000000000000000000000000 Z#
b010100000011011111 [#
b001111001010111111111 \#
b00010001100101001101011111111 ]#
b01111 ^#
b0110 _#
b011111111 `#
b01010000001101111 a#
b001111001010111111111 b#
b0000101111011011111 c#
0!
0"
bz #
bx &
b01001111 '
b01001110 (
b01010101 )
bx *
1+
1>
1?
1B
1D
1F
1H
1J
1L
1M
1O
1P
xQ
1R
b1 T
1U
1X
1Y
1Z
x[
0\
x]
1^
1_
x`
1b
1c
xd
1f
1g
1h
1i
1j
1k
xl
1n
1o
1p
xq
xs
1u
xx
1y
x|
1~
1!!
1"!
1#!
1$!
1&!
1'!
1(!
1)!
1+!
1-!
1.!
1/!
12!
14!
15!
16!
17!
19!
1:!
1;!
1<!
1J!
bx i#
bx j#
bx k#
bx l#
b1 m#
b1 n#
bx o#
bx p#
b0000000000000000 q#
xr#
1s#
1t#
0u#
xv#
xw#
b0111111111 R$
bx S$
bx T$
bx U$
b01111 V$
bx W$
bx X$
b0111111111 Y$
1>#
z?#
0@#
1A#
0B#
1C#
b00 D#
10#
z1#
02#
13#
04#
15#
b00 6#
b1 *#
b1 {"
b1 m"
b1 b"
b1 U"
0$
0%
11
10
1/
1.
15
14
13
12
17
16
1;
1:
19
18
1=
1<
0@
1A
0C
0E
0G
0I
1K
1N
1S
xV
1W
0a
0e
0m
0r
0t
0v
1w
0z
1{
0}
0%!
0*!
x,!
00!
11!
13!
08!
1=!
1C!
1B!
0A!
0@!
1?!
0>!
1I!
1H!
1G!
1F!
1E!
1D!
1K!
0R!
0Q!
0P!
0O!
0N!
1M!
0L!
1Y!
1X!
1W!
1V!
1U!
1T!
1S!
0Z!
0[!
1\!
1]!
x^!
x_!
1`!
1a!
1b!
1c!
1d!
1e!
1f!
1g!
1h!
1i!
1j!
1k!
1l!
1m!
1n!
1o!
xp!
1q!
1r!
1s!
1t!
1u!
1v!
1w!
1x!
1y!
1z!
1{!
1|!
1}!
1~!
1!"
1""
1#"
x$"
x%"
1&"
0'"
x("
1)"
x*"
1+"
1,"
0-"
1."
0/"
10"
01"
12"
13"
14"
15"
16"
17"
18"
19"
1:"
1;"
x<"
1="
1>"
1?"
1@"
xA"
0B"
1C"
xD"
0E"
1F"
1G"
1H"
1"$
1!$
1~#
1}#
1|#
1{#
1z#
1y#
1x#
02$
01$
00$
0/$
0.$
0-$
0,$
0+$
0*$
0)$
0($
0'$
0&$
0%$
0$$
0#$
xB$
xA$
x@$
x?$
x>$
x=$
x<$
x;$
x:$
x9$
x8$
x7$
x6$
x5$
x4$
x3$
1C$
1D$
1E$
xF$
xG$
1H$
1I$
0J$
1K$
xL$
1M$
1N$
0O$
1P$
1Q$
0E#
1F#
zG#
17#
18#
z9#
1-
1,
1/#
0%#
1'#
0##
1"#
1$#
1&#
0t"
1v"
0r"
1s"
1u"
0i"
1j"
0g"
1h"
0\"
1]"
0Z"
1["
0O"
1P"
0M"
1N"
1T"
1S"
1R"
1Q"
1a"
1`"
1_"
1^"
1l"
1k"
1z"
1y"
1x"
1w"
1)#
1(#
1h#
1g#
zf#
ze#
1d#
$end
#360000
1r#
1G$
1u#
1_!
1D"
#720000
0r#
0G$
0_!
0D"
1v#
1w#
xo
0&!
#1080000
1r#
1G$
1_!
1D"
#1440000
0r#
0G$
0_!
0D"
xn
0'!
0."
xm!
xu"
07!
#1800000
1r#
1G$
1_!
1D"
#2160000
0r#
0G$
0_!
0D"
xp
05!
#2520000
1r#
1G$
1_!
1D"
#2880000
0r#
0G$
0_!
0D"
06!
09"
0&#
0u"
1@
1C
1E
1G
1I
1V
1a
1e
1m
1r
1t
1v
1z
1}
1%!
1,!
10!
0|
1s
1q
1l
1d
1`
1$"
1%"
1p!
0*"
1<"
1L$
#3240000
1r#
1G$
1_!
1D"
#3600000
0r#
0G$
0_!
0D"
09!
08"
17!
#3960000
1r#
1G$
1_!
1D"
#4320000
0r#
0G$
0_!
0D"
15!
0:!
18"
#4680000
1r#
1G$
1_!
1D"
#5040000
0r#
0G$
0_!
0D"
16!
19"
1&#
xu"
0@
0C
0E
0G
0I
0V
0a
0e
0m
0r
0t
0v
0z
0}
0%!
0,!
00!
#5400000
1r#
1G$
1_!
1D"
#5760000
0r#
0G$
0_!
0D"
19!
#6120000
1r#
1G$
1_!
1D"
#6480000
0r#
0G$
0_!
0D"
1:!
#6840000
1r#
1G$
1_!
1D"
#7200000
0r#
0G$
0_!
0D"
#7560000
1r#
1G$
1_!
1D"
#7920000
0r#
0G$
0_!
0D"
#8280000
1r#
1G$
1_!
1D"
#8640000
0r#
0G$
0_!
0D"
#9000000
1r#
1G$
1_!
1D"
#9360000
0r#
0G$
0_!
0D"
#9720000
1r#
1G$
1_!
1D"
#10080000
0r#
0G$
0_!
0D"
#10440000
1r#
1G$
1_!
1D"
#10800000
0r#
0G$
0_!
0D"
#11160000
1r#
1G$
1_!
1D"
#11520000
0r#
0G$
0_!
0D"
#11880000
1r#
1G$
1_!
1D"
#12240000
0r#
0G$
0_!
0D"
#12600000
1r#
1G$
1_!
1D"
#12960000
0r#
0G$
0_!
0D"
#13320000
1r#
1G$
1_!
1D"
#13680000
0r#
0G$
0_!
0D"
#14040000
1r#
1G$
1_!
1D"
#14400000
0r#
0G$
0_!
0D"
