vcd/samples/t0004.vcd
$date
	Mon Jul 21 08:55:20 2025
$end

$version
	Test Converter
$end

$timescale
     1 ps
$end

$scope module scp0001 $end
$scope module scp0002 $end
$var wire 8 aaaaa wire0001[7:0] $end
$var wire 1 aaaab wire0002 $end
$var wire 8 aaaac wire0003[7:0] $end
$var wire 1 aaaad wire0004 $end
$var wire 1 aaaae wire0005 $end
$var wire 1 aaaaf wire0006 $end
$var wire 1 aaaag clk0001 $end
$upscope $end
$scope module scp0003 $end
$var wire 8 aaaah wire0001[7:0] $end
$var wire 1 aaaai wire0002 $end
$var wire 8 aaaaj wire0003[7:0] $end
$var wire 1 aaaak wire0004 $end
$var wire 1 aaaal wire0005 $end
$var wire 1 aaaam wire0006 $end
$var wire 1 aaaan clk0001 $end
$upscope $end
$upscope $end
$enddefinitions  $end


$dumpvars
b1 aaaaa
1aaaab
b1 aaaac
1aaaad
0aaaae
1aaaaf
0aaaag
b1 aaaah
1aaaai
b1 aaaaj
1aaaak
0aaaal
1aaaam
0aaaan
$end

#40000
1aaaag
1aaaan

#80000
0aaaag
0aaaan

#120000
1aaaag
1aaaan

#160000
0aaaag
0aaaan

#200000
1aaaag
1aaaan

#240000
0aaaag
0aaaan

#280000
1aaaag
1aaaan

#320000
0aaaad
0aaaag
0aaaak
0aaaan

#360000
1aaaae
1aaaag
1aaaal
1aaaan

#400000
1aaaad
0aaaag
1aaaak
0aaaan

#440000
1aaaag
1aaaan

#480000
0aaaae
0aaaag
0aaaal
0aaaan

#520000
1aaaag
1aaaan

#560000
0aaaag
0aaaan

#600000
1aaaag
1aaaan

#640000
0aaaag
0aaaan

#680000
1aaaag
1aaaan

#720000
0aaaag
0aaaan

#760000
1aaaag
1aaaan

#800000
0aaaag
0aaaan

#840000
1aaaag
1aaaan

#880000
0aaaag
0aaaan

#920000
1aaaag
1aaaan

#960000
0aaaag
0aaaan

#1000000
1aaaag
1aaaan

#1040000
0aaaab
0aaaag
0aaaai
0aaaan

#1080000
1aaaag
1aaaan

#1120000
1aaaab
0aaaad
0aaaag
1aaaai
0aaaak
0aaaan

#1160000
1aaaae
1aaaag
1aaaal
1aaaan

#1200000
1aaaad
0aaaag
1aaaak
0aaaan

#1240000
1aaaag
1aaaan

#1280000
b0 aaaac
0aaaae
0aaaag
b0 aaaaj
0aaaal
0aaaan

#1320000
1aaaag
1aaaan

#1360000
0aaaag
0aaaan

#1400000
1aaaag
1aaaan

#1440000
0aaaag
0aaaan

#1480000
1aaaag
1aaaan

#1520000
0aaaag
0aaaan

#1560000
1aaaag
1aaaan

#1600000
0aaaad
0aaaag
0aaaak
0aaaan

#1640000
1aaaae
1aaaag
1aaaal
1aaaan

#1680000
1aaaad
0aaaag
1aaaak
0aaaan

#1720000
1aaaag
1aaaan

#1760000
0aaaab
0aaaag
0aaaai
0aaaan

#1800000
1aaaag
1aaaan

#1840000
1aaaab
0aaaag
1aaaai
0aaaan

#1880000
1aaaag
1aaaan

#1920000
0aaaae
0aaaag
0aaaal
0aaaan

#1960000
1aaaag
1aaaan

#2000000
0aaaag
0aaaan

#2040000
1aaaag
1aaaan

#2080000
0aaaag
0aaaan

#2120000
1aaaag
1aaaan

#2160000
0aaaag
0aaaan

#2200000
1aaaag
1aaaan

#2240000
0aaaag
0aaaan

#2280000
1aaaag
1aaaan

#2320000
b0 aaaaa
0aaaab
0aaaag
b0 aaaah
0aaaai
0aaaan

#2360000
1aaaag
1aaaan

#2400000
1aaaab
0aaaag
1aaaai
0aaaan

#2440000
1aaaag
1aaaan

#2480000
0aaaad
0aaaag
0aaaak
0aaaan

#2520000
1aaaae
1aaaag
1aaaal
1aaaan

#2560000
1aaaad
0aaaag
1aaaak
0aaaan

#2600000
1aaaag
1aaaan

#2640000
b01 aaaac
0aaaae
0aaaag
b01 aaaaj
0aaaal
0aaaan

#2680000
1aaaag
1aaaan

#2720000
0aaaag
0aaaan

#2760000
1aaaag
1aaaan

#2800000
0aaaag
0aaaan

#2840000
1aaaag
1aaaan

#2880000
0aaaab
0aaaag
0aaaai
0aaaan

#2920000
1aaaag
1aaaan

#2960000
1aaaab
0aaaag
1aaaai
0aaaan

#3000000
1aaaag
1aaaan

#3040000
0aaaag
0aaaan

#3080000
1aaaag
1aaaan

#3120000
0aaaag
0aaaan

#3160000
1aaaag
1aaaan

#3200000
0aaaag
0aaaan

#3240000
1aaaag
1aaaan

#3280000
0aaaag
0aaaan

#3320000
1aaaag
1aaaan

#3360000
0aaaag
0aaaan

#3400000
1aaaag
1aaaan

#3440000
0aaaad
0aaaag
0aaaak
0aaaan

#3480000
1aaaae
1aaaag
1aaaal
1aaaan

#3520000
1aaaad
0aaaag
1aaaak
0aaaan

#3560000
1aaaag
1aaaan

#3600000
0aaaae
0aaaag
0aaaal
0aaaan

#3640000
1aaaag
1aaaan

#3680000
0aaaag
0aaaan

#3720000
1aaaag
1aaaan

#3760000
b01 aaaaa
0aaaab
0aaaag
b01 aaaah
0aaaai
0aaaan

#3800000
1aaaag
1aaaan

#3840000
1aaaab
0aaaad
0aaaag
1aaaai
0aaaak
0aaaan

#3880000
1aaaae
1aaaag
1aaaal
1aaaan

#3920000
1aaaad
0aaaag
1aaaak
0aaaan

#3960000
1aaaag
1aaaan

#4000000
b00111 aaaac
0aaaae
0aaaag
b00111 aaaaj
0aaaal
0aaaan

#4040000
1aaaag
1aaaan

#4080000
0aaaad
0aaaag
0aaaak
0aaaan

#4120000
1aaaae
1aaaag
1aaaal
1aaaan

#4160000
1aaaad
0aaaag
1aaaak
0aaaan

#4200000
1aaaag
1aaaan

#4240000
0aaaag
0aaaan

#4280000
1aaaag
1aaaan

#4320000
0aaaag
0aaaan

#4360000
1aaaag
1aaaan

#4400000
0aaaag
0aaaan

#4440000
1aaaag
1aaaan

#4480000
0aaaag
0aaaan

#4520000
1aaaag
1aaaan

#4560000
0aaaag
0aaaan

#4600000
1aaaag
1aaaan

#4640000
0aaaab
0aaaag
0aaaai
0aaaan

#4680000
1aaaag
1aaaan

#4720000
1aaaab
0aaaag
1aaaai
0aaaan

#4760000
1aaaag
1aaaan

#4800000
b0110000 aaaac
0aaaae
0aaaag
b0110000 aaaaj
0aaaal
0aaaan

#4840000
1aaaag
1aaaan

#4880000
0aaaag
0aaaan

#4920000
1aaaag
1aaaan

#4960000
0aaaag
0aaaan

#5000000
1aaaag
1aaaan

#5040000
0aaaag
0aaaan

#5080000
1aaaag
1aaaan

#5120000
0aaaad
0aaaag
0aaaak
0aaaan

#5160000
1aaaae
1aaaag
1aaaal
1aaaan

#5200000
1aaaad
0aaaag
1aaaak
0aaaan

#5240000
1aaaag
1aaaan

#5280000
0aaaag
0aaaan

#5320000
1aaaag
1aaaan

#5360000
0aaaag
0aaaan

#5400000
1aaaag
1aaaan

#5440000
0aaaag
0aaaan

#5480000
1aaaag
1aaaan

#5520000
b00111 aaaaa
0aaaab
0aaaag
b00111 aaaah
0aaaai
0aaaan

#5560000
1aaaag
1aaaan

#5600000
1aaaab
0aaaag
1aaaai
0aaaan

#5640000
1aaaag
1aaaan

#5680000
b00010111 aaaac
0aaaae
0aaaag
b00010111 aaaaj
0aaaal
0aaaan

#5720000
1aaaag
1aaaan

#5760000
0aaaad
0aaaag
0aaaak
0aaaan

#5800000
1aaaae
1aaaag
1aaaal
1aaaan

#5840000
1aaaad
0aaaag
1aaaak
0aaaan

#5880000
1aaaag
1aaaan

#5920000
0aaaag
0aaaan

#5960000
1aaaag
1aaaan

#6000000
0aaaag
0aaaan

#6040000
1aaaag
1aaaan

#6080000
0aaaag
0aaaan

#6120000
1aaaag
1aaaan

#6160000
b0110000 aaaaa
0aaaab
0aaaag
b0110000 aaaah
0aaaai
0aaaan

#6200000
1aaaag
1aaaan

#6240000
1aaaab
0aaaag
1aaaai
0aaaan

#6280000
1aaaag
1aaaan

#6320000
b01111111 aaaac
0aaaae
0aaaag
b01111111 aaaaj
0aaaal
0aaaan

#6360000
1aaaag
1aaaan

#6400000
0aaaag
0aaaan

#6440000
1aaaag
1aaaan

#6480000
0aaaag
0aaaan

#6520000
1aaaag
1aaaan

#6560000
0aaaad
0aaaag
0aaaak
0aaaan

#6600000
1aaaae
1aaaag
1aaaal
1aaaan

#6640000
1aaaad
0aaaag
1aaaak
0aaaan

#6680000
1aaaag
1aaaan

#6720000
0aaaag
0aaaan

#6760000
1aaaag
1aaaan

#6800000
b00010111 aaaaa
0aaaab
0aaaag
b00010111 aaaah
0aaaai
0aaaan

#6840000
1aaaag
1aaaan

#6880000
1aaaab
0aaaag
1aaaai
0aaaan

#6920000
1aaaag
1aaaan

#6960000
b0110111 aaaac
0aaaae
0aaaag
b0110111 aaaaj
0aaaal
0aaaan

#7000000
1aaaag
1aaaan

#7040000
0aaaag
0aaaan

#7080000
1aaaag
1aaaan

#7120000
0aaaad
0aaaag
0aaaak
0aaaan

#7160000
1aaaae
1aaaag
1aaaal
1aaaan

#7200000
1aaaad
0aaaag
1aaaak
0aaaan

#7240000
1aaaag
1aaaan

#7280000
0aaaag
0aaaan

#7320000
1aaaag
1aaaan

#7360000
0aaaag
0aaaan

#7400000
1aaaag
1aaaan

#7440000
b01111111 aaaaa
0aaaab
0aaaag
b01111111 aaaah
0aaaai
0aaaan

#7480000
1aaaag
1aaaan

#7520000
1aaaab
0aaaag
1aaaai
0aaaan

#7560000
1aaaag
1aaaan

#7600000
b01000110 aaaac
0aaaae
0aaaag
b01000110 aaaaj
0aaaal
0aaaan

#7640000
1aaaag
1aaaan

#7680000
0aaaag
0aaaan

#7720000
1aaaag
1aaaan

#7760000
0aaaag
0aaaan

#7800000
1aaaag
1aaaan

#7840000
0aaaag
0aaaan

#7880000
1aaaag
1aaaan

#7920000
0aaaag
0aaaan

#7960000
1aaaag
1aaaan

#8000000
0aaaag
0aaaan

#8040000
1aaaag
1aaaan

#8080000
0aaaag
0aaaan

#8120000
1aaaag
1aaaan

#8160000
0aaaag
0aaaan

#8200000
1aaaag
1aaaan

#8240000
b0110111 aaaaa
0aaaab
0aaaad
0aaaag
b0110111 aaaah
0aaaai
0aaaak
0aaaan

#8280000
1aaaae
1aaaag
1aaaal
1aaaan

#8320000
1aaaab
1aaaad
0aaaag
1aaaai
1aaaak
0aaaan

#8360000
1aaaag
1aaaan

#8400000
b01000000 aaaac
0aaaae
0aaaaf
0aaaag
b01000000 aaaaj
0aaaal
0aaaam
0aaaan

#8440000
1aaaag
1aaaan

#8480000
0aaaag
0aaaan

#8520000
1aaaag
1aaaan

#8560000
0aaaag
0aaaan

#8600000
1aaaag
1aaaan

#8640000
0aaaad
0aaaag
0aaaak
0aaaan

#8680000
1aaaae
1aaaag
1aaaal
1aaaan

#8720000
1aaaad
0aaaag
1aaaak
0aaaan

#8760000
1aaaag
1aaaan

#8800000
0aaaag
0aaaan

#8840000
1aaaag
1aaaan

#8880000
0aaaag
0aaaan

#8920000
1aaaag
1aaaan

#8960000
0aaaag
0aaaan

#9000000
1aaaag
1aaaan

#9040000
0aaaag
0aaaan

#9080000
1aaaag
1aaaan

#9120000
0aaaag
0aaaan

#9160000
1aaaag
1aaaan

#9200000
b01000110 aaaaa
0aaaab
0aaaag
b01000110 aaaah
0aaaai
0aaaan

#9240000
1aaaag
1aaaan

#9280000
b0 aaaaa
1aaaab
0aaaag
b0 aaaah
1aaaai
0aaaan

#9320000
1aaaag
1aaaan

#9360000
0aaaab
b0111 aaaac
0aaaae
0aaaag
0aaaai
b0111 aaaaj
0aaaal
0aaaan

#9400000
1aaaag
1aaaan

#9440000
1aaaab
0aaaag
1aaaai
0aaaan

#9480000
1aaaag
1aaaan

#9520000
0aaaag
0aaaan

#9560000
1aaaag
1aaaan

#9600000
0aaaad
0aaaag
0aaaak
0aaaan

#9640000
1aaaae
1aaaag
1aaaal
1aaaan

#9680000
b0111100 aaaaa
1aaaad
0aaaag
b0111100 aaaah
1aaaak
0aaaan

#9720000
1aaaag
1aaaan

#9760000
b001000 aaaac
0aaaae
0aaaag
b001000 aaaaj
0aaaal
0aaaan

#9800000
1aaaag
1aaaan

#9840000
0aaaag
0aaaan

#9880000
1aaaag
1aaaan

#9920000
0aaaag
0aaaan

#9960000
1aaaag
1aaaan

#10000000
0aaaag
0aaaan

#10040000
1aaaag
1aaaan

#10080000
0aaaab
0aaaag
0aaaai
0aaaan

#10120000
1aaaag
1aaaan

#10160000
1aaaab
0aaaag
1aaaai
0aaaan

#10200000
1aaaag
1aaaan

#10240000
0aaaag
0aaaan

#10280000
1aaaag
1aaaan

#10320000
0aaaag
0aaaan

#10360000
1aaaag
1aaaan

#10400000
0aaaad
0aaaag
0aaaak
0aaaan

#10440000
1aaaae
1aaaag
1aaaal
1aaaan

#10480000
b01011 aaaaa
1aaaad
0aaaag
b01011 aaaah
1aaaak
0aaaan

#10520000
1aaaag
1aaaan

#10560000
b000111 aaaac
0aaaae
0aaaag
b000111 aaaaj
0aaaal
0aaaan

#10600000
1aaaag
1aaaan

#10640000
0aaaag
0aaaan

#10680000
1aaaag
1aaaan

#10720000
0aaaag
0aaaan

#10760000
1aaaag
1aaaan

#10800000
0aaaag
0aaaan

#10840000
1aaaag
1aaaan

#10880000
0aaaag
0aaaan

#10920000
1aaaag
1aaaan

#10960000
0aaaag
0aaaan

#11000000
1aaaag
1aaaan

#11040000
0aaaab
0aaaag
0aaaai
0aaaan

#11080000
1aaaag
1aaaan

#11120000
1aaaab
0aaaag
1aaaai
0aaaan

#11160000
1aaaag
1aaaan

#11200000
0aaaag
0aaaan

#11240000
1aaaag
1aaaan

#11280000
0aaaag
0aaaan

#11320000
1aaaag
1aaaan

#11360000
0aaaad
0aaaag
0aaaak
0aaaan

#11400000
1aaaae
1aaaag
1aaaal
1aaaan

#11440000
b01001100 aaaaa
1aaaad
0aaaag
b01001100 aaaah
1aaaak
0aaaan

#11480000
1aaaag
1aaaan

#11520000
b00000101 aaaac
0aaaae
0aaaag
b00000101 aaaaj
0aaaal
0aaaan

#11560000
1aaaag
1aaaan

#11600000
0aaaag
0aaaan

#11640000
1aaaag
1aaaan

#11680000
0aaaag
0aaaan

#11720000
1aaaag
1aaaan

#11760000
0aaaab
0aaaad
0aaaag
0aaaai
0aaaak
0aaaan

#11800000
1aaaae
1aaaag
1aaaal
1aaaan

#11840000
b0110100 aaaaa
1aaaab
1aaaad
0aaaag
b0110100 aaaah
1aaaai
1aaaak
0aaaan

#11880000
1aaaag
1aaaan

#11920000
b0000110 aaaac
0aaaae
0aaaag
b0000110 aaaaj
0aaaal
0aaaan

#11960000
1aaaag
1aaaan

#12000000
0aaaag
0aaaan

#12040000
1aaaag
1aaaan

#12080000
0aaaag
0aaaan

#12120000
1aaaag
1aaaan

#12160000
0aaaag
0aaaan

#12200000
1aaaag
1aaaan

#12240000
0aaaag
0aaaan

#12280000
1aaaag
1aaaan

#12320000
0aaaag
0aaaan

#12360000
1aaaag
1aaaan

#12400000
0aaaag
0aaaan

#12440000
1aaaag
1aaaan

#12480000
0aaaag
0aaaan

#12520000
1aaaag
1aaaan

#12560000
0aaaag
0aaaan

#12600000
1aaaag
1aaaan

#12640000
0aaaab
0aaaag
0aaaai
0aaaan

#12680000
1aaaag
1aaaan

#12720000
1aaaab
0aaaad
0aaaag
1aaaai
0aaaak
0aaaan

#12760000
1aaaae
1aaaag
1aaaal
1aaaan

#12800000
b01010111 aaaaa
1aaaad
0aaaag
b01010111 aaaah
1aaaak
0aaaan

#12840000
1aaaag
1aaaan

#12880000
0aaaag
0aaaan

#12920000
1aaaag
1aaaan

#12960000
0aaaag
0aaaan

#13000000
1aaaag
1aaaan

#13040000
0aaaag
0aaaan

#13080000
1aaaag
1aaaan

#13120000
0aaaag
0aaaan

#13160000
1aaaag
1aaaan

#13200000
0aaaag
0aaaan

#13240000
1aaaag
1aaaan

#13280000
0aaaag
0aaaan

#13320000
1aaaag
1aaaan

#13360000
0aaaag
0aaaan

#13400000
1aaaag
1aaaan

#13440000
0aaaag
0aaaan

#13480000
1aaaag
1aaaan

#13520000
0aaaab
0aaaag
0aaaai
0aaaan

#13560000
1aaaag
1aaaan

#13600000
1aaaab
0aaaag
1aaaai
0aaaan

