vcd/samples/t0018.vcd
$date
	Mon Jul 21 08:55:20 2025
$end
$version
	Test Converter
$end
$timescale
	1ps
$end
$scope module scp0001 $end
$var wire 1 ! wire0001 $end
$var wire 1 " wire0002 $end
$var wire 1 # wire0003 $end
$var wire 1 $ wire0004 $end
$var reg 8 % reg0001[7:0] $end
$var reg 16 & reg0002[15:0] $end
$var reg 16 ' reg0003[15:0] $end
$var reg 16 ( reg0004[15:0] $end
$var reg 1 ) reg0005 $end
$var reg 1 * reg0006 $end
$upscope $end
$enddefinitions $end
#0
0!
0"
z#
x$
b1 %
b0 &
b1 '
b1 (
b1 )
b1 *
0!
0"
b1 %
b0 &
b1 '
b1 (
b1 )
b1 *
#40
1"
b1 &
#280
b0 )
1$
#320
1!
b0 &
b001101111100 (
#640
0!
b0011011111001 (
b01 &
#960
1!
b00110111110011 (
b00 &
#1280
0!
b001101111100111 (
b011 &
#1600
1!
b0011011111001111 (
b010 &
#1920
0!
b0 *
b0110111110011111 (
b001 &
0$
#2240
1!
b01111100111111 (
b000 &
#2560
0!
b1 *
b011111001111111 (
b0111 &
1$
#2880
1!
b0111110011111111 (
b0110 &
#3200
0!
b0 *
b00111111111 (
b0101 &
0$
#3520
1!
b1 *
b001111111111 (
b0100 &
1$
#3840
0!
b0011111111111 (
b0011 &
#4160
1!
b00111111111111 (
b0010 &
#4480
0!
b001111111111111 (
b0001 &
#4800
1!
b0011111111111111 (
b0000 &
#5120
0!
b0 *
b0111111111111111 (
b01111 &
0$
#5440
1!
bz %
b0 '
b1 (
b01110 &
#5720
1#
#5760
0!
b1 *
b01101 &
bz1 %
b01 '
1$
#6080
1!
bz11 %
b00 '
b01100 &
#6400
0!
b01011 &
bz111 %
b011 '
#6720
1!
bz1111 %
b010 '
b01010 &
#7040
0!
b01001 &
bz11111 %
b001 '
#7360
1!
bz111111 %
b000 '
b01000 &
#7680
0!
b00111 &
bz1111111 %
b0111 '
#8000
1!
b1 %
b0110 '
b00110 &
#8280
0"
#8320
0!
b00101 &
b0101 '
#8640
1!
b0100 '
b00100 &
#8920
1"
b1 &
b1 '
#8960
0!
b0 &
#9280
1!
b01 &
#9600
0!
b00 &
#9920
1!
b011 &
#10240
0!
b010 &
#10560
1!
b001 &
#10880
0!
b000 &
#11200
1!
b0111 &
