vcd/samples/t0012.vcd
$date
	Mon Jul 21 08:55:20 2025
$end
$version
	Test Converter
$end
$timescale
      1 ps
$end
$scope module scp0001 $end
$var real 1 ! real0001 $end
$upscope $end
$enddefinitions $end
 
#0
rinf !   
#4000000000000
r15.707963267948966 !
#8000000000000
r7.853981633974483 !
#12000000000000
r5.23598775598299 !
#16000000000000
r3.9269908169872414 !
#20000000000000
r3.141592653589793 !
#24000000000000
r2.6179938779914944 !
#28000000000000
r2.243994752564138 !
#32000000000000
r1.9634954084936207 !
#36000000000000
r1.7453292519943295 !
