vcd/samples/t0011.vcd
$date
	Mon Jul 21 08:55:20 2025
$end
$version
	Test Converter
$end
$timescale
  1 fs
$end
$var reg 1 ! clk0001 $end
$var reg 1 " rst0001 $end
$scope module scp0001 $end
$var reg 1 # clk0002 $end
$var reg 1 $ rst0002 $end
$var reg 16 % reg0001[15:0] $end
$var reg 16 & reg0002[15:0] $end
$var reg 16 ' reg0003[15:0] $end
$var reg 16 ( reg0004[15:0] $end
$var reg 16 ) reg0005[15:0] $end
$var reg 16 * reg0006[15:0] $end
$var reg 16 + reg0007[15:0] $end
$var reg 16 , reg0008[15:0] $end
$var reg 16 - reg0009[15:0] $end
$var reg 16 . reg0010[15:0] $end
$var reg 16 / reg0011[15:0] $end
$var reg 8 0 reg0012[7:0] $end
$var reg 8 1 reg0013[7:0] $end
$var reg 8 2 reg0014[7:0] $end
$var reg 8 3 reg0015[7:0] $end
$var reg 8 4 reg0016[7:0] $end
$var reg 8 5 reg0017[7:0] $end
$var reg 4 6 reg0018[3:0] $end
$var reg 4 7 reg0019[3:0] $end
$var reg 4 8 reg0020[3:0] $end
$var reg 1 9 reg0021 $end
$var reg 1 : reg0022 $end
$var reg 1 ; reg0023 $end
$var reg 1 < reg0024 $end
$var reg 1 = reg0025 $end
$var reg 1 > reg0026 $end
$var reg 1 ? reg0027 $end
$var reg 1 @ reg0028 $end
$var reg 1 A reg0029 $end
$var reg 1 B reg0030 $end
$var reg 1 C reg0031 $end
$scope module scp0002 $end
$var reg 16 D reg0032[15:0] $end
$var reg 4 E reg0033[3:0] $end
$var reg 1 F reg0034 $end
$var reg 1 G rst0003 $end
$var reg 16 H reg0035[15:0] $end
$var reg 1 I reg0031 $end
$var reg 8 J reg0036[7:0] $end
$var reg 8 K reg0037[7:0] $end
$var reg 8 L reg0038[7:0] $end
$upscope $end
$scope module scp0003 $end
$var reg 16 M reg0032[15:0] $end
$var reg 1 N clk0002 $end
$var reg 1 O reg0034 $end
$var reg 1 P rst0002 $end
$var reg 16 Q reg0035[15:0] $end
$upscope $end
$scope module scp0004 $end
$var reg 8 R reg0032[7:0] $end
$var reg 1 S rst0002 $end
$var reg 1 T reg0039 $end
$var reg 1 U reg0034 $end
$var reg 8 V reg0035[7:0] $end
$var reg 8 W reg0040[7:0] $end
$upscope $end
$scope module scp0005 $end
$var reg 1 X reg0034 $end
$var reg 1 Y reg0041 $end
$var reg 8 Z reg0042[7:0] $end
$var reg 16 [ reg0032[15:0] $end
$var reg 16 \ reg0035[15:0] $end
$upscope $end
$scope module scp0006 $end
$var reg 1 ] reg0034 $end
$var reg 1 ^ rst0002 $end
$var reg 1 _ reg0043 $end
$var reg 1 ` reg0041 $end
$var reg 8 a reg0042[7:0] $end
$var reg 16 b reg0032[15:0] $end
$var reg 16 c reg0035[15:0] $end
$var reg 4 d reg0044[3:0] $end
$var reg 4 e reg0045[3:0] $end
$var reg 8 f reg0046[7:0] $end
$upscope $end
$scope module scp0007 $end
$var reg 8 g reg0042[7:0] $end
$var reg 16 h reg0035[15:0] $end
$upscope $end
$scope module scp0008 $end
$var reg 1 i clk0002 $end
$var reg 1 j rst0002 $end
$var reg 8 k reg0047[7:0] $end
$var reg 16 l reg0048[15:0] $end
$var reg 16 m reg0049[15:0] $end
$var reg 1 n reg0050 $end
$var reg 1 o reg0051 $end
$var reg 1 p reg0052 $end
$var reg 1 q reg0053 $end
$var reg 1 r reg0054 $end
$var reg 1 s rst0004 $end
$var reg 1 t reg0055 $end
$var reg 1 u reg0056 $end
$var reg 1 v reg0057 $end
$var reg 1 w reg0058 $end
$var reg 1 x reg0024 $end
$var reg 1 y reg0031 $end
$var reg 4 z reg0059[3:0] $end
$var reg 4 { reg0060[3:0] $end
$var reg 4 | reg0061[3:0] $end
$var reg 8 } reg0042[7:0] $end
$var reg 16 !" reg0062[15:0] $end
$upscope $end
$scope module scp0009 $end
$var reg 8 "" reg0063[7:0] $end
$var reg 8 #" reg0064[7:0] $end
$var reg 4 $" reg0065[3:0] $end
$var reg 1 %" rst0003 $end
$var reg 8 &" reg0066[7:0] $end
$var reg 8 '" reg0067[7:0] $end
$var reg 8 (" reg0068[7:0] $end
$var reg 8 )" reg0069[7:0] $end
$var reg 8 *" reg0070[7:0] $end
$var reg 8 +" reg0062[7:0] $end
$upscope $end
$scope module scp0010 $end
$var reg 16 ," reg0071[15:0] $end
$var reg 16 -" reg0072[15:0] $end
$var reg 16 ." reg0073[15:0] $end
$var reg 16 /" reg0074[15:0] $end
$var reg 16 0" reg0075[15:0] $end
$var reg 16 1" reg0064[15:0] $end
$var reg 4 2" reg0065[3:0] $end
$var reg 1 3" rst0003 $end
$var reg 16 4" reg0076[15:0] $end
$var reg 16 5" reg0077[15:0] $end
$var reg 16 6" reg0066[15:0] $end
$var reg 16 7" reg0067[15:0] $end
$var reg 16 8" reg0068[15:0] $end
$var reg 16 9" reg0070[15:0] $end
$var reg 16 :" reg0062[15:0] $end
$upscope $end
$upscope $end
$enddefinitions $end
#0
1!
0"
1#
0$
b11111111UUUUUUUU %
bUUUUUUUUUUUUUUUU &
b1111111111111111 '
bUUUUUUUUUUUUUUUU (
bUUUUUUUUUUUUUUUU )
bUUUUUUUUUUUUUUUU *
bUUUUUUUUUUUUUUUU +
bUUUUUUUUUUUUUUUU ,
bUUUUUUUUUUUUUUUU -
bUUUUUUUUUUUUUUUU .
bUUUUUUUUUUUUUUUU /
bUUUUUUUU 0
bUUUUUUUU 1
bUUUUUUUU 2
bUUUUUUUU 3
bUUUUUUUU 4
bUUUUUUUU 5
bUUUU 6
bUUUU 7
bUUUU 8
U9
U:
U;
U<
U=
U>
U?
U@
UA
UB
1C
bUUUUUUUUUUUUUUUU D
bUUUU E
UF
UG
b11111111UUUUUUUU H
1I
bUUUUUUUU J
bUUUUUUUU K
bUUUUUUUU L
bUUUUUUUUUUUUUUUU M
1N
UO
0P
b1111111111111111 Q
bUUUUUUUU R
0S
UT
UU
bUUUUUUUU V
b11111111 W
UX
UY
bUUUUUUUU Z
bUUUUUUUUUUUUUUUU [
bUUUUUUUUUUUUUUUU \
U]
0^
U_
U`
bUUUUUUUU a
bUUUUUUUUUUUUUUUU b
bUUUUUUUUUUUUUUUU c
bUUUU d
bUUUU e
bUUUUUUUU f
bUUUUUUUU g
bUUUUUUUUUUUUUUUU h
1i
0j
bUUUUUUUU k
bUUUUUUUUUUUUUUUU l
bUUUUUUUUUUUUUUUU m
Un
Uo
Up
Uq
Ur
Us
Ut
Uu
Uv
Uw
Ux
1y
bUUUU z
bUUUU {
bUUUU |
bUUUUUUUU }
bUUUUUUUUUUUUUUUU !"
bUUUUUUUU ""
bUUUUUUUU #"
bUUUU $"
0%"
bUUUUUUUU &"
bUUUUUUUU '"
bUUUUUUUU ("
bUUUUUUUU )"
bUUUUUUUU *"
bUUUUUUUU +"
b11111111UUUUUUUU ,"
b1111111111111111 -"
bUUUUUUUUUUUUUUUU ."
bUUUUUUUUUUUUUUUU /"
bUUUUUUUUUUUUUUUU 0"
bUUUUUUUUUUUUUUUU 1"
bUUUU 2"
03"
bUUUUUUUUUUUUUUUU 4"
bUUUUUUUUUUUUUUUU 5"
bUUUUUUUUUUUUUUUU 6"
bUUUUUUUUUUUUUUUU 7"
bUUUUUUUUUUUUUUUU 8"
bUUUUUUUUUUUUUUUU 9"
bUUUUUUUUUUUUUUUU :"
#50000000
0!
0#
0N
0i
#100000000
1!
1"
1#
1$
b11111111 0
1N
1P
1S
b11111111 V
1^
1i
1j
b11111111 ""
1%"
13"
#150000000
0!
0#
0N
0i
#200000000
1!
1#
1N
1i
#250000000
0!
0#
b1010 8
0N
0i
b1010 {
b1010 $"
b11111111 +"
#300000000
1!
1#
1N
1i
#350000000
0!
0#
b1010111011111011 -
b11111111 4
b0101 8
0N
b11111111 g
b1010111011111011 h
0i
b0101 {
b0101 $"
b11111111 )"
b1010111011111011 0"
#400000000
1!
1#
1N
1i
#450000000
0!
0#
b0100 7
0N
0i
b0100 z
b0100 2"
b1010111011111011 :"
#500000000
1!
1#
1N
1i
#550000000
0!
0#
b1010111011111011 (
b1101 7
0;
b1010111011111011 M
0N
0O
0i
0v
b1101 z
b1101 2"
b1010111011111011 5"
#600000000
1!
1#
1N
1i
#650000000
0!
0#
b1010111011111011 '
b1010111011111011 /
b0011 7
1;
0<
0N
1O
b1010111011111011 Q
0U
b11111110 W
0i
b1010111011111011 l
1v
0x
b0011 z
b1010111011111011 -"
b0011 2"
b1010111011111011 9"
#700000000
1!
1#
1N
1i
#750000000
0!
0#
b11111110 0
1<
0N
1U
b11111110 V
0i
1x
b1010111011111011 !"
b11111110 ""
#800000000
1!
1#
1N
1i
#850000000
0!
0#
0N
0i
#900000000
1!
1#
1N
1i
#950000000
0!
0#
0N
0i
#1000000000
1!
1#
1N
1i
#1050000000
0!
0#
b11111011 5
b0010 8
0N
0i
b11111011 k
b0010 {
b11111011 #"
b0010 $"
b11111011 +"
#1100000000
1!
1#
1N
1i
#1150000000
0!
0#
b11111011 2
b0111 8
0@
0N
0Y
b11111011 Z
0i
0o
b0111 {
b0111 $"
b11111011 ("
#1200000000
1!
1#
1N
1i
#1250000000
0!
0#
b11111111UUUUUUUU *
0>
0N
0X
b11111111UUUUUUUU \
0i
0n
b11111111UUUUUUUU /"
#1300000000
1!
1#
1N
1i
#1350000000
0!
0#
b11111110 5
b0110 7
b0010 8
0N
0i
b11111110 k
b0110 z
b0010 {
b11111110 #"
b0010 $"
b11111110 +"
b0110 2"
b11111111UUUUUUUU :"
#1400000000
1!
1#
1N
1i
#1450000000
0!
0#
b11111111UUUUUUUU +
b11111110 3
b1001 7
b1001 8
1>
0N
1X
b11111110 a
b11111111UUUUUUUU b
b1110 d
b1111 e
0i
1n
b1001 z
b1001 {
b1001 $"
b11111110 '"
b1001 2"
b11111111UUUUUUUU 7"
#1500000000
1!
1#
1N
1i
#1550000000
0!
0#
0?
1A
0N
0]
1`
0i
0p
1r
#1600000000
1!
1#
1N
1i
#1650000000
0!
0#
1?
0N
1]
0i
1p
#1700000000
1!
1#
1N
1i
#1750000000
0!
0#
b1010 8
0N
0i
b1010 {
b1010 $"
#1800000000
1!
1#
1N
1i
#1850000000
0!
0#
b1010110111111101 -
b11111110 4
b0101 8
0N
b11111110 g
b1010110111111101 h
0i
b0101 {
b0101 $"
b11111110 )"
b1010110111111101 0"
#1900000000
1!
1#
1N
1i
#1950000000
0!
0#
b0100 7
0N
0i
b0100 z
b0100 2"
b1010110111111101 :"
#2000000000
1!
1#
1N
1i
#2050000000
0!
0#
b1010110111111101 (
b1101 7
0;
b1010110111111101 M
0N
0O
0i
0v
b1101 z
b1101 2"
b1010110111111101 5"
#2100000000
1!
1#
1N
1i
#2150000000
0!
0#
b1010110111111101 '
b1010110111111101 /
b0011 7
1;
0<
0N
1O
b1010110111111101 Q
0U
b11111101 W
0i
b1010110111111101 l
1v
0x
b0011 z
b1010110111111101 -"
b0011 2"
b1010110111111101 9"
#2200000000
1!
1#
1N
1i
#2250000000
0!
0#
b11111101 0
1<
0N
1U
b11111101 V
0i
1x
b1010110111111101 !"
b11111101 ""
#2300000000
1!
1#
1N
1i
#2350000000
0!
0#
0N
0i
#2400000000
1!
1#
1N
1i
#2450000000
0!
0#
0N
0i
#2500000000
1!
1#
1N
1i
#2550000000
0!
0#
b11111101 5
b0010 8
0N
0i
b11111101 k
b0010 {
b11111101 #"
b0010 $"
b11111101 +"
#2600000000
1!
1#
1N
1i
#2650000000
0!
0#
b11111101 2
b0111 8
0N
b11111101 Z
0i
b0111 {
b0111 $"
b11111101 ("
#2700000000
1!
1#
1N
1i
#2750000000
0!
0#
b1111111111111100 *
0>
0N
0X
b1111111111111100 \
0i
0n
b1111111111111100 /"
#2800000000
1!
1#
1N
1i
#2850000000
0!
0#
b0110 7
b0010 8
0N
0i
b0110 z
b0010 {
b0010 $"
b0110 2"
b1111111111111100 :"
#2900000000
1!
1#
1N
1i
#2950000000
0!
0#
b1111111111111100 +
b11111101 3
b1001 7
b1001 8
1>
0N
1X
b11111101 a
b1111111111111100 b
b1101 d
b11111100 f
0i
1n
b1001 z
b1001 {
b1001 $"
b11111101 '"
b1001 2"
b1111111111111100 7"
#3000000000
1!
1#
1N
1i
#3050000000
0!
0#
0?
0N
0]
0i
0p
#3100000000
1!
1#
1N
1i
#3150000000
0!
0#
1?
0N
1]
0i
1p
#3200000000
1!
1#
1N
1i
#3250000000
0!
0#
b1010 8
0N
0i
b1010 {
b1010 $"
#3300000000
1!
1#
1N
1i
#3350000000
0!
0#
b1110110011011110 -
b11111101 4
b0101 8
0N
b11111101 g
b1110110011011110 h
0i
b0101 {
b0101 $"
b11111101 )"
b1110110011011110 0"
#3400000000
1!
1#
1N
1i
#3450000000
0!
0#
b0100 7
0N
0i
b0100 z
b0100 2"
b1110110011011110 :"
#3500000000
1!
1#
1N
1i
#3550000000
0!
0#
b1110110011011110 (
b1101 7
0;
b1110110011011110 M
0N
0O
0i
0v
b1101 z
b1101 2"
b1110110011011110 5"
#3600000000
1!
1#
1N
1i
#3650000000
0!
0#
b1110110011011110 '
b1110110011011110 /
b0011 7
1;
0<
0N
1O
b1110110011011110 Q
0U
b11111100 W
0i
b1110110011011110 l
1v
0x
b0011 z
b1110110011011110 -"
b0011 2"
b1110110011011110 9"
#3700000000
1!
1#
1N
1i
#3750000000
0!
0#
b11111100 0
1<
0N
1U
b11111100 V
0i
1x
b1110110011011110 !"
b11111100 ""
#3800000000
1!
1#
1N
1i
#3850000000
0!
0#
0N
0i
#3900000000
1!
1#
1N
1i
#3950000000
0!
0#
0N
0i
#4000000000
1!
1#
1N
1i
#4050000000
0!
0#
b11011110 5
b0010 8
0N
0i
b11011110 k
b0010 {
b11011110 #"
b0010 $"
b11011110 +"
#4100000000
1!
1#
1N
1i
#4150000000
0!
0#
b11011110 3
b1001 8
0A
0B
0N
0_
0`
b11011110 a
b1110 d
b1101 e
0i
0q
0r
b1001 {
b1001 $"
b11011110 '"
#4200000000
1!
1#
1N
1i
#4250000000
0!
0#
b11111100UUUUUUUU ,
0?
0N
0]
b11111100UUUUUUUU c
0i
0p
b11111100UUUUUUUU ."
#4300000000
1!
1#
1N
1i
#4350000000
0!
0#
b1000 7
0N
0i
b1000 z
b1000 2"
b11111100UUUUUUUU :"
#4400000000
1!
1#
1N
1i
#4450000000
0!
0#
b11111100UUUUUUUU &
b1110 6
b1111 7
b11111100UUUUUUUU D
b1110 E
b11111100 L
0N
0i
b1111 z
b1110 |
b1111 2"
b11111100UUUUUUUU 4"
#4500000000
1!
1#
1N
1i
#4550000000
0!
0#
b11111111XXXXXXXX %
b11111100 5
b0010 8
09
1?
1B
0F
b11111111XXXXXXXX H
bXXXXXXXX J
0N
1]
1_
0i
b11111100 k
1p
1q
0t
b0010 {
b11111100 #"
b0010 $"
b11111100 +"
b11111111XXXXXXXX ,"
#4600000000
1!
1#
1N
1i
#4650000000
0!
0#
b1110 7
0N
0i
b1110 z
b1110 2"
b11111111XXXXXXXX :"
#4700000000
1!
1#
1N
1i
#4750000000
0!
0#
b11111111XXXXXXXX +
b11111100 3
b1001 7
b1001 8
19
1F
0N
b11111100 a
b11111111XXXXXXXX b
b1100 d
b1111 e
bXXXXXXXX f
0i
1t
b1001 z
b1001 {
b1001 $"
b11111100 '"
b1001 2"
b11111111XXXXXXXX 7"
#4800000000
1!
1#
1N
1i
#4850000000
0!
0#
0?
1A
0N
0]
1`
0i
0p
1r
#4900000000
1!
1#
1N
1i
#4950000000
0!
0#
1:
1?
1G
0N
1]
0i
1p
1u
#5000000000
1!
1#
1N
1i
#5050000000
0!
0#
b1010 8
0N
0i
b1010 {
b1010 $"
#5100000000
1!
1#
1N
1i
#5150000000
0!
0#
b1001101111001111 -
b11111100 4
b0101 8
0N
b11111100 g
b1001101111001111 h
0i
b0101 {
b0101 $"
b11111100 )"
b1001101111001111 0"
#5200000000
1!
1#
1N
1i
#5250000000
0!
0#
b0100 7
0N
0i
b0100 z
b0100 2"
b1001101111001111 :"
#5300000000
1!
1#
1N
1i
#5350000000
0!
0#
b1001101111001111 (
b1101 7
0;
b1001101111001111 M
0N
0O
0i
0v
b1101 z
b1101 2"
b1001101111001111 5"
#5400000000
1!
1#
1N
1i
#5450000000
0!
0#
b1001101111001111 '
b1001101111001111 /
b0011 7
1;
0<
0N
1O
b1001101111001111 Q
0U
b11111011 W
0i
b1001101111001111 l
1v
0x
b0011 z
b1001101111001111 -"
b0011 2"
b1001101111001111 9"
#5500000000
1!
1#
1N
1i
#5550000000
0!
0#
b11111011 0
1<
0N
1U
b11111011 V
0i
1x
b1001101111001111 !"
b11111011 ""
#5600000000
1!
1#
1N
1i
#5650000000
0!
0#
0N
0i
#5700000000
1!
1#
1N
1i
#5750000000
0!
0#
0N
0i
#5800000000
1!
1#
1N
1i
#5850000000
0!
0#
b11111011 5
b0010 8
0A
0N
0`
0i
b11111011 k
0r
b0010 {
b11111011 #"
b0010 $"
b11111011 +"
#5900000000
1!
1#
1N
1i
#5950000000
0!
0#
b11111011 3
b1001 8
0N
b11111011 a
b1011 d
0i
b1001 {
b1001 $"
b11111011 '"
#6000000000
1!
1#
1N
1i
#6050000000
0!
0#
b1111111111111111 ,
0?
0N
0]
b1111111111111111 c
0i
0p
b1111111111111111 ."
#6100000000
1!
1#
1N
1i
#6150000000
0!
0#
b11001111 5
b1000 7
b0010 8
1?
0N
1]
0i
b11001111 k
1p
b1000 z
b0010 {
b11001111 #"
b0010 $"
b11001111 +"
b1000 2"
b1111111111111111 :"
#6200000000
1!
1#
1N
1i
#6250000000
0!
0#
b1111111111111111 )
b11001111 2
b0111 7
b0111 8
0N
b11001111 Z
b1111111111111111 [
0i
b0111 z
b0111 {
b0111 $"
b11001111 ("
b0111 2"
b1111111111111111 8"
#6300000000
1!
1#
1N
1i
#6350000000
0!
0#
0>
1@
0N
0X
1Y
0i
0n
1o
#6400000000
1!
1#
1N
1i
#6450000000
0!
0#
1>
0N
1X
0i
1n
#6500000000
1!
1#
1N
1i
#6550000000
0!
0#
b1010 8
0N
0i
b1010 {
b1010 $"
b11111011 +"
#6600000000
1!
1#
1N
1i
#6650000000
0!
0#
b1101101011011110 -
b11111011 4
b0101 8
0N
b11111011 g
b1101101011011110 h
0i
b0101 {
b0101 $"
b11111011 )"
b1101101011011110 0"
#6700000000
1!
1#
1N
1i
#6750000000
0!
0#
b0100 7
0N
0i
b0100 z
b0100 2"
b1101101011011110 :"
#6800000000
1!
1#
1N
1i
#6850000000
0!
0#
b1101101011011110 (
b1101 7
0;
b1101101011011110 M
0N
0O
0i
0v
b1101 z
b1101 2"
b1101101011011110 5"
#6900000000
1!
1#
1N
1i
#6950000000
0!
0#
b1101101011011110 '
b1101101011011110 /
b0011 7
1;
0<
0N
1O
b1101101011011110 Q
0U
b11111010 W
0i
b1101101011011110 l
1v
0x
b0011 z
b1101101011011110 -"
b0011 2"
b1101101011011110 9"
#7000000000
1!
1#
1N
1i
#7050000000
0!
0#
b11111010 0
1<
0N
1U
b11111010 V
0i
1x
b1101101011011110 !"
b11111010 ""
#7100000000
1!
1#
1N
1i
#7150000000
0!
0#
0N
0i
#7200000000
1!
1#
1N
1i
#7250000000
0!
0#
0N
0i
#7300000000
1!
1#
1N
1i
#7350000000
0!
0#
b11011110 5
b0010 8
0N
0i
b11011110 k
b0010 {
b11011110 #"
b0010 $"
b11011110 +"
#7400000000
1!
1#
1N
1i
#7450000000
0!
0#
b11011110 3
b1001 8
0B
0N
0_
b11011110 a
b1110 d
b1101 e
0i
0q
b1001 {
b1001 $"
b11011110 '"
#7500000000
1!
1#
1N
1i
#7550000000
0!
0#
b11111100UUUUUUUU ,
0?
0N
0]
b11111100UUUUUUUU c
0i
0p
b11111100UUUUUUUU ."
#7600000000
1!
1#
1N
1i
#7650000000
0!
0#
b1000 7
0N
0i
b1000 z
b1000 2"
b11111100UUUUUUUU :"
#7700000000
1!
1#
1N
1i
#7750000000
0!
0#
b1101 6
b1111 7
b1101 E
0N
0i
b1111 z
b1101 |
b1111 2"
#7800000000
1!
1#
1N
1i
#7850000000
0!
0#
b11111111111111UU %
b11111010 5
b0010 8
09
1?
1B
0F
b11111111111111UU H
b111111UU J
0N
1]
1_
0i
b11111010 k
1p
1q
0t
b0010 {
b11111010 #"
b0010 $"
b11111010 +"
b11111111111111UU ,"
#7900000000
1!
1#
1N
1i
#7950000000
0!
0#
b1110 7
0N
0i
b1110 z
b1110 2"
b11111111111111UU :"
#8000000000
1!
1#
1N
1i
#8050000000
0!
0#
b11111111111111UU +
b11111010 3
b1001 7
b1001 8
19
1F
0N
b11111010 a
b11111111111111UU b
b1010 d
b1111 e
b111111UU f
0i
1t
b1001 z
b1001 {
b1001 $"
b11111010 '"
b1001 2"
b11111111111111UU 7"
#8100000000
1!
1#
1N
1i
#8150000000
0!
0#
0?
1A
0N
0]
1`
0i
0p
1r
#8200000000
1!
1#
1N
1i
#8250000000
0!
0#
1?
0N
1]
0i
1p
#8300000000
1!
1#
1N
1i
#8350000000
0!
0#
b1010 8
0N
0i
b1010 {
b1010 $"
#8400000000
1!
1#
1N
1i
#8450000000
0!
0#
b1011100110111010 -
b11111010 4
b0101 8
0N
b11111010 g
b1011100110111010 h
0i
b0101 {
b0101 $"
b11111010 )"
b1011100110111010 0"
#8500000000
1!
1#
1N
1i
#8550000000
0!
0#
b0100 7
0N
0i
b0100 z
b0100 2"
b1011100110111010 :"
#8600000000
1!
1#
1N
1i
#8650000000
0!
0#
b1011100110111010 (
b1101 7
0;
b1011100110111010 M
0N
0O
0i
0v
b1101 z
b1101 2"
b1011100110111010 5"
#8700000000
1!
1#
1N
1i
#8750000000
0!
0#
b1011100110111010 '
b1011100110111010 /
b0011 7
1;
0<
0N
1O
b1011100110111010 Q
0U
b11111001 W
0i
b1011100110111010 l
1v
0x
b0011 z
b1011100110111010 -"
b0011 2"
b1011100110111010 9"
#8800000000
1!
1#
1N
1i
#8850000000
0!
0#
b11111001 0
1<
0N
1U
b11111001 V
0i
1x
b1011100110111010 !"
b11111001 ""
#8900000000
1!
1#
1N
1i
#8950000000
0!
0#
0N
0i
#9000000000
1!
1#
1N
1i
#9050000000
0!
0#
0N
0i
#9100000000
1!
1#
1N
1i
#9150000000
0!
0#
b10111010 5
b0010 8
0N
0i
b10111010 k
b0010 {
b10111010 #"
b0010 $"
b10111010 +"
#9200000000
1!
1#
1N
1i
#9250000000
0!
0#
b10111010 3
b1001 8
0A
0B
0N
0_
0`
b10111010 a
b1011 e
0i
0q
0r
b1001 {
b1001 $"
b10111010 '"
#9300000000
1!
1#
1N
1i
#9350000000
0!
0#
b11111111111111UU ,
0?
0N
0]
b11111111111111UU c
0i
0p
b11111111111111UU ."
#9400000000
1!
1#
1N
1i
#9450000000
0!
0#
b1000 7
0N
0i
b1000 z
b1000 2"
b11111111111111UU :"
#9500000000
1!
1#
1N
1i
#9550000000
0!
0#
b11111111111111UU &
b1011 6
b1111 7
b11111111111111UU D
b1011 E
b111111UU K
b11111111 L
0N
0i
b1111 z
b1011 |
b1111 2"
b11111111111111UU 4"
#9600000000
1!
1#
1N
1i
#9650000000
0!
0#
b1111111111111111 %
b11111001 5
b0010 8
09
1?
1B
0C
0F
b1111111111111111 H
0I
b11111111 J
0N
1]
1_
0i
b11111001 k
1p
1q
0t
0y
b0010 {
b11111001 #"
b0010 $"
b11111001 +"
b1111111111111111 ,"
#9700000000
1!
1#
1N
1i
#9750000000
0!
0#
b1110 7
0N
0i
b1110 z
b1110 2"
b1111111111111111 :"
#9800000000
1!
1#
1N
1i
#9850000000
0!
0#
b1111111111111111 +
b11111001 3
b1001 7
b1001 8
19
1F
0N
b11111001 a
b1111111111111111 b
b1001 d
b1111 e
b11111111 f
0i
1t
b1001 z
b1001 {
b1001 $"
b11111001 '"
b1001 2"
b1111111111111111 7"
#9900000000
1!
1#
1N
1i
#9950000000
0!
0#
0?
1A
0N
0]
1`
0i
0p
1r
#10000000000
1!
1#
1N
1i
#10050000000
0!
0#
1?
0N
1]
0i
1p
#10100000000
1!
1#
1N
1i
#10150000000
0!
0#
b1010 8
0N
0i
b1010 {
b1010 $"
#10200000000
1!
1#
1N
1i
#10250000000
0!
0#
b0111111011111001 -
b11111001 4
b0101 8
0N
b11111001 g
b0111111011111001 h
0i
b0101 {
b0101 $"
b11111001 )"
b0111111011111001 0"
#10300000000
1!
1#
1N
1i
#10350000000
0!
0#
b0100 7
0N
0i
b0100 z
b0100 2"
b0111111011111001 :"
#10400000000
1!
1#
1N
1i
#10450000000
0!
0#
b0111111011111001 (
b1101 7
0;
b0111111011111001 M
0N
0O
0i
0v
b1101 z
b1101 2"
b0111111011111001 5"
#10500000000
1!
1#
1N
1i
#10550000000
0!
0#
b0111111011111001 '
b0111111011111001 /
b0011 7
1;
0<
0N
1O
b0111111011111001 Q
0U
b11111000 W
0i
b0111111011111001 l
1v
0x
b0011 z
b0111111011111001 -"
b0011 2"
b0111111011111001 9"
#10600000000
1!
1#
1N
1i
#10650000000
0!
0#
b11111000 0
1<
0N
1U
b11111000 V
0i
1x
b0111111011111001 !"
b11111000 ""
#10700000000
1!
1#
1N
1i
#10750000000
0!
0#
0N
0i
#10800000000
1!
1#
1N
1i
#10850000000
0!
0#
0N
0i
#10900000000
1!
1#
1N
1i
#10950000000
0!
0#
b11111110 5
b0010 8
0N
0i
b11111110 k
b0010 {
b11111110 #"
b0010 $"
b11111110 +"
#11000000000
1!
1#
1N
1i
#11050000000
0!
0#
b11111110 3
b1001 8
0N
b11111110 a
b1110 d
0i
b1001 {
b1001 $"
b11111110 '"
#11100000000
1!
1#
1N
1i
#11150000000
0!
0#
b11111111UUUUUUUU ,
0?
0A
0N
0]
0`
b11111111UUUUUUUU c
0i
0p
0r
b11111111UUUUUUUU ."
#11200000000
1!
1#
1N
1i
#11250000000
0!
0#
b1000 7
0N
0i
b1000 z
b1000 2"
b11111111UUUUUUUU :"
#11300000000
1!
1#
1N
1i
#11350000000
0!
0#
b11111111UUUUUUUU &
b11111001 5
b1000 6
b1111 7
b0010 8
09
1?
b11111111UUUUUUUU D
b1000 E
0F
bUUUUUUUU K
0N
1]
0i
b11111001 k
1p
0t
b1111 z
b0010 {
b1000 |
b11111001 #"
b0010 $"
b11111001 +"
b1111 2"
b11111111UUUUUUUU 4"
#11400000000
1!
1#
1N
1i
#11450000000
0!
0#
0N
0i
#11500000000
1!
1#
1N
1i
#11550000000
0!
0#
0N
0i
#11600000000
1!
1#
1N
1i
#11650000000
0!
0#
19
1=
1F
0N
1T
0i
1t
1w
#11700000000
1!
1#
1N
1i
#11750000000
0!
0#
b1010 8
0N
0i
b1010 {
b1010 $"
b11111000 +"
#11800000000
1!
1#
1N
1i
#11850000000
0!
0#
b0110110011111111 -
b11111000 4
b0101 8
0N
b11111000 g
b0110110011111111 h
0i
b0101 {
b0101 $"
b11111000 )"
b0110110011111111 0"
#11900000000
1!
1#
1N
1i
#11950000000
0!
0#
b0100 7
0N
0i
b0100 z
b0100 2"
b0110110011111111 :"
#12000000000
1!
1#
1N
1i
#12050000000
0!
0#
b0110110011111111 (
b1101 7
0;
b0110110011111111 M
0N
0O
0i
0v
b1101 z
b1101 2"
b0110110011111111 5"
#12100000000
1!
1#
1N
1i
#12150000000
0!
0#
b0110110011111111 '
b0110110011111111 /
b0011 7
1;
0<
0N
1O
b0110110011111111 Q
0U
b11110111 W
0i
b0110110011111111 l
1v
0x
b0011 z
b0110110011111111 -"
b0011 2"
b0110110011111111 9"
#12200000000
1!
1#
1N
1i
#12250000000
0!
0#
b11110111 0
1<
0N
1U
b11110111 V
0i
1x
b0110110011111111 !"
b11110111 ""
#12300000000
1!
1#
1N
1i
#12350000000
0!
0#
0N
0i
#12400000000
1!
1#
1N
1i
#12450000000
0!
0#
0N
0i
#12500000000
1!
1#
1N
1i
#12550000000
0!
0#
b11111111 5
b0010 8
0N
0i
b11111111 k
b0010 {
b11111111 #"
b0010 $"
b11111111 +"
#12600000000
1!
1#
1N
1i
#12650000000
0!
0#
b11111111 1
b1011 8
0N
b11111111 R
0i
b1011 {
b1011 $"
b11111111 &"
#12700000000
1!
1#
1N
1i
#12750000000
0!
0#
0<
0=
0N
0T
0U
b11111111 W
0i
0w
0x
#12800000000
1!
1#
1N
1i
#12850000000
0!
0#
b11111111 0
1<
1=
0N
1T
1U
b11111111 V
0i
1w
1x
b11111111 ""
#12900000000
1!
1#
1N
1i
#12950000000
0!
0#
b1010 8
0N
0i
b1010 {
b1010 $"
#13000000000
1!
1#
1N
1i
#13050000000
0!
0#
b1010111011111011 -
b11111111 4
b0101 8
0N
b11111111 g
b1010111011111011 h
0i
b0101 {
b0101 $"
b11111111 )"
b1010111011111011 0"
#13100000000
1!
1#
1N
1i
#13150000000
0!
0#
b0100 7
0N
0i
b0100 z
b0100 2"
b1010111011111011 :"
#13200000000
1!
1#
1N
1i
#13250000000
0!
0#
b1010111011111011 (
b1101 7
0;
b1010111011111011 M
0N
0O
0i
0v
b1101 z
b1101 2"
b1010111011111011 5"
#13300000000
1!
1#
1N
1i
#13350000000
0!
0#
b1010111011111011 '
b1010111011111011 /
b0011 7
1;
0<
0N
1O
b1010111011111011 Q
0U
b11111110 W
0i
b1010111011111011 l
1v
0x
b0011 z
b1010111011111011 -"
b0011 2"
b1010111011111011 9"
#13400000000
1!
1#
1N
1i
#13450000000
0!
0#
b11111110 0
1<
0N
1U
b11111110 V
0i
1x
b1010111011111011 !"
b11111110 ""
#13500000000
1!
1#
1N
1i
#13550000000
0!
0#
0N
0i
#13600000000
1!
1#
1N
1i
#13650000000
0!
0#
0N
0i
#13700000000
1!
1#
1N
1i
