vcd/samples/t0027.vcd
$date
	Mon Jul 21 08:55:25 2025
$end
$version
	Test Converter
$end
$timescale
    1ns
$end

$scope module scp0001 $end
$var reg 1 ! rst0001 $end
$var reg 1 " clk0001 $end
$var reg 1 # reg0001 $end
$var reg 1 $ reg0002 $end
$var reg 1 % reg0003 $end
$var reg 1 & reg0004 $end
$var reg 32 ' reg0005 $end
$var reg 32 ( reg0006 $end
$scope module scp0002 $end
$var reg 1 ! rst0001 $end
$var reg 32 ) reg0007 $end
$var reg 32 * reg0008 $end
$var reg 1 " clk0002 $end
$var reg 1 # reg0001 $end
$var reg 1 $ reg0002 $end
$var reg 1 % reg0003 $end
$var reg 32 + reg0009 $end
$var string 1 , string0001 $end
$var reg 1 & reg0004 $end
$var reg 32 - reg0010 $end
$var reg 32 ' reg0005 $end
$var reg 32 . reg0011 $end
$var reg 32 / reg0012 $end
$var reg 32 ( reg0006 $end
$var reg 32 0 reg0013 $end
$upscope $end
$upscope $end

$enddefinitions $end
$dumpvars
1!
1"
1#
1$
1%
1&
b11111111111111111111111111111111 '
b11111111111111111111111111111111 (
b11111111111111111111111111111111 )
b11111111111111111111111111111111 *
b11111111111111111111111111111111 +
sidle ,
b11111111111111111111111111111111 -
b11111111111111111111111111111111 .
b11111111111111111111111111111111 /
b11111111111111111111111111111111 0
$end
0&
b11101111111111111111111111111111 .
b11101111111111111111111111111111 -
b11101111111111111111111111111111 0
b11101111111111111111111111111111 +
0%
#40
0"
#80
1"
1%
#120
0"
#160
1"
b11111111011111111111111111111111 (
0#
#200
0"
sstep1 ,
b11111111011111111111111111111111 )
1&
b11111111111111111111111111111111 +
#240
1"
1#
#280
0"
sstep2 ,
b11101111111111111111111111111111 /
b11101111111111111111111111111111 *
b11101111111111111111111111111111 '
#320
1"
#360
0"
sstep3 ,
#400
1"
0%
#440
0"
sstep4 ,
b11111111111111111111111111111111 *
#480
1"
#520
0"
sdone ,
b11111111111111111111111111111111 /
b11111111111111111111111111111111 '
0$
0&
#560
1"
#600
0"
sidle ,
1$
#640
1"
b11111111111111111111111111111111 (
0#
1%
#680
0"
sstep1 ,
b11111111111111111111111111111111 )
1&
b11101111111111111111111111111111 +
#720
1"
0%
1#
#760
0"
sstep2 ,
b11101111111111111111111111111111 /
b11101111111111111111111111111111 *
b11101111111111111111111111111111 '
#800
1"
#840
0"
sstep3 ,
#880
1"
1%
#920
0"
sstep4 ,
#960
1"
#1000
0"
sdone ,
0$
#1040
1"
0%
0&
#1080
0"
sidle ,
1$
#1120
1"
b11111111111110111111111111111111 (
0#
1%
#1160
0"
sstep1 ,
b11111111111110111111111111111111 )
1&
b11111010000111010010101001110010 +
#1200
1"
1#
#1240
0"
sstep2 ,
#1280
1"
0%
#1320
0"
sstep3 ,
#1360
1"
1%
#1400
0"
sstep4 ,
b11111010000111010010101001110010 *
#1440
1"
0%
#1480
0"
sdone ,
b11111010000111010010101001110010 /
b11111010000111010010101001110010 '
0$
0&
#1520
1"
1%
1&
#1560
0"
#1600
1"
0%
0&
#1640
0"
sidle ,
1$
#1680
1"
b11111111111101111111111111111111 (
0#
#1720
0"
sstep1 ,
b11111111111101111111111111111111 )
1&
b11111101110101011010101010101011 +
#1760
1"
1%
1#
#1800
0"
sstep2 ,
b11101111111111111111111111111111 /
b11101111111111111111111111111111 *
b11101111111111111111111111111111 '
#1840
1"
#1880
0"
sstep3 ,
#1920
1"
0%
#1960
0"
sstep4 ,
b11111101110101011010101010101011 *
#2000
1"
1%
#2040
0"
sdone ,
b11111101110101011010101010101011 /
b11111101110101011010101010101011 '
0$
#2080
1"
0%
0&
#2120
0"
sidle ,
1$
#2160
1"
b11111111111010111111111111111111 (
0#
#2200
0"
sstep1 ,
b11111111111010111111111111111111 )
1&
b11111111111001000110011011000000 +
#2240
1"
1%
1#
#2280
0"
sstep2 ,
b11101111111111111111111111111111 /
b11101111111111111111111111111111 *
b11101111111111111111111111111111 '
#2320
1"
#2360
0"
sstep3 ,
#2400
1"
0%
#2440
0"
sstep4 ,
b11111111111001000110011011000000 *
#2480
1"
#2520
0"
sdone ,
b11111111111001000110011011000000 /
b11111111111001000110011011000000 '
0$
0&
#2560
1"
#2600
0"
sidle ,
1$
#2640
1"
b11111111101110111111111111111111 (
0#
#2680
0"
sstep1 ,
b11111111101110111111111111111111 )
1&
b11111111111111111111111111110100 +
#2720
1"
1%
1#
#2760
0"
sstep2 ,
b11101111111111111111111111111111 /
b11101111111111111111111111111111 *
b11101111111111111111111111111111 '
#2800
1"
0%
#2840
0"
sstep3 ,
#2880
1"
#2920
0"
sstep4 ,
b11111111111111111111111111110100 *
#2960
1"
1%
#3000
0"
sdone ,
b11111111111111111111111111110100 /
b11111111111111111111111111110100 '
0$
#3040
1"
0%
0&
#3080
0"
sidle ,
1$
#3120
1"
b11111111111111011111111111111111 (
0#
#3160
0"
sstep1 ,
b11111111111111011111111111111111 )
1&
b11110110010010111010011010000001 0
b11101111111111111111111111111111 +
#3200
1"
1%
1#
#3240
0"
sstep2 ,
b11101111111111111111111111111111 /
b11101111111111111111111111111111 *
b11101111111111111111111111111111 '
#3280
1"
0%
#3320
0"
sstep3 ,
b11110110010010111010011010000001 *
#3360
1"
1%
#3400
0"
sstep4 ,
b11110110010010111010011010000001 /
b11101111111111111111111111111111 *
b11110110010010111010011010000001 '
#3440
1"
#3480
0"
sdone ,
0$
#3520
1"
#3560
0"
#3600
1"
0%
0&
#3640
0"
sidle ,
1$
#3680
1"
b11111111111111111011111111111111 (
0#
#3720
0"
sstep1 ,
b11111111111111111011111111111111 )
1&
b11110000111110000010101000000010 0
#3760
1"
1#
#3800
0"
sstep2 ,
b11101111111111111111111111111111 /
b11101111111111111111111111111111 '
#3840
1"
1%
#3880
0"
sstep3 ,
b11110000111110000010101000000010 *
#3920
1"
0%
#3960
0"
sstep4 ,
b11110000111110000010101000000010 /
b11101111111111111111111111111111 *
b11110000111110000010101000000010 '
#4000
1"
#4040
0"
sdone ,
0$
0&
#4080
1"
1%
1&
#4120
0"
#4160
1"
0%
0&
#4200
0"
sidle ,
1$
#4240
1"
b11111111111111111111010111000010 (
0#
#4280
0"
sstep1 ,
b11111111111111111111010111000010 )
1&
b11110000000000001111001111111000 .
b11110000001001111100111000101001 -
b11101111111111111111111111111111 0
#4320
1"
1%
1#
#4360
0"
sstep2 ,
b11110000000000001111001111111000 /
b11110000001001111100111000101001 *
b11110000000000001111001111111000 '
#4400
1"
0%
#4440
0"
sstep3 ,
b11110000001010001011111111000100 /
b11101111111111111111111111111111 *
b11110000001010001011111111000100 '
#4480
1"
#4520
0"
sstep4 ,
#4560
1"
#4600
0"
sdone ,
0$
0&
#4640
1"
1%
1&
#4680
0"
#4720
1"
#4760
0"
#4800
1"
#4840
0"
#4880
1"
0%
0&
#4920
0"
sidle ,
1$
#4960
1"
b11111111111111111111111111100101 (
0#
#5000
0"
sstep1 ,
b11111111111111111111111111100101 )
1&
b11110000000000000110011111111110 .
b11101111111111111111111111111111 -
#5040
1"
1%
1#
#5080
0"
sstep2 ,
b11110000000000000110011111111110 /
b11110000000000000110011111111110 '
#5120
1"
#5160
0"
sstep3 ,
#5200
1"
#5240
0"
sstep4 ,
#5280
1"
0%
#5320
0"
sdone ,
0$
0&
#5360
1"
#5400
0"
sidle ,
1$
#5440
1"
b11111111111111111111111111111101 (
0#
1%
#5480
0"
sstep1 ,
b11111111111111111111111111111101 )
1&
b11110000000000000000011111111111 .
#5520
1"
1#
#5560
0"
sstep2 ,
b11110000000000000000011111111111 /
b11110000000000000000011111111111 '
#5600
1"
#5640
0"
sstep3 ,
#5680
1"
#5720
0"
sstep4 ,
#5760
1"
#5800
0"
sdone ,
0$
#5840
1"
0%
0&
#5880
0"
sidle ,
1$
#5920
1"
b11111111111100110110111100000010 (
0#
1%
#5960
0"
sstep1 ,
b11111111111100110110111100000010 )
1&
b11110000000000001111001111111000 .
b11110000000000101111111110111000 -
b11110010000110010101010101100010 0
b11111111001101000001001001111001 +
#6000
1"
1#
#6040
0"
sstep2 ,
b11110000000000001111001111111000 /
b11110000000000101111111110111000 *
b11110000000000001111001111111000 '
#6080
1"
#6120
0"
sstep3 ,
b11110000000000111111001110000100 /
b11110010000110010101010101100010 *
b11110000000000111111001110000100 '
#6160
1"
#6200
0"
sstep4 ,
b11110010000111001100010000110101 /
b11111111001101000001001001111001 *
b11110010000111001100010000110101 '
#6240
1"
0%
#6280
0"
sdone ,
b11111111010011101111111011001111 /
b11111111010011101111111011001111 '
0$
0&
#6320
1"
1%
1&
#6360
0"
#6400
1"
#6440
0"
#6480
1"
#6520
0"
#6560
1"
#6600
0"
#6640
1"
#6680
0"
#6720
1"
0%
0&
#6760
0"
sidle ,
1$
#6800
1"
b11111111111101010010000001111010 (
0#
1%
#6840
0"
sstep1 ,
b11111111111101010010000001111010 )
1&
b11110000000000000001001111111111 .
b11110000001111011000100001111010 -
b11111000000101000101010100111101 0
b11111101110101011010101010101011 +
#6880
1"
0%
1#
#6920
0"
sstep2 ,
b11110000000000000001001111111111 /
b11110000001111011000100001111010 *
b11110000000000000001001111111111 '
#6960
1"
#7000
0"
sstep3 ,
b11110000001111011001110000101110 /
b11111000000101000101010100111101 *
b11110000001111011001110000101110 '
#7040
1"
#7080
0"
sstep4 ,
b11111000001100101101010100001010 /
b11111101110101011010101010101011 *
b11111000001100101101010100001010 '
#7120
1"
1%
#7160
0"
sdone ,
b11111110111100011011011001110101 /
b11111110111100011011011001110101 '
0$
#7200
1"
#7240
0"
#7280
1"
0%
0&
#7320
0"
sidle ,
1$
#7360
1"
b11111111111110011000011100100010 (
0#
#7400
0"
sstep1 ,
b11111111111110011000011100100010 )
1&
b11110000000000000111001111111110 .
b11110000001000101101100111010011 -
b11110111010011010000101100011110 0
b11111010000111010010101001110010 +
#7440
1"
1#
#7480
0"
sstep2 ,
b11110000000000000111001111111110 /
b11110000001000101101100111010011 *
b11110000000000000111001111111110 '
#7520
1"
1%
#7560
0"
sstep3 ,
b11110000001000110100110011010110 /
b11110111010011010000101100011110 *
b11110000001000110100110011010110 '
#7600
1"
#7640
0"
sstep4 ,
b11110111011000000011110001011101 /
b11111010000111010010101001110010 *
b11110111011000000011110001011101 '
#7680
1"
0%
#7720
0"
sdone ,
b11111100110100111100111100010111 /
b11111100110100111100111100010111 '
0$
0&
#7760
1"
1%
1&
#7800
0"
#7840
1"
0%
0&
#7880
0"
sidle ,
1$
#7920
1"
b11111111111111011000011100100010 (
0#
1%
#7960
0"
sstep1 ,
b11111111111111011000011100100010 )
1&
b11101111111111111111111111111111 +
#8000
1"
0%
1#
#8040
0"
sstep2 ,
b11110000000000000111001111111110 /
b11110000001000101101100111010011 *
b11110000000000000111001111111110 '
#8080
1"
1%
#8120
0"
sstep3 ,
b11110000001000110100110011010110 /
b11110111010011010000101100011110 *
b11110000001000110100110011010110 '
#8160
1"
#8200
0"
sstep4 ,
b11110111011000000011110001011101 /
b11101111111111111111111111111111 *
b11110111011000000011110001011101 '
#8240
1"
0%
#8280
0"
sdone ,
0$
0&
#8320
1"
#8360
0"
sidle ,
1$
#8400
1"
b11111111111111111000000110010100 (
0#
#8440
0"
sstep1 ,
b11111111111111111000000110010100 )
1&
b11110000000000001010101111111100 .
b11110000001110001001101011110000 -
b11110001101010000101111010001100 0
#8480
1"
1#
#8520
0"
sstep2 ,
b11110000000000001010101111111100 /
b11110000001110001001101011110000 *
b11110000000000001010101111111100 '
#8560
1"
1%
#8600
0"
sstep3 ,
b11110000001110010100010010001101 /
b11110001101010000101111010001100 *
b11110000001110010100010010001101 '
#8640
1"
#8680
0"
sstep4 ,
b11110001110110111011010000101111 /
b11101111111111111111111111111111 *
b11110001110110111011010000101111 '
#8720
1"
0%
#8760
0"
sdone ,
0$
0&
#8800
1"
1%
1&
#8840
0"
#8880
1"
#8920
0"
#8960
1"
0%
0&
#9000
0"
sidle ,
1$
#9040
1"
b11111111110001000000000000000000 (
0#
#9080
0"
sstep1 ,
b11111111110001000000000000000000 )
1&
b11110000000000001111101111111000 .
b11110000001111101000010010011010 -
b11111010000001010110111111000110 0
b11111111111111111111111100100000 +
#9120
1"
1%
1#
#9160
0"
sstep2 ,
b11110000000000001111101111111000 /
b11110000001111101000010010011010 *
b11110000000000001111101111111000 '
#9200
1"
#9240
0"
sstep3 ,
b11110000001111110111110010111011 /
b11111010000001010110111111000110 *
b11110000001111110111110010111011 '
#9280
1"
0%
#9320
0"
sstep4 ,
b11111010000111010010100011111010 /
b11111111111111111111111100100000 *
b11111010000111010010100011111010 '
#9360
1"
#9400
0"
sdone ,
b11111111111111111111111110101101 /
b11111111111111111111111110101101 '
0$
0&
#9440
1"
1%
1&
#9480
0"
#9520
1"
0%
0&
#9560
0"
sidle ,
1$
#9600
1"
b11111111110111111111111111111111 (
0#
#9640
0"
sstep1 ,
b11111111110111111111111111111111 )
1&
b11101111111111111111111111111111 .
b11101111111111111111111111111111 -
b11101111111111111111111111111111 0
b11111111111111101010000000111101 +
#9680
1"
1#
#9720
0"
sstep2 ,
b11101111111111111111111111111111 /
b11101111111111111111111111111111 *
b11101111111111111111111111111111 '
#9760
1"
#9800
0"
sstep3 ,
#9840
1"
1%
#9880
0"
sstep4 ,
b11111111111111101010000000111101 *
#9920
1"
0%
#9960
0"
sdone ,
b11111111111111101010000000111101 /
b11111111111111101010000000111101 '
0$
0&
#10000
1"
1%
1&
#10040
0"
#10080
1"
#10120
0"
#10160
1"
0%
0&
#10200
0"
sidle ,
1$
#10240
1"
b11111111111111111111111011111001 (
0#
#10280
0"
sstep1 ,
b11111111111111111111111011111001 )
1&
b11110000000000000001011111111111 .
b11110000000000111111111110000000 -
b11101111111111111111111111111111 +
#10320
1"
1#
#10360
0"
sstep2 ,
b11110000000000000001011111111111 /
b11110000000000111111111110000000 *
b11110000000000000001011111111111 '
#10400
1"
#10440
0"
sstep3 ,
b11110000000001000001011101111011 /
b11101111111111111111111111111111 *
b11110000000001000001011101111011 '
#10480
1"
#10520
0"
sstep4 ,
#10560
1"
#10600
0"
sdone ,
0$
0&
#10640
1"
1%
1&
#10680
0"
#10720
1"
0%
0&
#10760
0"
sidle ,
1$
#10800
1"
b11111111111111111111111111111111 (
0#
#10840
0"
sstep1 ,
b11111111111111111111111111111111 )
1&
b11101111111111111111111111111111 .
b11101111111111111111111111111111 -
